﻿
DisplayName "ライラの大滝 B3F"



EVENT   1
 PAGE   1
  250(bytes(0x04,0x08,0x6f,0x3a,0x0c,0x52,0x50,0x47,0x3a,0x3a,0x53,0x45,0x08,0x3a,0x0a,0x40,0x6e,0x61,0x6d,0x65,0x49,0x22,0x09,0x4d,0x6f,0x76,0x65,0x06,0x3a,0x06,0x45,0x54,0x3a,0x0b,0x40,0x70,0x69,0x74,0x63,0x68,0x69,0x69,0x3a,0x0c,0x40,0x76,0x6f,0x6c,0x75,0x6d,0x65,0x69,0x55))
  TeleportPlayer(0,73,51,42,0,0)
  0()



EVENT   2
 PAGE   1
  0()



EVENT   3
 PAGE   1
  0()



EVENT   4
 PAGE   1
  0()



EVENT   5
 PAGE   1
  0()



EVENT   6
 PAGE   1
  0()



EVENT   7
 PAGE   1
  0()



EVENT   8
 PAGE   1
  0()



EVENT   9
 PAGE   1
  0()



EVENT   10
 PAGE   1
  0()



EVENT   11
 PAGE   1
  250(bytes(0x04,0x08,0x6f,0x3a,0x0c,0x52,0x50,0x47,0x3a,0x3a,0x53,0x45,0x08,0x3a,0x0a,0x40,0x6e,0x61,0x6d,0x65,0x49,0x22,0x0a,0x43,0x68,0x65,0x73,0x74,0x06,0x3a,0x06,0x45,0x54,0x3a,0x0b,0x40,0x70,0x69,0x74,0x63,0x68,0x69,0x69,0x3a,0x0c,0x40,0x76,0x6f,0x6c,0x75,0x6d,0x65,0x69,0x55))
  205(0,bytes(0x04,0x08,0x6f,0x3a,0x13,0x52,0x50,0x47,0x3a,0x3a,0x4d,0x6f,0x76,0x65,0x52,0x6f,0x75,0x74,0x65,0x09,0x3a,0x0c,0x40,0x72,0x65,0x70,0x65,0x61,0x74,0x46,0x3a,0x0f,0x40,0x73,0x6b,0x69,0x70,0x70,0x61,0x62,0x6c,0x65,0x46,0x3a,0x0a,0x40,0x77,0x61,0x69,0x74,0x54,0x3a,0x0a,0x40,0x6c,0x69,0x73,0x74,0x5b,0x0b,0x6f,0x3a,0x15,0x52,0x50,0x47,0x3a,0x3a,0x4d,0x6f,0x76,0x65,0x43,0x6f,0x6d,0x6d,0x61,0x6e,0x64,0x07,0x3a,0x0a,0x40,0x63,0x6f,0x64,0x65,0x69,0x29,0x3a,0x10,0x40,0x70,0x61,0x72,0x61,0x6d,0x65,0x74,0x65,0x72,0x73,0x5b,0x00,0x6f,0x3b,0x0a,0x07,0x3b,0x0b,0x69,0x16,0x3b,0x0c,0x5b,0x00,0x6f,0x3b,0x0a,0x07,0x3b,0x0b,0x69,0x14,0x3b,0x0c,0x5b,0x06,0x69,0x08,0x6f,0x3b,0x0a,0x07,0x3b,0x0b,0x69,0x17,0x3b,0x0c,0x5b,0x00,0x6f,0x3b,0x0a,0x07,0x3b,0x0b,0x69,0x14,0x3b,0x0c,0x5b,0x06,0x69,0x08,0x6f,0x3b,0x0a,0x07,0x3b,0x0b,0x69,0x00,0x3b,0x0c,0x5b,0x00))
  ChangeSelfSwitch("A",0)
  ChangeInventoryWeapon(254,0,0,1)
  0()
 PAGE   2
  // condition: self-switch A is ON
  0()



EVENT   12
 PAGE   1
  250(bytes(0x04,0x08,0x6f,0x3a,0x0c,0x52,0x50,0x47,0x3a,0x3a,0x53,0x45,0x08,0x3a,0x0a,0x40,0x6e,0x61,0x6d,0x65,0x49,0x22,0x0a,0x43,0x68,0x65,0x73,0x74,0x06,0x3a,0x06,0x45,0x54,0x3a,0x0b,0x40,0x70,0x69,0x74,0x63,0x68,0x69,0x69,0x3a,0x0c,0x40,0x76,0x6f,0x6c,0x75,0x6d,0x65,0x69,0x55))
  205(0,bytes(0x04,0x08,0x6f,0x3a,0x13,0x52,0x50,0x47,0x3a,0x3a,0x4d,0x6f,0x76,0x65,0x52,0x6f,0x75,0x74,0x65,0x09,0x3a,0x0c,0x40,0x72,0x65,0x70,0x65,0x61,0x74,0x46,0x3a,0x0f,0x40,0x73,0x6b,0x69,0x70,0x70,0x61,0x62,0x6c,0x65,0x46,0x3a,0x0a,0x40,0x77,0x61,0x69,0x74,0x54,0x3a,0x0a,0x40,0x6c,0x69,0x73,0x74,0x5b,0x0b,0x6f,0x3a,0x15,0x52,0x50,0x47,0x3a,0x3a,0x4d,0x6f,0x76,0x65,0x43,0x6f,0x6d,0x6d,0x61,0x6e,0x64,0x07,0x3a,0x0a,0x40,0x63,0x6f,0x64,0x65,0x69,0x29,0x3a,0x10,0x40,0x70,0x61,0x72,0x61,0x6d,0x65,0x74,0x65,0x72,0x73,0x5b,0x00,0x6f,0x3b,0x0a,0x07,0x3b,0x0b,0x69,0x16,0x3b,0x0c,0x5b,0x00,0x6f,0x3b,0x0a,0x07,0x3b,0x0b,0x69,0x14,0x3b,0x0c,0x5b,0x06,0x69,0x08,0x6f,0x3b,0x0a,0x07,0x3b,0x0b,0x69,0x17,0x3b,0x0c,0x5b,0x00,0x6f,0x3b,0x0a,0x07,0x3b,0x0b,0x69,0x14,0x3b,0x0c,0x5b,0x06,0x69,0x08,0x6f,0x3b,0x0a,0x07,0x3b,0x0b,0x69,0x00,0x3b,0x0c,0x5b,0x00))
  ChangeSelfSwitch("A",0)
  ChangeInventory_Item(73,0,0,1)
  0()
 PAGE   2
  // condition: self-switch A is ON
  0()



EVENT   13
 PAGE   1
  If(12,"unlock_level < 1")
   ShowMessageFace("",0,0,2,1)
   ShowMessage("The chest is locked.")
   EndEventProcessing()
   0()
  EndIf()
  250(bytes(0x04,0x08,0x6f,0x3a,0x0c,0x52,0x50,0x47,0x3a,0x3a,0x53,0x45,0x08,0x3a,0x0a,0x40,0x6e,0x61,0x6d,0x65,0x49,0x22,0x0a,0x43,0x68,0x65,0x73,0x74,0x06,0x3a,0x06,0x45,0x54,0x3a,0x0b,0x40,0x70,0x69,0x74,0x63,0x68,0x69,0x69,0x3a,0x0c,0x40,0x76,0x6f,0x6c,0x75,0x6d,0x65,0x69,0x55))
  205(0,bytes(0x04,0x08,0x6f,0x3a,0x13,0x52,0x50,0x47,0x3a,0x3a,0x4d,0x6f,0x76,0x65,0x52,0x6f,0x75,0x74,0x65,0x09,0x3a,0x0c,0x40,0x72,0x65,0x70,0x65,0x61,0x74,0x46,0x3a,0x0f,0x40,0x73,0x6b,0x69,0x70,0x70,0x61,0x62,0x6c,0x65,0x46,0x3a,0x0a,0x40,0x77,0x61,0x69,0x74,0x54,0x3a,0x0a,0x40,0x6c,0x69,0x73,0x74,0x5b,0x0b,0x6f,0x3a,0x15,0x52,0x50,0x47,0x3a,0x3a,0x4d,0x6f,0x76,0x65,0x43,0x6f,0x6d,0x6d,0x61,0x6e,0x64,0x07,0x3a,0x0a,0x40,0x63,0x6f,0x64,0x65,0x69,0x29,0x3a,0x10,0x40,0x70,0x61,0x72,0x61,0x6d,0x65,0x74,0x65,0x72,0x73,0x5b,0x00,0x6f,0x3b,0x0a,0x07,0x3b,0x0b,0x69,0x16,0x3b,0x0c,0x5b,0x00,0x6f,0x3b,0x0a,0x07,0x3b,0x0b,0x69,0x14,0x3b,0x0c,0x5b,0x06,0x69,0x08,0x6f,0x3b,0x0a,0x07,0x3b,0x0b,0x69,0x17,0x3b,0x0c,0x5b,0x00,0x6f,0x3b,0x0a,0x07,0x3b,0x0b,0x69,0x14,0x3b,0x0c,0x5b,0x06,0x69,0x08,0x6f,0x3b,0x0a,0x07,0x3b,0x0b,0x69,0x00,0x3b,0x0c,0x5b,0x00))
  ChangeSelfSwitch("A",0)
  ChangeInventoryWeapon(161,0,0,1)
  0()
 PAGE   2
  // condition: self-switch A is ON
  0()



EVENT   14
 PAGE   1
  250(bytes(0x04,0x08,0x6f,0x3a,0x0c,0x52,0x50,0x47,0x3a,0x3a,0x53,0x45,0x08,0x3a,0x0a,0x40,0x6e,0x61,0x6d,0x65,0x49,0x22,0x0a,0x43,0x68,0x65,0x73,0x74,0x06,0x3a,0x06,0x45,0x54,0x3a,0x0b,0x40,0x70,0x69,0x74,0x63,0x68,0x69,0x69,0x3a,0x0c,0x40,0x76,0x6f,0x6c,0x75,0x6d,0x65,0x69,0x55))
  205(0,bytes(0x04,0x08,0x6f,0x3a,0x13,0x52,0x50,0x47,0x3a,0x3a,0x4d,0x6f,0x76,0x65,0x52,0x6f,0x75,0x74,0x65,0x09,0x3a,0x0c,0x40,0x72,0x65,0x70,0x65,0x61,0x74,0x46,0x3a,0x0f,0x40,0x73,0x6b,0x69,0x70,0x70,0x61,0x62,0x6c,0x65,0x46,0x3a,0x0a,0x40,0x77,0x61,0x69,0x74,0x54,0x3a,0x0a,0x40,0x6c,0x69,0x73,0x74,0x5b,0x0b,0x6f,0x3a,0x15,0x52,0x50,0x47,0x3a,0x3a,0x4d,0x6f,0x76,0x65,0x43,0x6f,0x6d,0x6d,0x61,0x6e,0x64,0x07,0x3a,0x0a,0x40,0x63,0x6f,0x64,0x65,0x69,0x29,0x3a,0x10,0x40,0x70,0x61,0x72,0x61,0x6d,0x65,0x74,0x65,0x72,0x73,0x5b,0x00,0x6f,0x3b,0x0a,0x07,0x3b,0x0b,0x69,0x16,0x3b,0x0c,0x5b,0x00,0x6f,0x3b,0x0a,0x07,0x3b,0x0b,0x69,0x14,0x3b,0x0c,0x5b,0x06,0x69,0x08,0x6f,0x3b,0x0a,0x07,0x3b,0x0b,0x69,0x17,0x3b,0x0c,0x5b,0x00,0x6f,0x3b,0x0a,0x07,0x3b,0x0b,0x69,0x14,0x3b,0x0c,0x5b,0x06,0x69,0x08,0x6f,0x3b,0x0a,0x07,0x3b,0x0b,0x69,0x00,0x3b,0x0c,0x5b,0x00))
  ChangeSelfSwitch("A",0)
  ChangeInventoryArmor(1370,0,0,1)
  0()
 PAGE   2
  // condition: self-switch A is ON
  0()



EVENT   15
 PAGE   1
  250(bytes(0x04,0x08,0x6f,0x3a,0x0c,0x52,0x50,0x47,0x3a,0x3a,0x53,0x45,0x08,0x3a,0x0a,0x40,0x6e,0x61,0x6d,0x65,0x49,0x22,0x0a,0x43,0x68,0x65,0x73,0x74,0x06,0x3a,0x06,0x45,0x54,0x3a,0x0b,0x40,0x70,0x69,0x74,0x63,0x68,0x69,0x69,0x3a,0x0c,0x40,0x76,0x6f,0x6c,0x75,0x6d,0x65,0x69,0x55))
  205(0,bytes(0x04,0x08,0x6f,0x3a,0x13,0x52,0x50,0x47,0x3a,0x3a,0x4d,0x6f,0x76,0x65,0x52,0x6f,0x75,0x74,0x65,0x09,0x3a,0x0c,0x40,0x72,0x65,0x70,0x65,0x61,0x74,0x46,0x3a,0x0f,0x40,0x73,0x6b,0x69,0x70,0x70,0x61,0x62,0x6c,0x65,0x46,0x3a,0x0a,0x40,0x77,0x61,0x69,0x74,0x54,0x3a,0x0a,0x40,0x6c,0x69,0x73,0x74,0x5b,0x0b,0x6f,0x3a,0x15,0x52,0x50,0x47,0x3a,0x3a,0x4d,0x6f,0x76,0x65,0x43,0x6f,0x6d,0x6d,0x61,0x6e,0x64,0x07,0x3a,0x0a,0x40,0x63,0x6f,0x64,0x65,0x69,0x29,0x3a,0x10,0x40,0x70,0x61,0x72,0x61,0x6d,0x65,0x74,0x65,0x72,0x73,0x5b,0x00,0x6f,0x3b,0x0a,0x07,0x3b,0x0b,0x69,0x16,0x3b,0x0c,0x5b,0x00,0x6f,0x3b,0x0a,0x07,0x3b,0x0b,0x69,0x14,0x3b,0x0c,0x5b,0x06,0x69,0x08,0x6f,0x3b,0x0a,0x07,0x3b,0x0b,0x69,0x17,0x3b,0x0c,0x5b,0x00,0x6f,0x3b,0x0a,0x07,0x3b,0x0b,0x69,0x14,0x3b,0x0c,0x5b,0x06,0x69,0x08,0x6f,0x3b,0x0a,0x07,0x3b,0x0b,0x69,0x00,0x3b,0x0c,0x5b,0x00))
  ChangeSelfSwitch("A",0)
  ChangeInventory_Item(8,0,0,1)
  0()
 PAGE   2
  // condition: self-switch A is ON
  0()



EVENT   16
 PAGE   1
  If(1,1071,0,1,0)
   241(bytes(0x04,0x08,0x6f,0x3a,0x0d,0x52,0x50,0x47,0x3a,0x3a,0x42,0x47,0x4d,0x08,0x3a,0x0a,0x40,0x6e,0x61,0x6d,0x65,0x49,0x22,0x0a,0x62,0x6f,0x73,0x73,0x30,0x06,0x3a,0x06,0x45,0x54,0x3a,0x0c,0x40,0x76,0x6f,0x6c,0x75,0x6d,0x65,0x69,0x69,0x3a,0x0b,0x40,0x70,0x69,0x74,0x63,0x68,0x69,0x69))
   PictureDisplay(5,"80_queenmermaid_st01",0,0,0,0,100,100,0,0)
   PictureMove(5,null,0,0,0,0,100,100,255,0,60,true)
   ShowMessageFace("queenmermaid_fc1",0,0,2,1)
   ShowMessage("\\n<クィーンマーメイド>人間の勇者が、こんな所まで来たのね……")
   ShowMessage("そんなに人魚が憎いの？")
   ShowMessageFace("ruka_fc1",0,0,2,2)
   ShowMessage("\\n<Luka>別に憎くなんてないさ……")
   ShowMessage("僕達は、その憎悪を断ち切りに来たんだ！")
   If(0,4,0)
    ShowMessageFace("alice_fc5",2,0,2,3)
    ShowMessage("\\n<Alice>かつて、貴様を襲った不幸には同情する……")
    ShowMessage("だが、その復讐にしても度を超えているぞ。")
    0()
   EndIf()
   If(0,5,0)
    ShowMessageFace("iriasu_fc4",7,0,2,4)
    ShowMessage("\\n<Ilias>あなたを襲った不幸には、形だけでも同情しておきましょう。")
    ShowMessage("しかし、その復讐にしてはあまりにも事態が大き過ぎませんか？")
    0()
   EndIf()
   ShowMessageFace("queenmermaid_fc1",0,0,2,5)
   ShowMessage("\\n<クィーンマーメイド>あくまで、人魚族全体の事を考えての行動よ。")
   ShowMessage("私自身の、個人の事情は関係ないわ……")
   If(0,4,0)
    ShowMessageFace("alice_fc5",2,0,2,6)
    ShowMessage("\\n<Alice>公私混同が過ぎるように思えるがな……")
    ShowMessage("そして貴様の憎しみは、人魚族の未来をも奪おうとしているぞ。")
    0()
   EndIf()
   If(0,5,0)
    ShowMessageFace("iriasu_fc4",7,0,2,7)
    ShowMessage("\\n<Ilias>そうですか？　公私混同が過ぎるように思えますが……")
    ShowMessage("さらにあなたの憎しみは、人魚族の未来をも奪おうとしていますよ。")
    0()
   EndIf()
   ShowMessageFace("queenmermaid_fc1",0,0,2,8)
   ShowMessage("\\n<クィーンマーメイド>あなた達は、私を倒しに来たの？")
   ShowMessage("それとも、説教をしに来たの……？")
   If(0,4,0)
    ShowMessageFace("alice_fc5",2,0,2,9)
    ShowMessage("\\n<Alice>もちろん、倒しにだ。")
    ShowMessage("もはや貴様の憎悪は、力でなければ止まらんだろう……？")
    0()
   EndIf()
   If(0,5,0)
    ShowMessageFace("iriasu_fc4",7,0,2,10)
    ShowMessage("\\n<Ilias>当然、倒しに来ました。")
    ShowMessage("説得して収まる程度の憎悪ではないでしょう……？")
    0()
   EndIf()
   ShowMessageFace("queenmermaid_fc1",0,0,2,11)
   ShowMessage("\\n<クィーンマーメイド>ええ、もはや私は止まらないわ……")
   ShowMessage("この感情を憎悪というなら、私は憎悪で未来を切り開く……！")
   If(4,45,0)
    ShowMessageFace("alicetromeria_fc1",4,0,2,12)
    ShowMessage("\\n<Alicetroemeria>うふふっ……")
    ShowMessage("飲み込めもしない憎悪、吐き散らすのは感心できませんよ。")
    0()
   EndIf()
   If(4,328,0)
    ShowMessageFace("queenmermaid_fc1",0,0,2,13)
    ShowMessage("\\n<ローラ>……特に言うことはないわ。")
    ShowMessage("言葉では、もうこの時の私は止まらないから……")
    ShowMessageFace("queenmermaid_fc1",1,0,2,14)
    ShowMessage("\\n<クィーンマーメイド>何者か知らないけれど、その通りよ……！")
    0()
   EndIf()
   ShowMessageFace("ruka_fc1",0,0,2,15)
   ShowMessage("\\n<Luka>それなら、この剣で止めてみせる！")
   ShowMessage("行くぞ、クィーンマーメイド！")
   ShowMessageFace("queenmermaid_fc1",0,0,2,16)
   ShowMessage("\\n<クィーンマーメイド>来なさい、勇者……")
   ShowMessage("私の怒り、教えてあげるわ……！")
   PictureClear(5)
   SetBattleBGM(bytes(0x04,0x08,0x6f,0x3a,0x0d,0x52,0x50,0x47,0x3a,0x3a,0x42,0x47,0x4d,0x08,0x3a,0x0a,0x40,0x6e,0x61,0x6d,0x65,0x49,0x22,0x0a,0x62,0x6f,0x73,0x73,0x32,0x06,0x3a,0x06,0x45,0x54,0x3a,0x0c,0x40,0x76,0x6f,0x6c,0x75,0x6d,0x65,0x69,0x69,0x3a,0x0b,0x40,0x70,0x69,0x74,0x63,0x68,0x69,0x69))
   ChangeSwitch(22,22,0)
   Battle(0,802,false,false)
   ChangeSwitch(22,22,1)
   SetBattleBGM(bytes(0x04,0x08,0x6f,0x3a,0x0d,0x52,0x50,0x47,0x3a,0x3a,0x42,0x47,0x4d,0x08,0x3a,0x0a,0x40,0x6e,0x61,0x6d,0x65,0x49,0x22,0x0b,0x62,0x61,0x74,0x74,0x6c,0x65,0x06,0x3a,0x06,0x45,0x54,0x3a,0x0c,0x40,0x76,0x6f,0x6c,0x75,0x6d,0x65,0x69,0x69,0x3a,0x0b,0x40,0x70,0x69,0x74,0x63,0x68,0x69,0x69))
   281(1)
   TeleportPlayer(0,74,32,32,8,2)
   ChangeVariable(1071,1071,0,0,2)
   ChangeVariable(1080,1080,0,0,3)
   241(bytes(0x04,0x08,0x6f,0x3a,0x0d,0x52,0x50,0x47,0x3a,0x3a,0x42,0x47,0x4d,0x08,0x3a,0x0a,0x40,0x6e,0x61,0x6d,0x65,0x49,0x22,0x13,0x73,0x63,0x65,0x6e,0x65,0x5f,0x6f,0x64,0x61,0x79,0x61,0x6b,0x61,0x32,0x06,0x3a,0x06,0x45,0x54,0x3a,0x0c,0x40,0x76,0x6f,0x6c,0x75,0x6d,0x65,0x69,0x69,0x3a,0x0b,0x40,0x70,0x69,0x74,0x63,0x68,0x69,0x69))
   PictureDisplay(5,"80_queenmermaid_st03",0,0,0,0,100,100,0,0)
   PictureMove(5,null,0,0,0,0,100,100,255,0,30,true)
   355("gain_medal(55)")
   If(4,14,0)
    ShowMessageFace("undine_fc1",0,0,2,17)
    ShowMessage("\\n<Undine>人魚の女王、気は済んだかしら……？")
    0()
   EndIf()
   ShowMessageFace("queenmermaid_fc1",1,0,2,18)
   ShowMessage("\\n<クィーンマーメイド>私の、負けね……")
   If(0,4,0)
    ShowMessageFace("alice_fc5",2,0,2,19)
    ShowMessage("\\n<Alice>ふん、こちらが負ける道理もあるまい……")
    ShowMessage("自分の憎悪を他人に否定してもらいたい者などにはな。")
    0()
   EndIf()
   If(0,5,0)
    ShowMessageFace("iriasu_fc4",7,0,2,20)
    ShowMessage("\\n<Ilias>自分の憎悪を、他人に否定してもらいたい者などに……")
    ShowMessage("我々が、負けるとでも思ったのですか？")
    0()
   EndIf()
   ShowMessageFace("ruka_fc1",0,0,2,21)
   ShowMessage("\\n<Luka>さあ、サン・イリアから軍を退いてくれ！")
   ShowMessageFace("queenmermaid_fc1",1,0,2,22)
   ShowMessage("\\n<クィーンマーメイド>しかし、私は……女王として……")
   PictureClear(5)
   ShowMessageFace("ningyohime_fc1",6,0,2,23)
   ShowMessage("\\n<エル>おかあさ～ん！")
   250(bytes(0x04,0x08,0x6f,0x3a,0x0c,0x52,0x50,0x47,0x3a,0x3a,0x53,0x45,0x08,0x3a,0x0a,0x40,0x6e,0x61,0x6d,0x65,0x49,0x22,0x0b,0x57,0x61,0x74,0x65,0x72,0x32,0x06,0x3a,0x06,0x45,0x54,0x3a,0x0b,0x40,0x70,0x69,0x74,0x63,0x68,0x69,0x69,0x3a,0x0c,0x40,0x76,0x6f,0x6c,0x75,0x6d,0x65,0x69,0x55))
   ChangeSwitch(31,31,0)
   205(18,bytes(0x04,0x08,0x6f,0x3a,0x13,0x52,0x50,0x47,0x3a,0x3a,0x4d,0x6f,0x76,0x65,0x52,0x6f,0x75,0x74,0x65,0x09,0x3a,0x0c,0x40,0x72,0x65,0x70,0x65,0x61,0x74,0x46,0x3a,0x0f,0x40,0x73,0x6b,0x69,0x70,0x70,0x61,0x62,0x6c,0x65,0x46,0x3a,0x0a,0x40,0x77,0x61,0x69,0x74,0x54,0x3a,0x0a,0x40,0x6c,0x69,0x73,0x74,0x5b,0x08,0x6f,0x3a,0x15,0x52,0x50,0x47,0x3a,0x3a,0x4d,0x6f,0x76,0x65,0x43,0x6f,0x6d,0x6d,0x61,0x6e,0x64,0x07,0x3a,0x0a,0x40,0x63,0x6f,0x64,0x65,0x69,0x13,0x3a,0x10,0x40,0x70,0x61,0x72,0x61,0x6d,0x65,0x74,0x65,0x72,0x73,0x5b,0x07,0x69,0x00,0x69,0x08,0x6f,0x3b,0x0a,0x07,0x3b,0x0b,0x69,0x17,0x3b,0x0c,0x5b,0x00,0x6f,0x3b,0x0a,0x07,0x3b,0x0b,0x69,0x00,0x3b,0x0c,0x5b,0x00))
   205(0,bytes(0x04,0x08,0x6f,0x3a,0x13,0x52,0x50,0x47,0x3a,0x3a,0x4d,0x6f,0x76,0x65,0x52,0x6f,0x75,0x74,0x65,0x09,0x3a,0x0c,0x40,0x72,0x65,0x70,0x65,0x61,0x74,0x46,0x3a,0x0f,0x40,0x73,0x6b,0x69,0x70,0x70,0x61,0x62,0x6c,0x65,0x46,0x3a,0x0a,0x40,0x77,0x61,0x69,0x74,0x54,0x3a,0x0a,0x40,0x6c,0x69,0x73,0x74,0x5b,0x07,0x6f,0x3a,0x15,0x52,0x50,0x47,0x3a,0x3a,0x4d,0x6f,0x76,0x65,0x43,0x6f,0x6d,0x6d,0x61,0x6e,0x64,0x07,0x3a,0x0a,0x40,0x63,0x6f,0x64,0x65,0x69,0x16,0x3a,0x10,0x40,0x70,0x61,0x72,0x61,0x6d,0x65,0x74,0x65,0x72,0x73,0x5b,0x00,0x6f,0x3b,0x0a,0x07,0x3b,0x0b,0x69,0x00,0x3b,0x0c,0x5b,0x00))
   Wait(60)
   PictureDisplay(5,"80_ningyohime_st08",0,0,-150,0,100,100,0,0)
   PictureDisplay(6,"80_queenmermaid_st01",0,0,150,0,100,100,0,0)
   PictureMove(5,null,0,0,-150,0,100,100,255,0,30,false)
   PictureMove(6,null,0,0,150,0,100,100,255,0,30,true)
   ShowMessageFace("queenmermaid_fc1",1,0,2,24)
   ShowMessage("\\n<クィーンマーメイド>エル……")
   ShowMessageFace("ningyohime_fc1",7,0,2,25)
   ShowMessage("\\n<エル>ねぇ、おかあさん……")
   ShowMessage("あたし、人間達に謝りたいの。")
   ShowMessageFace("queenmermaid_fc1",1,0,2,26)
   ShowMessage("\\n<クィーンマーメイド>……………………")
   If(0,4,0)
    ShowMessageFace("alice_fc5",2,0,2,27)
    ShowMessage("\\n<Alice>エルよ……貴様も女王になれば、自軍の総指揮を執る身だ。")
    ShowMessage("ここで余から、用兵の基礎の基礎を教えておいてやる。")
    ShowMessageFace("alice_fc5",2,0,2,28)
    ShowMessage("\\n<Alice>軍において命令を出した以上、その行使により起きた全ての事は、")
    ShowMessage("命令した者が責任を負う……")
    ShowMessageFace("alice_fc5",2,0,2,29)
    ShowMessage("\\n<Alice>命じられた者が、その命令で起きた事に関して責任を持つ事はない……")
    ShowMessage("いや、責任を持たされてはならんものなのだ。")
    ShowMessageFace("alice_fc5",2,0,2,30)
    ShowMessage("\\n<Alice>貴様もいずれ、命じる側に立つ。")
    ShowMessage("その事を、ゆめゆめ忘れるなよ。")
    If(0,6,0)
     ShowMessageFace("sonia_fc2",2,0,2,31)
     ShowMessage("\\n<Sonya>つまり、結論をまとめると？")
     0()
    Else()
     ShowMessageFace("ruka_fc1",0,0,2,32)
     ShowMessage("\\n<Luka>つまり、一言で言うと？")
     0()
    EndIf()
    ShowMessageFace("alice_fc5",0,0,2,33)
    ShowMessage("\\n<Alice>責任はクィーンマーメイドにある。")
    ShowMessage("エル、貴様が負うべき責などない。")
    ShowMessageFace("alice_fc5",0,0,2,34)
    ShowMessage("\\n<Alice>ただの慰めではなく、貴様は責を負ってはならんのだ。")
    ShowMessage("これを許せば、指揮系統が混乱してしまうからな。")
    0()
   EndIf()
   If(0,5,0)
    ShowMessageFace("iriasu_fc4",2,0,2,35)
    ShowMessage("\\n<Ilias>今さらあなたが謝って、何になるのです。")
    ShowMessage("そもそも命令を出したのは、クィーンマーメイドなのでしょう。")
    ShowMessageFace("iriasu_fc4",2,0,2,36)
    ShowMessage("\\n<Ilias>命令に従っただけの下っ端に、罪も責任もありません。")
    ShowMessage("組織というのは、そういうものである事を学びなさい。")
    0()
   EndIf()
   ShowMessageFace("queenmermaid_fc1",1,0,2,37)
   ShowMessage("\\n<クィーンマーメイド>その通りよ、エル……")
   ShowMessage("あれは、私の命令によって行われた事よ。")
   PictureDisplay(5,"80_ningyohime_st07",0,0,-150,0,100,100,255,0)
   ShowMessageFace("ningyohime_fc1",6,0,2,38)
   ShowMessage("\\n<エル>でも……")
   ShowMessageFace("queenmermaid_fc1",1,0,2,39)
   ShowMessage("\\n<クィーンマーメイド>責任のない者が、責任を取る事は許されないわ。")
   ShowMessage("責任ある者が、責任を取らない事が許されないようにね……")
   ShowMessageFace("queenmermaid_fc1",1,0,2,40)
   ShowMessage("\\n<クィーンマーメイド>エル……上に立つ者なら、肝に銘じておきなさい。")
   ShowMessage("この事を忘れれば、統治者としての資格はなくなるわ……")
   PictureDisplay(5,"80_ningyohime_st08",0,0,-150,0,100,100,255,0)
   ShowMessageFace("ningyohime_fc1",7,0,2,41)
   ShowMessage("\\n<エル>う、うん……")
   ShowMessageFace("queenmermaid_fc1",1,0,2,42)
   ShowMessage("\\n<クィーンマーメイド>そして、勇者ルカ……")
   ShowMessageFace("ruka_fc1",0,0,2,43)
   ShowMessage("\\n<Luka>……………………")
   ShowMessageFace("queenmermaid_fc1",0,0,2,44)
   ShowMessage("\\n<クィーンマーメイド>私は、サン・イリアに降伏するわ……")
   ShowMessage("女王の身柄を引き渡す条件は、私一人が全ての責任を負う事よ。")
   ShowMessageFace("queenmermaid_fc1",0,0,2,45)
   ShowMessage("\\n<クィーンマーメイド>ほかの人魚に罪はない、裁かれるのは私のみ……")
   ShowMessage("この降伏条件を、サン・イリア王に伝えて。")
   If(4,531,0)
    ShowMessageFace("saniria_fc2",0,0,2,46)
    ShowMessage("\\n<King of San Ilia>……………………")
    0()
   EndIf()
   PictureDisplay(5,"80_ningyohime_st09",0,0,-150,0,100,100,255,0)
   ShowMessageFace("ningyohime_fc2",0,0,2,47)
   ShowMessage("\\n<エル>そんな……お、お母さん……")
   If(0,6,0)
    ShowMessageFace("sonia_fc1",4,0,2,48)
    ShowMessage("\\n<Sonya>大丈夫、悪いようにはならないから。")
    ShowMessage("サン・イリア王は、優しくて思慮深い方だからね……")
    0()
   EndIf()
   ShowMessageFace("queenmermaid_fc1",1,0,2,49)
   ShowMessage("\\n<クィーンマーメイド>そして、エル……あなたは、勇者ルカと共に旅をしなさい。")
   ShowMessage("次代の女王として、様々なものをその目に納めるのです……")
   PictureDisplay(5,"80_ningyohime_st07",0,0,-150,0,100,100,255,0)
   ShowMessageFace("ningyohime_fc1",6,0,2,50)
   ShowMessage("\\n<エル>えっ？　あたしが、勇者といっしょに……？")
   205(0,bytes(0x04,0x08,0x6f,0x3a,0x13,0x52,0x50,0x47,0x3a,0x3a,0x4d,0x6f,0x76,0x65,0x52,0x6f,0x75,0x74,0x65,0x09,0x3a,0x0c,0x40,0x72,0x65,0x70,0x65,0x61,0x74,0x46,0x3a,0x0f,0x40,0x73,0x6b,0x69,0x70,0x70,0x61,0x62,0x6c,0x65,0x46,0x3a,0x0a,0x40,0x77,0x61,0x69,0x74,0x54,0x3a,0x0a,0x40,0x6c,0x69,0x73,0x74,0x5b,0x07,0x6f,0x3a,0x15,0x52,0x50,0x47,0x3a,0x3a,0x4d,0x6f,0x76,0x65,0x43,0x6f,0x6d,0x6d,0x61,0x6e,0x64,0x07,0x3a,0x0a,0x40,0x63,0x6f,0x64,0x65,0x69,0x15,0x3a,0x10,0x40,0x70,0x61,0x72,0x61,0x6d,0x65,0x74,0x65,0x72,0x73,0x5b,0x00,0x6f,0x3b,0x0a,0x07,0x3b,0x0b,0x69,0x00,0x3b,0x0c,0x5b,0x00))
   ShowMessageFace("queenmermaid_fc1",1,0,2,51)
   ShowMessage("\\n<クィーンマーメイド>娘を頼めますか、勇者ルカ……？")
   ShowMessageFace("ruka_fc1",0,0,2,52)
   ShowMessage("\\n<Luka>はい……分かりました。")
   241(bytes(0x04,0x08,0x6f,0x3a,0x0d,0x52,0x50,0x47,0x3a,0x3a,0x42,0x47,0x4d,0x08,0x3a,0x0a,0x40,0x6e,0x61,0x6d,0x65,0x49,0x22,0x14,0x73,0x63,0x65,0x6e,0x65,0x5f,0x65,0x70,0x69,0x6c,0x6f,0x67,0x75,0x65,0x32,0x06,0x3a,0x06,0x45,0x54,0x3a,0x0c,0x40,0x76,0x6f,0x6c,0x75,0x6d,0x65,0x69,0x69,0x3a,0x0b,0x40,0x70,0x69,0x74,0x63,0x68,0x69,0x69))
   PictureDisplay(5,"80_ningyohime_st05",0,0,-150,0,100,100,255,0)
   ShowMessageFace("ningyohime_fc1",4,0,2,53)
   ShowMessage("\\n<エル>うん！　それじゃ、勇者の元でいっぱい勉強するね！")
   ShowMessage("それで、立派な女王になるから！")
   PictureClear(5)
   PictureClear(6)
   205(18,bytes(0x04,0x08,0x6f,0x3a,0x13,0x52,0x50,0x47,0x3a,0x3a,0x4d,0x6f,0x76,0x65,0x52,0x6f,0x75,0x74,0x65,0x09,0x3a,0x0c,0x40,0x72,0x65,0x70,0x65,0x61,0x74,0x46,0x3a,0x0f,0x40,0x73,0x6b,0x69,0x70,0x70,0x61,0x62,0x6c,0x65,0x46,0x3a,0x0a,0x40,0x77,0x61,0x69,0x74,0x54,0x3a,0x0a,0x40,0x6c,0x69,0x73,0x74,0x5b,0x0a,0x6f,0x3a,0x15,0x52,0x50,0x47,0x3a,0x3a,0x4d,0x6f,0x76,0x65,0x43,0x6f,0x6d,0x6d,0x61,0x6e,0x64,0x07,0x3a,0x0a,0x40,0x63,0x6f,0x64,0x65,0x69,0x2a,0x3a,0x10,0x40,0x70,0x61,0x72,0x61,0x6d,0x65,0x74,0x65,0x72,0x73,0x5b,0x00,0x6f,0x3b,0x0a,0x07,0x3b,0x0b,0x69,0x0f,0x3b,0x0c,0x5b,0x00,0x6f,0x3b,0x0a,0x07,0x3b,0x0b,0x69,0x0f,0x3b,0x0c,0x5b,0x00,0x6f,0x3b,0x0a,0x07,0x3b,0x0b,0x69,0x2c,0x3b,0x0c,0x5b,0x00,0x6f,0x3b,0x0a,0x07,0x3b,0x0b,0x69,0x00,0x3b,0x0c,0x5b,0x00))
   355("add_actor_ex(327)")
   ChangeSwitch(31,31,1)
   249(bytes(0x04,0x08,0x6f,0x3a,0x0c,0x52,0x50,0x47,0x3a,0x3a,0x4d,0x45,0x08,0x3a,0x0a,0x40,0x6e,0x61,0x6d,0x65,0x49,0x22,0x0c,0x66,0x61,0x6e,0x66,0x61,0x6c,0x65,0x06,0x3a,0x06,0x45,0x54,0x3a,0x0b,0x40,0x70,0x69,0x74,0x63,0x68,0x69,0x69,0x3a,0x0c,0x40,0x76,0x6f,0x6c,0x75,0x6d,0x65,0x69,0x69))
   ShowMessageFace("",0,0,2,54)
   ShowMessage("エルが仲間に加わった！")
   Wait(60)
   If(0,4,0)
    ShowMessageFace("alice_fc5",0,0,2,55)
    ShowMessage("\\n<Alice>これで、ここでの用は済んだな。")
    ShowMessage("サン・イリア王に降伏条件を伝えに行くとしよう。")
    0()
   EndIf()
   If(0,5,0)
    ShowMessageFace("iriasu_fc4",0,0,2,56)
    ShowMessage("\\n<Ilias>これで、ここでの用事は済みましたね。")
    ShowMessage("さっそくサン・イリア王に降伏条件を伝えに行きましょう。")
    0()
   EndIf()
   ShowMessageFace("ningyohime_fc1",7,0,2,57)
   ShowMessage("\\n<エル>お母さん、本当に大丈夫？")
   ShowMessage("ひどい目に合わされたりしない……？")
   If(0,4,0)
    ShowMessageFace("alice_fc5",0,0,2,58)
    ShowMessage("\\n<Alice>あの王は、寛大かつ計算高い。")
    ShowMessage("ここで女王を無下に扱い、人魚との関係を悪化させる事はせんだろう。")
    0()
   EndIf()
   If(0,5,0)
    ShowMessageFace("iriasu_fc4",0,0,2,59)
    ShowMessage("\\n<Ilias>サン・イリア王は、計算高い人間……いや、計算高いメカ。")
    ShowMessage("女王を無下に扱い、人魚との関係を悪化させる事はしないでしょう。")
    0()
   EndIf()
   ShowMessageFace("ruka_fc1",0,0,2,60)
   ShowMessage("\\n<Luka>寛大な処置を得られるよう、僕からも王にお願いするよ。")
   ShowMessage("それじゃあ、サン・イリアに行こう。")
   241(bytes(0x04,0x08,0x6f,0x3a,0x0d,0x52,0x50,0x47,0x3a,0x3a,0x42,0x47,0x4d,0x08,0x3a,0x0a,0x40,0x6e,0x61,0x6d,0x65,0x49,0x22,0x12,0x64,0x75,0x6e,0x67,0x65,0x6f,0x6e,0x5f,0x69,0x7a,0x75,0x6d,0x69,0x06,0x3a,0x06,0x45,0x54,0x3a,0x0c,0x40,0x76,0x6f,0x6c,0x75,0x6d,0x65,0x69,0x69,0x3a,0x0b,0x40,0x70,0x69,0x74,0x63,0x68,0x69,0x69))
   EndEventProcessing()
   0()
  EndIf()
  If(1,1071,0,2,0)
   PictureDisplay(5,"80_queenmermaid_st01",0,0,0,0,100,100,0,0)
   PictureMove(5,null,0,0,0,0,100,100,255,0,30,true)
   ShowMessageFace("queenmermaid_fc1",1,0,2,61)
   ShowMessage("\\n<クィーンマーメイド>降伏条件をサン・イリア王に伝えてきて……")
   ShowMessage("エルの事も、頼んだわよ。")
   PictureClear(5)
   If(1,1068,0,3,1)
    ShowMessageFace("ruka_fc1",0,0,2,62)
    ShowMessage("\\n<Luka>そういえば、クラーケン娘を元に戻す方法について……")
    ShowMessage("いや、今は切り出せる雰囲気じゃないな。")
    0()
   EndIf()
   EndEventProcessing()
   0()
  EndIf()
  If(1,1071,0,3,0)
   If(2,"A",1)
    ChangeSelfSwitch("A",0)
    PictureDisplay(5,"80_queenmermaid_st01",0,0,0,0,100,100,0,0)
    PictureMove(5,null,0,0,0,0,100,100,255,0,30,true)
    ShowMessageFace("queenmermaid_fc1",0,0,2,63)
    ShowMessage("\\n<クィーンマーメイド>降伏受諾の旨、確かに聞いたわ。")
    ShowMessage("それに同盟の打診もね……")
    ShowMessageFace("queenmermaid_fc1",0,0,2,64)
    ShowMessage("\\n<クィーンマーメイド>戦犯として囚われたりする事もない……")
    ShowMessage("これまで通り、私は人魚の女王を務める……")
    ShowMessageFace("queenmermaid_fc1",0,0,2,65)
    ShowMessage("\\n<クィーンマーメイド>人間も、そこまで悪逆ではないのね。")
    ShowMessage("処刑される事さえ覚悟していたのに……")
    If(0,4,0)
     ShowMessageFace("alice_fc5",2,0,2,66)
     ShowMessage("\\n<Alice>言っただろうが、もはや時代は違うのだ。")
     ShowMessage("貴様が辛い目にあった時代は、すでに過ぎ去った。")
     0()
    EndIf()
    If(0,5,0)
     ShowMessageFace("iriasu_fc4",0,0,2,67)
     ShowMessage("\\n<Ilias>それはもはや、古い感覚なのですよ……")
     ShowMessage("人間も魔物も、互いに歩み出す時代なのです。")
     ShowMessageFace("iriasu_fc4",0,0,2,68)
     ShowMessage("\\n<Ilias>私でさえ、それを受け入れざるを得ませんでした。")
     ShowMessage("ずっと地上にいたあなたが、受け入れなくてどうするのです。")
     0()
    EndIf()
    ShowMessageFace("queenmermaid_fc1",0,0,2,69)
    ShowMessage("\\n<クィーンマーメイド>……エルをよろしくね。")
    ShowMessage("あの娘には、私のように道を誤らせないようにして。")
    ShowMessageFace("ruka_fc1",0,0,2,70)
    ShowMessage("\\n<Luka>はい、任せておいて下さい！")
    PictureClear(5)
    EndEventProcessing()
    0()
   EndIf()
   If(2,"A",0)
    PictureDisplay(5,"80_queenmermaid_st01",0,0,0,0,100,100,0,0)
    PictureMove(5,null,0,0,0,0,100,100,255,0,30,true)
    ShowMessageFace("queenmermaid_fc1",0,0,2,71)
    ShowMessage("\\n<クィーンマーメイド>同盟により、あなた達に協力するわ。")
    ShowMessage("必要な事があれば、言って……")
    If(1,1016,0,3,1)
     If(0,2251,1)
      RunCommonEvent(363)
      PictureClear(5)
      EndEventProcessing()
      0()
     EndIf()
     0()
    EndIf()
    ShowChoices(strings("仲間になってほしい","何もない"),2)
    IfPlayerPicksChoice(0,null)
     If(1,1083,0,7,2)
      PictureDisplay(5,"80_queenmermaid_st03",0,0,0,0,100,100,255,0)
      ShowMessageFace("queenmermaid_fc1",1,0,2,72)
      ShowMessage("\\n<クィーンマーメイド>申し訳ないけれど……それはできないわ。")
      ShowMessage("今の私は、エルが気がかりで戦いに集中できそうにないの……")
      ShowMessageFace("queenmermaid_fc1",1,0,2,73)
      ShowMessage("\\n<クィーンマーメイド>あの娘は、私が道を誤らせたようなもの……")
      ShowMessage("私の妄念が、あの娘にまで……")
      ShowMessageFace("",0,0,2,74)
      ShowMessage("クィーンマーメイドは、娘のエルの事で思い悩んでいる……")
      ShowMessage("悩みを解消してあげなければ、仲間にはならないだろう。")
      PictureClear(5)
      EndEventProcessing()
      0()
     EndIf()
     If(1,1083,0,8,1)
      PictureDisplay(5,"80_queenmermaid_st03",0,0,0,0,100,100,255,0)
      ShowMessageFace("queenmermaid_fc1",1,0,2,75)
      ShowMessage("\\n<クィーンマーメイド>申し訳ないけれど……それはできないわ。")
      ShowMessage("今の私は、エルが気がかりで戦いに集中できそうにないの……")
      ShowMessageFace("queenmermaid_fc1",1,0,2,76)
      ShowMessage("\\n<クィーンマーメイド>あの娘は、私が道を誤らせたようなもの……")
      ShowMessage("私の妄念が、あの娘にまで……")
      241(bytes(0x04,0x08,0x6f,0x3a,0x0d,0x52,0x50,0x47,0x3a,0x3a,0x42,0x47,0x4d,0x08,0x3a,0x0a,0x40,0x6e,0x61,0x6d,0x65,0x49,0x22,0x14,0x73,0x63,0x65,0x6e,0x65,0x5f,0x65,0x70,0x69,0x6c,0x6f,0x67,0x75,0x65,0x32,0x06,0x3a,0x06,0x45,0x54,0x3a,0x0c,0x40,0x76,0x6f,0x6c,0x75,0x6d,0x65,0x69,0x69,0x3a,0x0b,0x40,0x70,0x69,0x74,0x63,0x68,0x69,0x69))
      PictureDisplay(5,"80_ningyohime_st04",0,0,-150,0,100,100,255,0)
      PictureDisplay(6,"80_queenmermaid_st01",0,0,150,0,100,100,255,0)
      ShowMessageFace("ningyohime_fc1",3,0,2,77)
      ShowMessage("\\n<エル>あたしは大丈夫だよ、おかあさん！")
      ShowMessageFace("",0,0,2,78)
      ShowMessage("エルは、薬草畑の一件を母親に話した――")
      PictureDisplay(6,"80_queenmermaid_st01",0,0,150,0,100,100,255,0)
      ShowMessageFace("queenmermaid_fc1",0,0,2,79)
      ShowMessage("\\n<クィーンマーメイド>そう、がんばったわね……")
      ShowMessage("エル、あなたは本当に良い子よ。")
      ShowMessageFace("queenmermaid_fc1",0,0,2,80)
      ShowMessage("\\n<クィーンマーメイド>……私も、情けないところばかり見せられないわね。")
      ShowMessage("分かったわ、あなた達と共に征きましょう。")
      ShowMessageFace("queenmermaid_fc1",0,0,2,81)
      ShowMessage("\\n<クィーンマーメイド>この世界に、平和と共存を導くため……")
      ShowMessage("人魚の女王の力、存分に使いなさい……")
      PictureClear(5)
      PictureClear(6)
      205(0,bytes(0x04,0x08,0x6f,0x3a,0x13,0x52,0x50,0x47,0x3a,0x3a,0x4d,0x6f,0x76,0x65,0x52,0x6f,0x75,0x74,0x65,0x09,0x3a,0x0c,0x40,0x72,0x65,0x70,0x65,0x61,0x74,0x46,0x3a,0x0f,0x40,0x73,0x6b,0x69,0x70,0x70,0x61,0x62,0x6c,0x65,0x46,0x3a,0x0a,0x40,0x77,0x61,0x69,0x74,0x54,0x3a,0x0a,0x40,0x6c,0x69,0x73,0x74,0x5b,0x09,0x6f,0x3a,0x15,0x52,0x50,0x47,0x3a,0x3a,0x4d,0x6f,0x76,0x65,0x43,0x6f,0x6d,0x6d,0x61,0x6e,0x64,0x07,0x3a,0x0a,0x40,0x63,0x6f,0x64,0x65,0x69,0x2a,0x3a,0x10,0x40,0x70,0x61,0x72,0x61,0x6d,0x65,0x74,0x65,0x72,0x73,0x5b,0x00,0x6f,0x3b,0x0a,0x07,0x3b,0x0b,0x69,0x0f,0x3b,0x0c,0x5b,0x00,0x6f,0x3b,0x0a,0x07,0x3b,0x0b,0x69,0x2c,0x3b,0x0c,0x5b,0x00,0x6f,0x3b,0x0a,0x07,0x3b,0x0b,0x69,0x00,0x3b,0x0c,0x5b,0x00))
      355("add_actor_ex(328)")
      249(bytes(0x04,0x08,0x6f,0x3a,0x0c,0x52,0x50,0x47,0x3a,0x3a,0x4d,0x45,0x08,0x3a,0x0a,0x40,0x6e,0x61,0x6d,0x65,0x49,0x22,0x0c,0x66,0x61,0x6e,0x66,0x61,0x6c,0x65,0x06,0x3a,0x06,0x45,0x54,0x3a,0x0b,0x40,0x70,0x69,0x74,0x63,0x68,0x69,0x69,0x3a,0x0c,0x40,0x76,0x6f,0x6c,0x75,0x6d,0x65,0x69,0x69))
      ShowMessageFace("",0,0,2,82)
      ShowMessage("ローラが仲間に加わった！")
      Wait(60)
      ChangeSelfSwitch("C",0)
      ShowMessageFace("ruka_fc1",0,0,2,83)
      ShowMessage("\\n<Luka>名前、ローラって言うんですね。")
      ShowMessage("人魚のローラ、なんだか昔話で聞いたような……")
      ShowMessageFace("queenmermaid_fc1",0,0,2,84)
      ShowMessage("\\n<ローラ>昔話のローラは、もう死んだわ。")
      ShowMessage("人間への憎しみや妄念と共にね……")
      ShowMessageFace("queenmermaid_fc1",0,0,2,85)
      ShowMessage("\\n<ローラ>私はローラ、もう古き時代の夢は見ない。")
      ShowMessage("未来と共に、歩み出そうと決めたの……")
      ShowMessageFace("ningyohime_fc1",5,0,2,86)
      ShowMessage("\\n<エル>わ～い、おかあさんと冒険だ～♪")
      ShowMessageFace("queenmermaid_fc1",0,0,2,87)
      ShowMessage("\\n<ローラ>……この娘と一緒にね。")
      241(bytes(0x04,0x08,0x6f,0x3a,0x0d,0x52,0x50,0x47,0x3a,0x3a,0x42,0x47,0x4d,0x08,0x3a,0x0a,0x40,0x6e,0x61,0x6d,0x65,0x49,0x22,0x12,0x64,0x75,0x6e,0x67,0x65,0x6f,0x6e,0x5f,0x69,0x7a,0x75,0x6d,0x69,0x06,0x3a,0x06,0x45,0x54,0x3a,0x0c,0x40,0x76,0x6f,0x6c,0x75,0x6d,0x65,0x69,0x69,0x3a,0x0b,0x40,0x70,0x69,0x74,0x63,0x68,0x69,0x69))
      EndEventProcessing()
      0()
     EndIf()
     0()
    IfPlayerPicksChoice(1,null)
     ShowMessageFace("queenmermaid_fc1",0,0,2,88)
     ShowMessage("\\n<クィーンマーメイド>……エルをよろしくね。")
     ShowMessage("あの娘には、私のように道を誤らせないようにして。")
     PictureClear(5)
     0()
    404()
    0()
   EndIf()
   0()
  EndIf()
  0()
 PAGE   2
  // condition: self-switch C is ON
  0()



EVENT   17
 PAGE   1
  // condition: variable 1080 >= 2
  PictureDisplay(5,"80_ningyohime_st07",0,0,0,0,100,100,0,0)
  PictureMove(5,null,0,0,0,0,100,100,255,0,30,true)
  ShowMessageFace("ningyohime_fc1",6,0,2,1)
  ShowMessage("\\n<エル>でもね……人間はお母さんに、とってもひどい事をしたんだよ。")
  ShowMessage("お母さんの大切な人を、魔物と仲良くしたって理由で殺しちゃって……")
  If(0,4,0)
   ShowMessageFace("alice_fc5",2,0,2,2)
   ShowMessage("\\n<Alice>確かにひどい出来事だが……それは数十年以上前の話だ。")
   ShowMessage("あの時と今の人間は、もはや世代からして違う。")
   ShowMessageFace("alice_fc5",2,0,2,3)
   ShowMessage("\\n<Alice>今現在の、魔物と共存している人間達を……")
   ShowMessage("はるか上の世代が犯した罪で裁くのか？")
   0()
  EndIf()
  If(0,5,0)
   ShowMessageFace("iriasu_fc4",2,0,2,4)
   ShowMessage("\\n<Ilias>確かに野蛮な事件ですが……それは数十年以上前の出来事。")
   ShowMessage("あの時と今の人間は、もはや世代からして違うのですよ。")
   ShowMessageFace("iriasu_fc4",2,0,2,5)
   ShowMessage("\\n<Ilias>今現在の、魔物と共存している人間達を……")
   ShowMessage("はるか上の世代が犯した罪で裁くというのですか？")
   0()
  EndIf()
  PictureDisplay(5,"80_ningyohime_st08",0,0,0,0,100,100,255,0)
  ShowMessageFace("ningyohime_fc1",7,0,2,6)
  ShowMessage("\\n<エル>……………………")
  If(0,6,0)
   ShowMessageFace("sonia_fc1",4,0,2,7)
   ShowMessage("\\n<Sonya>町の人達に、謝りたいの？")
   0()
  Else()
   ShowMessageFace("ruka_fc1",0,0,2,8)
   ShowMessage("\\n<Luka>町の人達に謝りたいのかい？")
   0()
  EndIf()
  PictureDisplay(5,"80_ningyohime_st09",0,0,0,0,100,100,255,0)
  ShowMessageFace("ningyohime_fc2",0,0,2,9)
  ShowMessage("\\n<エル>う、うん……")
  If(0,4,0)
   ShowMessageFace("alice_fc5",2,0,2,10)
   ShowMessage("\\n<Alice>きっと笑って許してくれる……とは、正直ながら言えんぞ。")
   ShowMessage("貴様の行動が煽った魔物への憎悪は、当分は消えまい。")
   0()
  EndIf()
  If(0,5,0)
   ShowMessageFace("iriasu_fc4",7,0,2,11)
   ShowMessage("\\n<Ilias>今さら、謝って許されるとでも……？")
   ShowMessage("あなた達の蛮行で、人間の憎悪もまた煽られたのですよ。")
   0()
  EndIf()
  PictureDisplay(5,"80_ningyohime_st08",0,0,0,0,100,100,255,0)
  ShowMessageFace("ningyohime_fc1",7,0,2,12)
  ShowMessage("\\n<エル>……………………")
  If(0,4,0)
   ShowMessageFace("alice_fc5",0,0,2,13)
   ShowMessage("\\n<Alice>……とは言え、責任は全てクィーンマーメイドにあるがな。")
   ShowMessage("これ以上貴様を責めるのも、酷というものだ。")
   0()
  EndIf()
  If(0,5,0)
   ShowMessageFace("iriasu_fc4",7,0,2,14)
   ShowMessage("\\n<Ilias>もっとも、あなたは母親に動かされた愚かな娘に過ぎません。")
   ShowMessage("責任は全て、クィーンマーメイドにあります。")
   0()
  EndIf()
  ShowMessageFace("ningyohime_fc1",7,0,2,15)
  ShowMessage("\\n<エル>……………………")
  PictureClear(5)
  Wait(30)
  205(0,bytes(0x04,0x08,0x6f,0x3a,0x13,0x52,0x50,0x47,0x3a,0x3a,0x4d,0x6f,0x76,0x65,0x52,0x6f,0x75,0x74,0x65,0x09,0x3a,0x0c,0x40,0x72,0x65,0x70,0x65,0x61,0x74,0x46,0x3a,0x0f,0x40,0x73,0x6b,0x69,0x70,0x70,0x61,0x62,0x6c,0x65,0x46,0x3a,0x0a,0x40,0x77,0x61,0x69,0x74,0x54,0x3a,0x0a,0x40,0x6c,0x69,0x73,0x74,0x5b,0x09,0x6f,0x3a,0x15,0x52,0x50,0x47,0x3a,0x3a,0x4d,0x6f,0x76,0x65,0x43,0x6f,0x6d,0x6d,0x61,0x6e,0x64,0x07,0x3a,0x0a,0x40,0x63,0x6f,0x64,0x65,0x69,0x2a,0x3a,0x10,0x40,0x70,0x61,0x72,0x61,0x6d,0x65,0x74,0x65,0x72,0x73,0x5b,0x00,0x6f,0x3b,0x0a,0x07,0x3b,0x0b,0x69,0x16,0x3b,0x0c,0x5b,0x00,0x6f,0x3b,0x0a,0x07,0x3b,0x0b,0x69,0x13,0x3b,0x0c,0x5b,0x07,0x69,0xf9,0x69,0x00,0x6f,0x3b,0x0a,0x07,0x3b,0x0b,0x69,0x00,0x3b,0x0c,0x5b,0x00))
  250(bytes(0x04,0x08,0x6f,0x3a,0x0c,0x52,0x50,0x47,0x3a,0x3a,0x53,0x45,0x08,0x3a,0x0a,0x40,0x6e,0x61,0x6d,0x65,0x49,0x22,0x0b,0x57,0x61,0x74,0x65,0x72,0x32,0x06,0x3a,0x06,0x45,0x54,0x3a,0x0b,0x40,0x70,0x69,0x74,0x63,0x68,0x69,0x69,0x3a,0x0c,0x40,0x76,0x6f,0x6c,0x75,0x6d,0x65,0x69,0x55))
  ChangeVariable(1080,1080,0,0,3)
  Wait(60)
  If(0,6,0)
   If(0,4,0)
    ShowMessageFace("sonia_fc2",2,0,2,16)
    ShowMessage("\\n<Sonya>なんだか、可哀想……")
    ShowMessage("アリス、言い方がキツすぎるんじゃない？")
    ShowMessageFace("alice_fc5",0,0,2,17)
    ShowMessage("\\n<Alice>あの者とて、いずれは次代の女王として人魚族を率いる身。")
    ShowMessage("今回の事は、重く受け止めた方が良い勉強になる。")
    ShowMessageFace("alice_fc5",1,0,2,18)
    ShowMessage("\\n<Alice>どうやら、素直で感受性の強い娘のようだ。")
    ShowMessage("良い女王になるだろう……母親が道を誤らせなければな。")
    0()
   EndIf()
   If(0,5,0)
    ShowMessageFace("sonia_fc2",2,0,2,19)
    ShowMessage("\\n<Sonya>なんだか、可哀想……")
    ShowMessage("イリアス様、もう少し優しくしても良かったんじゃ？")
    ShowMessageFace("iriasu_fc4",2,0,2,20)
    ShowMessage("\\n<Ilias>私としては、だいぶ優しかったと思うのですが……")
    ShowMessage("人間と魔物の共存も、かたくなに否定しなかったじゃないですか。")
    ShowMessageFace("iriasu_fc4",2,0,2,21)
    ShowMessage("\\n<Ilias>それに、あの娘は次代のクィーンマーメイドとなるのです。")
    ShowMessage("この一件は良い薬となり、おさかなの頭にも思慮が芽生えるでしょう。")
    ShowMessageFace("iriasu_fc4",7,0,2,22)
    ShowMessage("\\n<Ilias>……もちろん、あの母親が道を誤らせない限りは。")
    0()
   EndIf()
   ShowMessageFace("ruka_fc1",0,0,2,23)
   ShowMessage("\\n<Luka>やっぱり、クィーンマーメイドをなんとかしないと……")
   ShowMessage("これじゃエルまで可哀想だな。")
   If(4,202,0)
    ShowMessageFace("bonny_fc1",0,0,2,24)
    ShowMessage("\\n<Bonnie>うむ、人魚の女王を叩きのめしてくれる！")
    ShowMessage("人間どころか、己の娘の心まで傷付けおって！")
    0()
   EndIf()
   If(4,201,0)
    ShowMessageFace("ashel_fc1",0,0,2,25)
    ShowMessage("\\n<Ashel>戦う理由が、もう一つできたね……")
    0()
   EndIf()
   EndEventProcessing()
   0()
  Else()
   ShowMessageFace("ruka_fc1",0,0,2,26)
   ShowMessage("\\n<Luka>少しきつく言い過ぎじゃないかな……")
   EndEventProcessing()
   0()
  EndIf()
  0()
 PAGE   2
  // condition: variable 1080 >= 3
  0()



EVENT   18
 PAGE   1
  // condition: switch 31 is ON
  0()



EVENT   19
 PAGE   1
  250(bytes(0x04,0x08,0x6f,0x3a,0x0c,0x52,0x50,0x47,0x3a,0x3a,0x53,0x45,0x08,0x3a,0x0a,0x40,0x6e,0x61,0x6d,0x65,0x49,0x22,0x0a,0x48,0x65,0x61,0x6c,0x37,0x06,0x3a,0x06,0x45,0x54,0x3a,0x0b,0x40,0x70,0x69,0x74,0x63,0x68,0x69,0x69,0x3a,0x0c,0x40,0x76,0x6f,0x6c,0x75,0x6d,0x65,0x69,0x55))
  224(bytes(0x04,0x08,0x75,0x3a,0x0a,0x43,0x6f,0x6c,0x6f,0x72,0x25,0x00,0x00,0x00,0x00,0x00,0xe0,0x6f,0x40,0x00,0x00,0x00,0x00,0x00,0xe0,0x6f,0x40,0x00,0x00,0x00,0x00,0x00,0xe0,0x6f,0x40,0x00,0x00,0x00,0x00,0x00,0xe0,0x6f,0x40),30,true)
  314(0,0)
  ShowMessageFace("",0,0,2,1)
  ShowMessage("The party's HP and MP have been fully restored!")
  0()
