﻿


EVENT   1
 PAGE   1
  281(1)
  250(bytes(0x04,0x08,0x6f,0x3a,0x0c,0x52,0x50,0x47,0x3a,0x3a,0x53,0x45,0x08,0x3a,0x0a,0x40,0x6e,0x61,0x6d,0x65,0x49,0x22,0x09,0x4d,0x6f,0x76,0x65,0x06,0x3a,0x06,0x45,0x54,0x3a,0x0b,0x40,0x70,0x69,0x74,0x63,0x68,0x69,0x69,0x3a,0x0c,0x40,0x76,0x6f,0x6c,0x75,0x6d,0x65,0x69,0x55))
  TeleportPlayer(0,49,10,14,0,0)
  0()



EVENT   2
 PAGE   1
  281(1)
  250(bytes(0x04,0x08,0x6f,0x3a,0x0c,0x52,0x50,0x47,0x3a,0x3a,0x53,0x45,0x08,0x3a,0x0a,0x40,0x6e,0x61,0x6d,0x65,0x49,0x22,0x09,0x4d,0x6f,0x76,0x65,0x06,0x3a,0x06,0x45,0x54,0x3a,0x0b,0x40,0x70,0x69,0x74,0x63,0x68,0x69,0x69,0x3a,0x0c,0x40,0x76,0x6f,0x6c,0x75,0x6d,0x65,0x69,0x55))
  TeleportPlayer(0,49,28,17,0,0)
  0()



EVENT   3
 PAGE   1
  281(1)
  250(bytes(0x04,0x08,0x6f,0x3a,0x0c,0x52,0x50,0x47,0x3a,0x3a,0x53,0x45,0x08,0x3a,0x0a,0x40,0x6e,0x61,0x6d,0x65,0x49,0x22,0x09,0x4d,0x6f,0x76,0x65,0x06,0x3a,0x06,0x45,0x54,0x3a,0x0b,0x40,0x70,0x69,0x74,0x63,0x68,0x69,0x69,0x3a,0x0c,0x40,0x76,0x6f,0x6c,0x75,0x6d,0x65,0x69,0x55))
  TeleportPlayer(0,49,40,19,0,0)
  0()



EVENT   4
 PAGE   1
  281(1)
  250(bytes(0x04,0x08,0x6f,0x3a,0x0c,0x52,0x50,0x47,0x3a,0x3a,0x53,0x45,0x08,0x3a,0x0a,0x40,0x6e,0x61,0x6d,0x65,0x49,0x22,0x09,0x4d,0x6f,0x76,0x65,0x06,0x3a,0x06,0x45,0x54,0x3a,0x0b,0x40,0x70,0x69,0x74,0x63,0x68,0x69,0x69,0x3a,0x0c,0x40,0x76,0x6f,0x6c,0x75,0x6d,0x65,0x69,0x55))
  TeleportPlayer(0,49,12,28,0,0)
  0()



EVENT   5
 PAGE   1
  250(bytes(0x04,0x08,0x6f,0x3a,0x0c,0x52,0x50,0x47,0x3a,0x3a,0x53,0x45,0x08,0x3a,0x0a,0x40,0x6e,0x61,0x6d,0x65,0x49,0x22,0x09,0x4d,0x6f,0x76,0x65,0x06,0x3a,0x06,0x45,0x54,0x3a,0x0b,0x40,0x70,0x69,0x74,0x63,0x68,0x69,0x69,0x3a,0x0c,0x40,0x76,0x6f,0x6c,0x75,0x6d,0x65,0x69,0x55))
  TeleportPlayer(0,50,69,30,0,0)
  0()



EVENT   6
 PAGE   1
  250(bytes(0x04,0x08,0x6f,0x3a,0x0c,0x52,0x50,0x47,0x3a,0x3a,0x53,0x45,0x08,0x3a,0x0a,0x40,0x6e,0x61,0x6d,0x65,0x49,0x22,0x09,0x4d,0x6f,0x76,0x65,0x06,0x3a,0x06,0x45,0x54,0x3a,0x0b,0x40,0x70,0x69,0x74,0x63,0x68,0x69,0x69,0x3a,0x0c,0x40,0x76,0x6f,0x6c,0x75,0x6d,0x65,0x69,0x55))
  TeleportPlayer(0,50,70,30,0,0)
  0()



EVENT   7
 PAGE   1
  250(bytes(0x04,0x08,0x6f,0x3a,0x0c,0x52,0x50,0x47,0x3a,0x3a,0x53,0x45,0x08,0x3a,0x0a,0x40,0x6e,0x61,0x6d,0x65,0x49,0x22,0x09,0x4d,0x6f,0x76,0x65,0x06,0x3a,0x06,0x45,0x54,0x3a,0x0b,0x40,0x70,0x69,0x74,0x63,0x68,0x69,0x69,0x3a,0x0c,0x40,0x76,0x6f,0x6c,0x75,0x6d,0x65,0x69,0x55))
  TeleportPlayer(0,50,42,29,0,0)
  0()



EVENT   8
 PAGE   1
  250(bytes(0x04,0x08,0x6f,0x3a,0x0c,0x52,0x50,0x47,0x3a,0x3a,0x53,0x45,0x08,0x3a,0x0a,0x40,0x6e,0x61,0x6d,0x65,0x49,0x22,0x09,0x4d,0x6f,0x76,0x65,0x06,0x3a,0x06,0x45,0x54,0x3a,0x0b,0x40,0x70,0x69,0x74,0x63,0x68,0x69,0x69,0x3a,0x0c,0x40,0x76,0x6f,0x6c,0x75,0x6d,0x65,0x69,0x55))
  TeleportPlayer(0,50,43,29,0,0)
  0()



EVENT   9
 PAGE   1
  281(1)
  250(bytes(0x04,0x08,0x6f,0x3a,0x0c,0x52,0x50,0x47,0x3a,0x3a,0x53,0x45,0x08,0x3a,0x0a,0x40,0x6e,0x61,0x6d,0x65,0x49,0x22,0x09,0x4d,0x6f,0x76,0x65,0x06,0x3a,0x06,0x45,0x54,0x3a,0x0b,0x40,0x70,0x69,0x74,0x63,0x68,0x69,0x69,0x3a,0x0c,0x40,0x76,0x6f,0x6c,0x75,0x6d,0x65,0x69,0x55))
  TeleportPlayer(0,49,37,32,0,0)
  0()



EVENT   10
 PAGE   1
  281(1)
  250(bytes(0x04,0x08,0x6f,0x3a,0x0c,0x52,0x50,0x47,0x3a,0x3a,0x53,0x45,0x08,0x3a,0x0a,0x40,0x6e,0x61,0x6d,0x65,0x49,0x22,0x09,0x4d,0x6f,0x76,0x65,0x06,0x3a,0x06,0x45,0x54,0x3a,0x0b,0x40,0x70,0x69,0x74,0x63,0x68,0x69,0x69,0x3a,0x0c,0x40,0x76,0x6f,0x6c,0x75,0x6d,0x65,0x69,0x55))
  TeleportPlayer(0,49,35,46,0,0)
  0()



EVENT   11
 PAGE   1
  If(1,1063,0,12,2)
   ShowMessageFace("",0,0,2,1)
   ShowMessage("\\n<道具屋>アイテム……")
   ShowMessage("王妃様に、全部送ってしまいたい……")
   0()
  EndIf()
  If(1,1063,0,13,1)
   ShowMessageFace("",0,0,2,2)
   ShowMessage("\\n<道具屋>理性がなくても通常営業してたらしいです。")
   ShowMessage("流石は私、ちゃんと帳簿までつけてある……")
   0()
  EndIf()
  Shop(0,2,0,0,false)
  605(0,7,0,0)
  605(0,11,0,0)
  605(0,13,0,0)
  605(0,14,0,0)
  605(0,15,0,0)
  605(0,16,0,0)
  605(0,17,0,0)
  605(0,18,0,0)
  605(0,19,0,0)
  605(0,20,0,0)
  605(0,23,0,0)
  605(0,35,0,0)
  0()



EVENT   12
 PAGE   1
  If(1,1063,0,5,0)
   ShowMessageFace("",0,0,2,1)
   ShowMessage("\\n<Proprietor>Oooh...\nW-welcome... Would you like to order...?")
   ShowChoices(strings("Order liquor","Order a roast chicken","Never mind"),3)
   IfPlayerPicksChoice(0,null)
    Shop(0,428,0,0,false)
    605(0,429,0,0)
    605(0,431,0,0)
    0()
   IfPlayerPicksChoice(1,null)
    ShowMessageFace("",0,0,2,2)
    ShowMessage("\\n<Proprietor>Sir, this is a bar. We do not serve chicken...")
    ShowMessageFace("",0,0,2,3)
    ShowMessage("\\n<Proprietor>You'll have to go up to the second floor. They've prepared an extra large roast chicken for you there...")
    If(4,53,0)
     ShowMessageFace("slime_fc1",0,0,2,4)
     ShowMessage("\\n<Lime>Woo hoo! Extra large roast chicken!")
     ShowMessageFace("sonia_fc2",2,0,2,5)
     ShowMessage("\\n<Sonya>Lime... There's no chicken.")
     0()
    EndIf()
    ChangeVariable(1063,1063,0,0,6)
    EndEventProcessing()
    0()
   IfPlayerPicksChoice(2,null)
    EndEventProcessing()
    0()
   404()
   0()
  EndIf()
  If(1,1063,0,6,0)
   ShowMessageFace("",0,0,2,6)
   ShowMessage("\\n<Proprietor>Hurry to the second floor. They've prepared an extra large roast chicken for you there.")
   ShowMessageFace("",0,0,2,7)
   ShowMessage("\\n<Proprietor>Oooh... I was trained to resist compulsion... but I can't hold on to my sanity much longer...")
   EndEventProcessing()
   0()
  EndIf()
  If(1,1063,0,7,1)
   If(1,1063,0,12,2)
    ShowMessageFace("",0,0,2,8)
    ShowMessage("\\n<Proprietor>王妃様ぁぁぁ……あはっ、あはあは……")
    If(0,4,0)
     ShowMessageFace("alice_fc5",0,0,2,9)
     ShowMessage("\\n<Alice>我々が来るまで、鉄の意志で正気を保っていたのだな……")
     ShowMessage("この作戦、必ず成功させてみせるぞ。")
     0()
    EndIf()
    If(0,5,0)
     ShowMessageFace("iriasu_fc4",2,0,2,10)
     ShowMessage("\\n<Ilias>私達が来るまで、鉄の意志で正気を保っていたのですね……")
     ShowMessage("この献身、必ずや報いなければなりません。")
     0()
    EndIf()
    EndEventProcessing()
    0()
   EndIf()
   0()
  EndIf()
  If(1,1063,0,13,1)
   ShowMessageFace("",0,0,2,11)
   ShowMessage("\\n<Proprietor>いらっしゃいませ、ご注文をうかがいましょう。")
   ShowChoices(strings("酒を注文する","ローストチキンを注文する","注文はない"),3)
   IfPlayerPicksChoice(0,null)
    Shop(0,428,0,0,false)
    605(0,429,0,0)
    605(0,431,0,0)
    0()
   IfPlayerPicksChoice(1,null)
    ShowMessageFace("",0,0,2,12)
    ShowMessage("\\n<Proprietor>お客さん、ここは酒場です。")
    ShowMessage("そういうのは扱っておりませんよ……")
    ShowMessageFace("",0,0,2,13)
    ShowMessage("\\n<Proprietor>そういうわけで、ドンによろしくお伝え下さい。")
    355("actor_label_jump")
    EndEventProcessing()
    DefineLabel("520")
    ShowMessageFace("lazarus3_fc1",0,0,2,14)
    ShowMessage("\\n<Lazarus>おう……また何かあったら、頼むぜ。")
    ShowMessageFace("",0,0,2,15)
    ShowMessage("\\n<Proprietor>ええ……お任せを。")
    EndEventProcessing()
    DefineLabel("522")
    ShowMessageFace("merlin_fc1",0,0,2,16)
    ShowMessage("\\n<Merlin>良い仕事でした。")
    ShowMessage("次も期待していますよ……")
    ShowMessageFace("",0,0,2,17)
    ShowMessage("\\n<Proprietor>ええ……お任せを。")
    EndEventProcessing()
    0()
   IfPlayerPicksChoice(2,null)
    EndEventProcessing()
    0()
   404()
   0()
  EndIf()
  0()



EVENT   13
 PAGE   1
  If(1,1063,0,12,2)
   ShowMessageFace("",0,0,2,1)
   ShowMessage("\\n<アクセサリ屋>あ、あ、アクセサリ……")
   ShowMessage("あはは、あはあはアクセサリ……")
   0()
  EndIf()
  If(1,1063,0,13,1)
   ShowMessageFace("",0,0,2,2)
   ShowMessage("\\n<アクセサリ屋>もしもの時のアクセサリ。")
   ShowMessage("食らって困るゾンビ化攻撃、ゾンビチェックで防ぎましょう。")
   0()
  EndIf()
  Shop(2,1458,0,0,false)
  605(2,1461,0,0)
  605(2,1464,0,0)
  605(2,1467,0,0)
  605(2,1572,0,0)
  605(2,1574,0,0)
  605(2,1576,0,0)
  605(2,1578,0,0)
  0()



EVENT   14
 PAGE   1
  If(1,1078,0,0,0)
   PictureDisplay(5,"80_mob_marin_st01",0,0,0,0,100,100,0,0)
   PictureMove(5,null,0,0,0,0,100,100,255,0,30,true)
   ShowMessageFace("mob_mahousyouzyo_fc1",0,0,2,1)
   ShowMessage("\\n<マジカルまりんちゃん>あたしは、マジカル☆まりんちゃん。")
   ShowMessage("魔法少女だよっ♪")
   ShowMessageFace("mob_mahousyouzyo_fc1",0,0,2,2)
   ShowMessage("\\n<マジカルまりんちゃん>ねぇ、キミも魔法少女になってみる？")
   ShowChoices(strings("なってみる","イヤだ"),2)
   IfPlayerPicksChoice(0,null)
    ShowMessageFace("mob_mahousyouzyo_fc1",0,0,2,3)
    ShowMessage("\\n<マジカルまりんちゃん>でも……まだ、儀式の時期じゃないみたい。")
    ShowMessage("もうちょっと待っててね☆")
    If(4,53,0)
     ShowMessageFace("slime_fc1",0,0,2,4)
     ShowMessage("\\n<Lime>まつよ～！")
     0()
    EndIf()
    PictureClear(5)
    EndEventProcessing()
    0()
   IfPlayerPicksChoice(1,null)
    ShowMessageFace("mob_mahousyouzyo_fc1",0,0,2,5)
    ShowMessage("\\n<マジカルまりんちゃん>そうなの、残念だなぁ……")
    PictureClear(5)
    EndEventProcessing()
    0()
   404()
   0()
  EndIf()
  If(1,1078,0,1,0)
   PictureDisplay(5,"80_mob_marin_st01",0,0,0,0,100,100,0,0)
   PictureMove(5,null,0,0,0,0,100,100,255,0,30,true)
   ShowMessageFace("mob_mahousyouzyo_fc1",0,0,2,6)
   ShowMessage("\\n<マジカルまりんちゃん>あたしは、マジカル☆まりんちゃん。")
   ShowMessage("魔法少女だよっ♪")
   ShowMessageFace("mob_mahousyouzyo_fc1",0,0,2,7)
   ShowMessage("\\n<マジカルまりんちゃん>ねぇ、キミも魔法少女になってみる？")
   ShowMessage("今は駆け込み大チャンス、他の候補者はもう会場で待ってるよ！")
   If(0,4,0)
    ShowMessageFace("alice_fc6",1,0,2,8)
    ShowMessage("\\n<Alice>甘言を弄し、人を破滅に誘い込むな！")
    ShowMessage("魔法少女の力と、魔女の怨念は同じものだと知っているぞ！")
    0()
   EndIf()
   If(0,5,0)
    ShowMessageFace("iriasu_fc4",7,0,2,9)
    ShowMessage("\\n<Ilias>甘言を弄し、人を破滅に引き込む気ですか！")
    ShowMessage("魔法少女の力は、魔女の怨念に通じる事など承知しています！")
    0()
   EndIf()
   If(4,167,0)
    ShowMessageFace("lusia_fc1",2,0,2,10)
    ShowMessage("\\n<Lucia>極めて危険な呪法……")
    ShowMessage("魔導に携わる者として、行使させるわけにはいきません。")
    0()
   EndIf()
   ShowMessageFace("ruka_fc1",0,0,2,11)
   ShowMessage("\\n<Luka>僕達は、危険な儀式を止めに来たんだ！")
   241(bytes(0x04,0x08,0x6f,0x3a,0x0d,0x52,0x50,0x47,0x3a,0x3a,0x42,0x47,0x4d,0x08,0x3a,0x0a,0x40,0x6e,0x61,0x6d,0x65,0x49,0x22,0x0a,0x6b,0x69,0x6b,0x69,0x32,0x06,0x3a,0x06,0x45,0x54,0x3a,0x0c,0x40,0x76,0x6f,0x6c,0x75,0x6d,0x65,0x69,0x69,0x3a,0x0b,0x40,0x70,0x69,0x74,0x63,0x68,0x69,0x69))
   ShowMessageFace("mob_mahousyouzyo_fc1",0,0,2,12)
   ShowMessage("\\n<マジカルまりんちゃん>でも、もうマジカル☆パワー（怨念）は溜まってるの……")
   ShowMessage("ここで儀式を行わないと、パワーが弾けて飛び散っちゃうよ。")
   If(0,4,0)
    ShowMessageFace("alice_fc6",0,0,2,13)
    ShowMessage("\\n<Alice>むむむ……時はすでに遅いか。")
    ShowMessage("ここで魔法少女を定めねば、怨念の向かう先がなくなる……")
    ShowMessageFace("alice_fc5",2,0,2,14)
    ShowMessage("\\n<Alice>そうなれば、怨念は周囲に広がって災厄となる……")
    ShowMessage("ここは魔法少女を選抜し、全ての怨念を押し付けるしかないな。")
    0()
   EndIf()
   If(0,5,0)
    ShowMessageFace("iriasu_fc4",2,0,2,15)
    ShowMessage("\\n<Ilias>すでに、怨念はそこまで集まってしまった後でしたか……")
    ShowMessage("ここで魔法少女を定めなければ、怨念の集まる先がなくなりますね。")
    ShowMessageFace("iriasu_fc4",2,0,2,16)
    ShowMessage("\\n<Ilias>そうなれば、怨念は周囲に広がり災いをもたらします。")
    ShowMessage("ここは魔法少女を選抜し、全ての怨念を押し付けるしかないでしょう。")
    0()
   EndIf()
   If(0,6,0)
    ShowMessageFace("sonia_fc2",5,0,2,17)
    ShowMessage("\\n<Sonya>つまり魔法少女って、怨念の力を押し付けられた人なの！？")
    ShowMessage("明るい言葉で勧誘して、そんな扱いなんてひどい話じゃない！")
    0()
   Else()
    ShowMessageFace("ruka_fc1",0,0,2,18)
    ShowMessage("\\n<Luka>つまり魔法少女って、怨念の力を押し付けられた人なのか！？")
    ShowMessage("明るい言葉で勧誘して、ひどいじゃないか！")
    0()
   EndIf()
   If(4,226,0)
    ShowMessageFace("sirohebisama_fc1",0,0,2,19)
    ShowMessage("\\n<Shirohebi>迷惑な話じゃのう……")
    0()
   EndIf()
   ShowMessageFace("mob_mahousyouzyo_fc1",0,0,2,20)
   ShowMessage("\\n<マジカルまりんちゃん>都合良いファンタジックパワーなんて、あるわけないじゃん。")
   ShowMessage("魔法少女は、怨念にまみれて生きていくしかないんだよ♪")
   ShowMessageFace("mob_mahousyouzyo_fc1",0,0,2,21)
   ShowMessage("\\n<マジカルまりんちゃん>……このセリフ、選抜された最後の一人に言いたかったなぁ。")
   If(0,4,0)
    ShowMessageFace("alice_fc5",2,0,2,22)
    ShowMessage("\\n<Alice>……いいだろう、我々も選抜試験に参加する。")
    ShowMessage("我々の中の誰かが、魔法少女となろう。")
    0()
   EndIf()
   If(0,5,0)
    ShowMessageFace("iriasu_fc4",7,0,2,23)
    ShowMessage("\\n<Ilias>……いいでしょう、私達も選抜試験に参加します。")
    ShowMessage("私達の中の誰かが、魔法少女となりましょう。")
    0()
   EndIf()
   If(0,6,0)
    ShowMessageFace("sonia_fc2",2,0,2,24)
    ShowMessage("\\n<Sonya>そんな……それでいいの？")
    0()
   Else()
    ShowMessageFace("ruka_fc1",0,0,2,25)
    ShowMessage("\\n<Luka>でも、それでいいの……？")
    0()
   EndIf()
   If(0,4,0)
    ShowMessageFace("alice_fc5",0,0,2,26)
    ShowMessage("\\n<Alice>怨念の力が撒き散らされたり、悪しき者の手に渡るよりマシだ。")
    ShowMessage("我々なら、なんとか使いこなす事もできるだろう。")
    0()
   EndIf()
   If(0,5,0)
    ShowMessageFace("iriasu_fc4",7,0,2,27)
    ShowMessage("\\n<Ilias>怨念の力が撒き散らされたり、悪しき者の手に渡るよりマシです。")
    ShowMessage("我々なら、なんとか使いこなす事もできるでしょう……")
    0()
   EndIf()
   If(4,167,0)
    ShowMessageFace("lusia_fc1",2,0,2,28)
    ShowMessage("\\n<Lucia>それより他にありませんね。")
    ShowMessage("大きな力は、適切に管理されるべきです。")
    0()
   EndIf()
   If(4,163,0)
    ShowMessageFace("lily_fc1",3,0,2,29)
    ShowMessage("\\n<Lily>ふふっ、面白くなってきたじゃない……")
    0()
   EndIf()
   ShowMessageFace("mob_mahousyouzyo_fc1",0,0,2,30)
   ShowMessage("\\n<マジカルまりんちゃん>それじゃあ、新たな候補がエントリー！")
   ShowMessage("ここでちょうど受付時間も終了、選抜の儀式を始めるよー♪")
   ShowMessageFace("ruka_fc1",0,0,2,31)
   ShowMessage("\\n<Luka>それで、選抜儀式って何をすればいいんだ……？")
   ShowMessageFace("mob_mahousyouzyo_fc1",0,0,2,32)
   ShowMessage("\\n<マジカルまりんちゃん>魔法少女の候補を、東の大毒沼に集めてぇ……")
   ShowMessageFace("mob_mahousyouzyo_fc1",0,0,2,33)
   ShowMessage("\\n<マジカルまりんちゃん>そして、情け無用のバトルロイヤル！")
   ShowMessage("最後まで立っていた者の勝ち♪")
   If(0,6,0)
    ShowMessageFace("sonia_fc3",2,0,2,34)
    ShowMessage("\\n<Sonya>そんなに物理勝負なの！？")
    0()
   Else()
    ShowMessageFace("ruka_fc1",0,0,2,35)
    ShowMessage("\\n<Luka>えっ、バトルロイヤルなの！？")
    0()
   EndIf()
   If(4,218,0)
    ShowMessageFace("nyumaou_fc1",0,0,2,36)
    ShowMessage("\\n<Cow Demon Queen>ふん、単純で良いではないか！")
    0()
   EndIf()
   ShowMessageFace("mob_mahousyouzyo_fc1",0,0,2,37)
   ShowMessage("\\n<マジカルまりんちゃん>そういうわけで、東の大毒沼に急げ急げ～♪")
   ShowMessage("そこにいる魔法少女候補はみんな敵だから、最後まで生き延びてね。")
   PictureClear(5)
   If(0,4,0)
    ShowMessageFace("alice_fc5",2,0,2,38)
    ShowMessage("\\n<Alice>よし、行くぞ……")
    ShowMessage("魔法少女の力、我々が手に入れる！")
    0()
   EndIf()
   If(0,5,0)
    ShowMessageFace("iriasu_fc4",7,0,2,39)
    ShowMessage("\\n<Ilias>さあ、行きましょう……")
    ShowMessage("魔法少女の力、我々が手に入れます！")
    0()
   EndIf()
   If(4,288,0)
    ShowMessageFace("d_succubus_fc1",0,0,2,40)
    ShowMessage("\\n<ナターシャ>魔法少女……ちょっと憧れますね。")
    0()
   EndIf()
   ShowMessageFace("",0,0,2,41)
   ShowMessage("こうして、成り行き的に魔法少女選抜儀式に参加する事となった。")
   ShowMessage("さあ、東の大毒沼に急ごう！")
   241(bytes(0x04,0x08,0x6f,0x3a,0x0d,0x52,0x50,0x47,0x3a,0x3a,0x42,0x47,0x4d,0x08,0x3a,0x0a,0x40,0x6e,0x61,0x6d,0x65,0x49,0x22,0x0a,0x63,0x69,0x74,0x79,0x31,0x06,0x3a,0x06,0x45,0x54,0x3a,0x0c,0x40,0x76,0x6f,0x6c,0x75,0x6d,0x65,0x69,0x69,0x3a,0x0b,0x40,0x70,0x69,0x74,0x63,0x68,0x69,0x69))
   ChangeVariable(1078,1078,0,0,2)
   EndEventProcessing()
   0()
  EndIf()
  If(1,1078,0,2,1)
   If(1,1078,0,4,2)
    PictureDisplay(5,"80_mob_marin_st01",0,0,0,0,100,100,0,0)
    PictureMove(5,null,0,0,0,0,100,100,255,0,30,true)
    ShowMessageFace("mob_mahousyouzyo_fc1",0,0,2,42)
    ShowMessage("\\n<マジカルまりんちゃん>そういうわけで、東の大毒沼に急げ急げ～♪")
    ShowMessage("そこにいる魔法少女候補はみんな敵だから、最後まで生き延びてね。")
    PictureClear(5)
    EndEventProcessing()
    0()
   EndIf()
   0()
  EndIf()
  If(1,1078,0,5,1)
   If(1,828,0,2,1)
    If(0,1577,1)
     ShowMessageFace("mob_mahousyouzyo_fc1",0,0,2,43)
     ShowMessage("\\n<マジカルまりんちゃん>ねぇ、あたしを仲間にしてくれない？")
     ShowMessage("世の中にマジカル☆パワーを広げないとね♪")
     ShowChoices(strings("仲間にする","仲間にしない"),0)
     IfPlayerPicksChoice(0,null)
      ShowMessageFace("mob_mahousyouzyo_fc2",0,0,2,44)
      ShowMessage("\\n<マジカルまりんちゃん>きゅぴ～ん♪")
      PictureClear(5)
      205(0,bytes(0x04,0x08,0x6f,0x3a,0x13,0x52,0x50,0x47,0x3a,0x3a,0x4d,0x6f,0x76,0x65,0x52,0x6f,0x75,0x74,0x65,0x09,0x3a,0x0c,0x40,0x72,0x65,0x70,0x65,0x61,0x74,0x46,0x3a,0x0f,0x40,0x73,0x6b,0x69,0x70,0x70,0x61,0x62,0x6c,0x65,0x46,0x3a,0x0a,0x40,0x77,0x61,0x69,0x74,0x54,0x3a,0x0a,0x40,0x6c,0x69,0x73,0x74,0x5b,0x09,0x6f,0x3a,0x15,0x52,0x50,0x47,0x3a,0x3a,0x4d,0x6f,0x76,0x65,0x43,0x6f,0x6d,0x6d,0x61,0x6e,0x64,0x07,0x3a,0x0a,0x40,0x63,0x6f,0x64,0x65,0x69,0x2a,0x3a,0x10,0x40,0x70,0x61,0x72,0x61,0x6d,0x65,0x74,0x65,0x72,0x73,0x5b,0x00,0x6f,0x3b,0x0a,0x07,0x3b,0x0b,0x69,0x0f,0x3b,0x0c,0x5b,0x00,0x6f,0x3b,0x0a,0x07,0x3b,0x0b,0x69,0x2c,0x3b,0x0c,0x5b,0x00,0x6f,0x3b,0x0a,0x07,0x3b,0x0b,0x69,0x00,0x3b,0x0c,0x5b,0x00))
      355("add_actor_ex(577)")
      249(bytes(0x04,0x08,0x6f,0x3a,0x0c,0x52,0x50,0x47,0x3a,0x3a,0x4d,0x45,0x08,0x3a,0x0a,0x40,0x6e,0x61,0x6d,0x65,0x49,0x22,0x0c,0x66,0x61,0x6e,0x66,0x61,0x6c,0x65,0x06,0x3a,0x06,0x45,0x54,0x3a,0x0b,0x40,0x70,0x69,0x74,0x63,0x68,0x69,0x69,0x3a,0x0c,0x40,0x76,0x6f,0x6c,0x75,0x6d,0x65,0x69,0x69))
      ShowMessageFace("",0,0,2,45)
      ShowMessage("マジカルまりんちゃんが仲間に加わった！")
      Wait(60)
      EndEventProcessing()
      0()
     IfPlayerPicksChoice(1,null)
      ShowMessageFace("mob_mahousyouzyo_fc1",0,0,2,46)
      ShowMessage("\\n<マジカルまりんちゃん>呪われろ。")
      0()
     404()
     0()
    EndIf()
    0()
   EndIf()
   RunCommonEvent(7271)
   0()
  EndIf()
  0()
 PAGE   2
  // condition: variable 1078 >= 5
  // condition: party contains actor #577
  0()



EVENT   15
 PAGE   1
  If(1,1063,0,5,2)
   ShowMessageFace("",0,0,2,1)
   ShowMessage("\\n<Proprietor>P-please stay on the first floor...")
   205(-1,bytes(0x04,0x08,0x6f,0x3a,0x13,0x52,0x50,0x47,0x3a,0x3a,0x4d,0x6f,0x76,0x65,0x52,0x6f,0x75,0x74,0x65,0x09,0x3a,0x0c,0x40,0x72,0x65,0x70,0x65,0x61,0x74,0x46,0x3a,0x0f,0x40,0x73,0x6b,0x69,0x70,0x70,0x61,0x62,0x6c,0x65,0x46,0x3a,0x0a,0x40,0x77,0x61,0x69,0x74,0x54,0x3a,0x0a,0x40,0x6c,0x69,0x73,0x74,0x5b,0x07,0x6f,0x3a,0x15,0x52,0x50,0x47,0x3a,0x3a,0x4d,0x6f,0x76,0x65,0x43,0x6f,0x6d,0x6d,0x61,0x6e,0x64,0x07,0x3a,0x0a,0x40,0x63,0x6f,0x64,0x65,0x69,0x06,0x3a,0x10,0x40,0x70,0x61,0x72,0x61,0x6d,0x65,0x74,0x65,0x72,0x73,0x5b,0x00,0x6f,0x3b,0x0a,0x07,0x3b,0x0b,0x69,0x00,0x3b,0x0c,0x5b,0x00))
   If(0,4,0)
    ShowMessageFace("alice_fc5",0,0,2,2)
    ShowMessage("\\n<Alice>Don't forget the signal we're supposed to give him. We need to order a roast chicken first.")
    0()
   EndIf()
   If(0,5,0)
    ShowMessageFace("iriasu_fc4",2,0,2,3)
    ShowMessage("\\n<Ilias>Did you forget the signal? Order a roast chicken from him first...")
    0()
   EndIf()
   EndEventProcessing()
   0()
  EndIf()
  If(1,1063,0,6,0)
   If(0,6,0)
    ShowMessageFace("sonia_fc1",0,0,2,4)
    ShowMessage("\\n<Sonya>I can't stop wondering what this spy is like. When I think of spies, I think of suspicious, shady characters.")
    0()
   Else()
    ShowMessageFace("ruka_fc1",0,0,2,5)
    ShowMessage("\\n<Luka>I wonder what this covert operative is like...\nSomeone spy-ish?")
    0()
   EndIf()
   If(0,4,0)
    ShowMessageFace("alice_fc5",0,0,2,6)
    ShowMessage("\\n<Alice>You idiot. Do you honestly expect a spy to look like a spy? He'll obviously be someone who looks ordinary enough to blend in.")
    0()
   EndIf()
   If(0,5,0)
    ShowMessageFace("iriasu_fc4",2,0,2,7)
    ShowMessage("\\n<Ilias>There's no way a spy is going to look like a spy. He'll be an ordinary common-looking person.")
    0()
   EndIf()
   If(0,6,0)
    ShowMessageFace("sonia_fc2",2,0,2,8)
    ShowMessage("\\n<Sonya>Fine, you're right.\nThere's no chance he'll look suspicious...")
    0()
   Else()
    ShowMessageFace("ruka_fc1",0,0,2,9)
    ShowMessage("\\n<Luka>Yeah, you're right.\nThere's no chance he'll look suspicious...")
    0()
   EndIf()
   250(bytes(0x04,0x08,0x6f,0x3a,0x0c,0x52,0x50,0x47,0x3a,0x3a,0x53,0x45,0x08,0x3a,0x0a,0x40,0x6e,0x61,0x6d,0x65,0x49,0x22,0x09,0x4d,0x6f,0x76,0x65,0x06,0x3a,0x06,0x45,0x54,0x3a,0x0b,0x40,0x70,0x69,0x74,0x63,0x68,0x69,0x69,0x3a,0x0c,0x40,0x76,0x6f,0x6c,0x75,0x6d,0x65,0x69,0x55))
   TeleportPlayer(0,50,40,57,8,0)
   205(-1,bytes(0x04,0x08,0x6f,0x3a,0x13,0x52,0x50,0x47,0x3a,0x3a,0x4d,0x6f,0x76,0x65,0x52,0x6f,0x75,0x74,0x65,0x09,0x3a,0x0c,0x40,0x72,0x65,0x70,0x65,0x61,0x74,0x46,0x3a,0x0f,0x40,0x73,0x6b,0x69,0x70,0x70,0x61,0x62,0x6c,0x65,0x46,0x3a,0x0a,0x40,0x77,0x61,0x69,0x74,0x54,0x3a,0x0a,0x40,0x6c,0x69,0x73,0x74,0x5b,0x08,0x6f,0x3a,0x15,0x52,0x50,0x47,0x3a,0x3a,0x4d,0x6f,0x76,0x65,0x43,0x6f,0x6d,0x6d,0x61,0x6e,0x64,0x07,0x3a,0x0a,0x40,0x63,0x6f,0x64,0x65,0x69,0x09,0x3a,0x10,0x40,0x70,0x61,0x72,0x61,0x6d,0x65,0x74,0x65,0x72,0x73,0x5b,0x00,0x6f,0x3b,0x0a,0x07,0x3b,0x0b,0x69,0x08,0x3b,0x0c,0x5b,0x00,0x6f,0x3b,0x0a,0x07,0x3b,0x0b,0x69,0x00,0x3b,0x0c,0x5b,0x00))
   PictureDisplay(5,"80_nero_st02b",0,0,0,0,100,100,0,0)
   PictureMove(5,null,0,0,0,0,100,100,255,0,60,true)
   241(bytes(0x04,0x08,0x6f,0x3a,0x0d,0x52,0x50,0x47,0x3a,0x3a,0x42,0x47,0x4d,0x08,0x3a,0x0a,0x40,0x6e,0x61,0x6d,0x65,0x49,0x22,0x10,0x73,0x63,0x65,0x6e,0x65,0x5f,0x63,0x6f,0x6d,0x69,0x32,0x06,0x3a,0x06,0x45,0x54,0x3a,0x0c,0x40,0x76,0x6f,0x6c,0x75,0x6d,0x65,0x69,0x69,0x3a,0x0b,0x40,0x70,0x69,0x74,0x63,0x68,0x69,0x69))
   ShowMessageFace("nero_fc1",1,0,2,10)
   ShowMessage("\\n<Nero>Hi, I'm the spy.")
   If(0,6,0)
    ShowMessageFace("sonia_fc3",2,0,2,11)
    ShowMessage("\\n<Sonya>He's SUPER suspicious!")
    0()
   Else()
    ShowMessageFace("ruka_fc1",0,0,2,12)
    ShowMessage("\\n<Luka>He's super suspicious!")
    0()
   EndIf()
   221()
   PictureClear(5)
   TeleportPlayer(0,50,46,57,6,0)
   205(20,bytes(0x04,0x08,0x6f,0x3a,0x13,0x52,0x50,0x47,0x3a,0x3a,0x4d,0x6f,0x76,0x65,0x52,0x6f,0x75,0x74,0x65,0x09,0x3a,0x0c,0x40,0x72,0x65,0x70,0x65,0x61,0x74,0x46,0x3a,0x0f,0x40,0x73,0x6b,0x69,0x70,0x70,0x61,0x62,0x6c,0x65,0x46,0x3a,0x0a,0x40,0x77,0x61,0x69,0x74,0x46,0x3a,0x0a,0x40,0x6c,0x69,0x73,0x74,0x5b,0x07,0x6f,0x3a,0x15,0x52,0x50,0x47,0x3a,0x3a,0x4d,0x6f,0x76,0x65,0x43,0x6f,0x6d,0x6d,0x61,0x6e,0x64,0x07,0x3a,0x0a,0x40,0x63,0x6f,0x64,0x65,0x69,0x15,0x3a,0x10,0x40,0x70,0x61,0x72,0x61,0x6d,0x65,0x74,0x65,0x72,0x73,0x5b,0x00,0x6f,0x3b,0x0a,0x07,0x3b,0x0b,0x69,0x00,0x3b,0x0c,0x5b,0x00))
   Wait(60)
   222()
   If(0,4,0)
    ShowMessageFace("alice_fc5",2,0,2,13)
    ShowMessage("\\n<Alice>...What's the meaning of this?\nYou aren't actually Grand Noah's spy, are you?")
    0()
   EndIf()
   If(0,5,0)
    ShowMessageFace("iriasu_fc4",2,0,2,14)
    ShowMessage("\\n<Ilias>...What on earth is going on here?\nYou're really Grand Noah's spy?")
    0()
   EndIf()
   PictureDisplay(5,"80_nero_st01b",0,0,0,0,100,100,0,0)
   PictureMove(5,null,0,0,0,0,100,100,255,0,30,true)
   ShowMessageFace("nero_fc1",2,0,2,15)
   ShowMessage("\\n<Nero>No, as a matter of fact, I'm not.\nHowever, out of a sense of duty and kindness, I ended up as his substitute.")
   ShowMessageFace("nero_fc1",0,0,2,16)
   ShowMessage("\\n<Nero>The original spy is that man over there dressed as a merchant, but, well... things happened.")
   PictureClear(5)
   ShowMessageFace("",0,0,2,17)
   ShowMessage("The merchant-looking man is standing with a vacant, doll-like expression on his face. He also has a talisman stuck to his forehead...")
   If(0,4,0)
    ShowMessageFace("alice_fc5",0,0,2,18)
    ShowMessage("\\n<Alice>That's a Taoist talisman...\nIs that yours? Why?")
    0()
   EndIf()
   If(0,5,0)
    ShowMessageFace("iriasu_fc4",2,0,2,19)
    ShowMessage("\\n<Ilias>That is a Taoist talisman...\nDid you put that on him?")
    0()
   EndIf()
   PictureDisplay(5,"80_nero_st03b",0,0,0,0,100,100,0,0)
   PictureMove(5,null,0,0,0,0,100,100,255,0,30,true)
   ShowMessageFace("nero_fc1",2,0,2,20)
   ShowMessage("\\n<Nero>Well... He started saying some things to me, and since it seemed like he might be mistaken for someone suspicious and cause a scene...")
   If(0,4,0)
    ShowMessageFace("alice_fc5",3,0,2,21)
    ShowMessage("\\n<Alice>So you stuck a talisman on him to force him to stay quiet? He'll probably be a vegetable for days...")
    0()
   EndIf()
   If(0,5,0)
    ShowMessageFace("iriasu_fc4",2,0,2,22)
    ShowMessage("\\n<Ilias>So you stuck a talisman on him to forcibly shut him up? He could remain like that for days...")
    0()
   EndIf()
   241(bytes(0x04,0x08,0x6f,0x3a,0x0d,0x52,0x50,0x47,0x3a,0x3a,0x42,0x47,0x4d,0x08,0x3a,0x0a,0x40,0x6e,0x61,0x6d,0x65,0x49,0x22,0x16,0x64,0x75,0x6e,0x67,0x65,0x6f,0x6e,0x5f,0x63,0x6f,0x6c,0x6f,0x73,0x73,0x65,0x75,0x6d,0x06,0x3a,0x06,0x45,0x54,0x3a,0x0c,0x40,0x76,0x6f,0x6c,0x75,0x6d,0x65,0x69,0x69,0x3a,0x0b,0x40,0x70,0x69,0x74,0x63,0x68,0x69,0x69))
   PictureDisplay(5,"80_nero_st01b",0,0,0,0,100,100,255,0)
   ShowMessageFace("nero_fc1",0,0,2,23)
   ShowMessage("\\n<Nero>Thus, I'm here to convey the message he spilled to me. I gather that you're headed to Grangold...")
   ShowMessageFace("nero_fc1",0,0,2,24)
   ShowMessage("\\n<Nero>There's a place called the March Hills northeast of here that you have to pass through to get to Grangold.")
   If(0,4,0)
    ShowMessageFace("alice_fc5",0,0,2,25)
    ShowMessage("\\n<Alice>March Hills? I've heard the terrain there is difficult. If we can cross them, at least Grangold isn't far from there.")
    0()
   EndIf()
   If(0,5,0)
    ShowMessageFace("iriasu_fc4",2,0,2,26)
    ShowMessage("\\n<Ilias>March Hills? The terrain there is quite rugged. If we can cross them, Grangold won't be far, at least.")
    0()
   EndIf()
   ShowMessageFace("nero_fc1",0,0,2,27)
   ShowMessage("\\n<Nero>Apparently they have golems standing watch there, though. As you may know, golems are magical giants that bar the way for outside enemies.")
   ShowMessageFace("nero_fc1",0,0,2,28)
   ShowMessage("\\n<Nero>In order to deal with the golems, Grand Noah has sent additional support. You are supposed to meet up with this person in the giant toxic swamp to the east.")
   If(0,4,0)
    ShowMessageFace("alice_fc5",0,0,2,29)
    ShowMessage("\\n<Alice>More help? Some kind of anti-golem specialist, I guess? It will be great if they can help us get across the March Hills.")
    0()
   EndIf()
   If(0,5,0)
    ShowMessageFace("iriasu_fc4",2,0,2,30)
    ShowMessage("\\n<Ilias>An anti-golem specialist, I assume?\nIt will be great if they can help us get across the March Hills.")
    0()
   EndIf()
   ShowMessageFace("nero_fc1",0,0,2,31)
   ShowMessage("\\n<Nero>Right. Once you cross the March Hills, Grangold Palace is nearby. Once you arrive, you're to meet with a new operative.")
   If(0,4,0)
    ShowMessageFace("alice_fc5",0,0,2,32)
    ShowMessage("\\n<Alice>Hmm, all right. Let's go over this once more. First, we head northeast and meet with our support in the giant toxic swamp.")
    ShowMessageFace("alice_fc5",0,0,2,33)
    ShowMessage("\\n<Alice>With their help, we pass through the nearby March Hills, then head to Grangold Palace.")
    0()
   EndIf()
   If(0,5,0)
    ShowMessageFace("iriasu_fc4",0,0,2,34)
    ShowMessage("\\n<Ilias>Understood. Let's confirm the plan. First, we head northeast and meet with our support in the giant toxic swamp.")
    ShowMessageFace("iriasu_fc4",0,0,2,35)
    ShowMessage("\\n<Ilias>With their help, we pass through the nearby March Hills, then head to Grangold Palace.")
    0()
   EndIf()
   ShowMessageFace("nero_fc1",0,0,2,36)
   ShowMessage("\\n<Nero>That's the end of the message I heard from the spy. I do have a gift just from me to you, however...")
   250(bytes(0x04,0x08,0x6f,0x3a,0x0c,0x52,0x50,0x47,0x3a,0x3a,0x53,0x45,0x08,0x3a,0x0a,0x40,0x6e,0x61,0x6d,0x65,0x49,0x22,0x0a,0x49,0x74,0x65,0x6d,0x31,0x06,0x3a,0x06,0x45,0x54,0x3a,0x0b,0x40,0x70,0x69,0x74,0x63,0x68,0x69,0x69,0x3a,0x0c,0x40,0x76,0x6f,0x6c,0x75,0x6d,0x65,0x69,0x55))
   ChangeInventory_Item(533,0,0,1)
   ChangeSwitch(100,100,1)
   If(0,6,0)
    ShowMessageFace("sonia_fc3",2,0,2,37)
    ShowMessage("\\n<Sonya>That's a super weird name for a charm!")
    0()
   Else()
    ShowMessageFace("ruka_fc1",0,0,2,38)
    ShowMessage("\\n<Luka>That's a weird name for a charm!")
    0()
   EndIf()
   PictureDisplay(5,"80_nero_st02b",0,0,0,0,100,100,255,0)
   ShowMessageFace("nero_fc1",1,0,2,39)
   ShowMessage("\\n<Nero>Pretty cool though, right?\nYou can nullify the seal on teleportation magic with it in your possession.")
   ShowMessageFace("nero_fc1",1,0,2,40)
   ShowMessage("\\n<Nero>You haven't been able to use teleportation magic or the pocket castle around here, right? With the seal nullified, you can use those normally.")
   If(0,4,0)
    ShowMessageFace("alice_fc5",0,0,2,41)
    ShowMessage("\\n<Alice>This sounds like an incredibly valuable item. Why on earth are you helping our journey?")
    0()
   EndIf()
   If(0,5,0)
    ShowMessageFace("iriasu_fc4",2,0,2,42)
    ShowMessage("\\n<Ilias>This sounds like quite a valuable item. Why are you helping our journey?")
    0()
   EndIf()
   ShowMessageFace("nero_fc1",1,0,2,43)
   ShowMessage("\\n<Nero>It's just a simple kindness. I'm not helping...")
   If(0,4,0)
    ShowMessageFace("alice_fc5",0,0,2,44)
    ShowMessage("\\n<Alice>You messed up the spy, and you suck at lying...")
    PictureDisplay(5,"80_nero_st03b",0,0,0,0,100,100,255,0)
    ShowMessageFace("nero_fc1",2,0,2,45)
    ShowMessage("\\n<Nero>S-sorry...")
    0()
   EndIf()
   If(0,5,0)
    ShowMessageFace("iriasu_fc4",2,0,2,46)
    ShowMessage("\\n<Ilias>Not only do you create a mess with the spy, you're a terrible liar, too...")
    PictureDisplay(5,"80_nero_st03b",0,0,0,0,100,100,255,0)
    ShowMessageFace("nero_fc1",2,0,2,47)
    ShowMessage("\\n<Nero>My deepest apologies...")
    0()
   EndIf()
   PictureClear(5)
   ShowMessageFace("",0,0,2,48)
   ShowMessage("At any rate, we received the message the spy was supposed to give us. Next, we need to go to the giant toxic swamp to the northeast and meet up with another person to help us.")
   ChangeVariable(1002,1002,0,0,29)
   ChangeVariable(1063,1063,0,0,7)
   241(bytes(0x04,0x08,0x6f,0x3a,0x0d,0x52,0x50,0x47,0x3a,0x3a,0x42,0x47,0x4d,0x08,0x3a,0x0a,0x40,0x6e,0x61,0x6d,0x65,0x49,0x22,0x0a,0x6d,0x75,0x72,0x61,0x33,0x06,0x3a,0x06,0x45,0x54,0x3a,0x0c,0x40,0x76,0x6f,0x6c,0x75,0x6d,0x65,0x69,0x69,0x3a,0x0b,0x40,0x70,0x69,0x74,0x63,0x68,0x69,0x69))
   EndEventProcessing()
   0()
  EndIf()
  If(1,1063,0,7,1)
   250(bytes(0x04,0x08,0x6f,0x3a,0x0c,0x52,0x50,0x47,0x3a,0x3a,0x53,0x45,0x08,0x3a,0x0a,0x40,0x6e,0x61,0x6d,0x65,0x49,0x22,0x09,0x4d,0x6f,0x76,0x65,0x06,0x3a,0x06,0x45,0x54,0x3a,0x0b,0x40,0x70,0x69,0x74,0x63,0x68,0x69,0x69,0x3a,0x0c,0x40,0x76,0x6f,0x6c,0x75,0x6d,0x65,0x69,0x55))
   TeleportPlayer(0,50,40,57,0,0)
   0()
  EndIf()
  0()



EVENT   16
 PAGE   1
  If(1,1063,0,12,2)
   ShowMessageFace("",0,0,2,1)
   ShowMessage("\\n<Smith>王妃様ぁ……あはぁぁぁぁ……")
   ShowMessageFace("",0,0,2,2)
   ShowMessage("鍛冶屋は恍惚に浸っている……")
   ShowMessage("とても鍛冶ができる状態ではないようだ。")
   EndEventProcessing()
   0()
  EndIf()
  If(1,1063,0,13,1)
   ShowMessageFace("",0,0,2,3)
   ShowMessage("\\n<Smith>畜生、まんまと洗脳されちまうとは……")
   ShowMessage("俺は鍛冶屋として三流だ！")
   ShowMessageFace("",0,0,2,4)
   ShowMessage("\\n<Smith>ぬぁぁぁぁぁぁ――！！")
   ShowMessage("精神を、精神を鍛えねば！！")
   EndEventProcessing()
   0()
  EndIf()
  0()



EVENT   17
 PAGE   1
  250(bytes(0x04,0x08,0x6f,0x3a,0x0c,0x52,0x50,0x47,0x3a,0x3a,0x53,0x45,0x08,0x3a,0x0a,0x40,0x6e,0x61,0x6d,0x65,0x49,0x22,0x09,0x4d,0x6f,0x76,0x65,0x06,0x3a,0x06,0x45,0x54,0x3a,0x0b,0x40,0x70,0x69,0x74,0x63,0x68,0x69,0x69,0x3a,0x0c,0x40,0x76,0x6f,0x6c,0x75,0x6d,0x65,0x69,0x55))
  TeleportPlayer(0,50,27,12,0,0)
  0()



EVENT   18
 PAGE   1
  If(1,1063,0,12,2)
   ShowMessageFace("",0,0,2,1)
   ShowMessage("\\n<おかみ>王妃様が泊まりにきてくれないかねぇ……")
   ShowMessage("だって、10Gなんだよ……\\$")
   ShowChoices(strings("はい","いいえ"),2)
   IfPlayerPicksChoice(0,null)
    If(7,10,0)
     125(1,0,10)
     221()
     249(bytes(0x04,0x08,0x6f,0x3a,0x0c,0x52,0x50,0x47,0x3a,0x3a,0x4d,0x45,0x08,0x3a,0x0a,0x40,0x6e,0x61,0x6d,0x65,0x49,0x22,0x08,0x49,0x6e,0x6e,0x06,0x3a,0x06,0x45,0x54,0x3a,0x0b,0x40,0x70,0x69,0x74,0x63,0x68,0x69,0x69,0x3a,0x0c,0x40,0x76,0x6f,0x6c,0x75,0x6d,0x65,0x69,0x69))
     Wait(150)
     314(0,0)
     222()
     0()
    Else()
     ShowMessageFace("",0,0,2,2)
     ShowMessage("\\n<Old Woman>王妃様なら、お金だっていっぱい……")
     0()
    EndIf()
    0()
   IfPlayerPicksChoice(1,null)
    0()
   404()
   EndEventProcessing()
   0()
  EndIf()
  If(1,1063,0,13,1)
   ShowMessageFace("",0,0,2,3)
   ShowMessage("\\n<宿屋のおかみ>いらっしゃい！")
   ShowMessage("10Gで夕食付きだよっ！\\$")
   ShowChoices(strings("はい","いいえ"),2)
   IfPlayerPicksChoice(0,null)
    If(7,10,0)
     125(1,0,10)
     221()
     249(bytes(0x04,0x08,0x6f,0x3a,0x0c,0x52,0x50,0x47,0x3a,0x3a,0x4d,0x45,0x08,0x3a,0x0a,0x40,0x6e,0x61,0x6d,0x65,0x49,0x22,0x08,0x49,0x6e,0x6e,0x06,0x3a,0x06,0x45,0x54,0x3a,0x0b,0x40,0x70,0x69,0x74,0x63,0x68,0x69,0x69,0x3a,0x0c,0x40,0x76,0x6f,0x6c,0x75,0x6d,0x65,0x69,0x69))
     Wait(150)
     314(0,0)
     222()
     0()
    Else()
     ShowMessageFace("",0,0,2,4)
     ShowMessage("\\n<宿屋のおかみ>おや、お金が足りないね。")
     0()
    EndIf()
    0()
   IfPlayerPicksChoice(1,null)
    0()
   404()
   EndEventProcessing()
   0()
  EndIf()
  0()



EVENT   19
 PAGE   1
  ChangeSelfSwitch("A",0)
  If(0,4,0)
   ShowMessageFace("alice_fc5",0,0,2,1)
   ShowMessage("\\n<Alice>In order to meet with the spy, order a roast chicken from the proprietor of this establishment. He should then let us go up to the second floor.")
   ShowMessageFace("alice_fc5",3,0,2,2)
   ShowMessage("\\n<Alice>Assuming the bartender is still sane, that is...")
   0()
  EndIf()
  If(0,5,0)
   ShowMessageFace("iriasu_fc4",0,0,2,3)
   ShowMessage("\\n<Ilias>In order to meet with the spy, order a roast chicken from the proprietor of this establishment. He should then let us go up to the second floor.")
   ShowMessageFace("iriasu_fc4",2,0,2,4)
   ShowMessage("\\n<Ilias>Assuming the bartender remains sane, that is...")
   0()
  EndIf()
  0()
 PAGE   2
  // condition: self-switch A is ON
  0()



EVENT   20
 PAGE   1
  0()
 PAGE   2
  // condition: variable 1063 >= 7
  PictureDisplay(5,"80_nero_st01b",0,0,0,0,100,100,0,0)
  PictureMove(5,null,0,0,0,0,100,100,255,0,30,true)
  ShowMessageFace("nero_fc1",0,0,2,1)
  ShowMessage("\\n<Nero>Are you sure you remember the next steps of your operation?")
  If(0,4,0)
   ShowMessageFace("alice_fc5",0,0,2,2)
   ShowMessage("\\n<Alice>First, we head northeast and meet with our support in the giant toxic swamp.")
   ShowMessageFace("alice_fc5",0,0,2,3)
   ShowMessage("\\n<Alice>With their help, we pass through the nearby March Hills, then head to Grangold Palace. Is that right?")
   0()
  EndIf()
  If(0,5,0)
   ShowMessageFace("iriasu_fc4",0,0,2,4)
   ShowMessage("\\n<Ilias>First, we head northeast and meet with our support in the giant toxic swamp.")
   ShowMessageFace("iriasu_fc4",0,0,2,5)
   ShowMessage("\\n<Ilias>With their help, we pass through the nearby March Hills, then head to Grangold Palace. Correct?")
   0()
  EndIf()
  ShowMessageFace("nero_fc1",0,0,2,6)
  ShowMessage("\\n<Nero>Yes, exactly right.\nBy all means, do not go to Grangold unprepared...")
  If(0,4,0)
   ShowMessageFace("alice_fc5",0,0,2,7)
   ShowMessage("\\n<Alice>The impure aura hanging over this town is the work of the queen everyone's talking about. They're referring to the Queen Ant, right?")
   0()
  EndIf()
  If(0,5,0)
   ShowMessageFace("iriasu_fc4",2,0,2,8)
   ShowMessage("\\n<Ilias>The impure aura hanging over this town is the work of the queen everyone's talking about. They refer to the Queen Ant, do they not?")
   0()
  EndIf()
  ShowMessageFace("nero_fc1",0,0,2,9)
  ShowMessage("\\n<Nero>......")
  If(0,4,0)
   ShowMessageFace("alice_fc5",2,0,2,10)
   ShowMessage("\\n<Alice>Not going to give us any important information?")
   0()
  EndIf()
  If(0,5,0)
   ShowMessageFace("iriasu_fc4",2,0,2,11)
   ShowMessage("\\n<Ilias>Always so tight-lipped when we ask you questions...")
   0()
  EndIf()
  PictureClear(5)
  EndEventProcessing()
  0()
 PAGE   3
  // condition: variable 1063 >= 8
  0()



EVENT   21
 PAGE   1
  If(1,1063,0,7,2)
   ShowMessageFace("",0,0,2,1)
   ShowMessage("\\n<Spy Merchant>I am... a spy...\nThe message I have to deliver...")
   ShowMessageFace("",0,0,2,2)
   ShowMessage("The man with a talisman stuck to his forehead is muttering in delirium...")
   ShowMessageFace("nero_fc1",0,0,2,3)
   ShowMessage("\\n<Nero>This is my fault, so I can't just leave him here. Don't worry, I'll watch over him until he regains his sanity.")
   EndEventProcessing()
   0()
  EndIf()
  If(1,1063,0,8,1)
   ShowMessageFace("",0,0,2,4)
   ShowMessage("\\n<Spy Merchant>Oh, you look familiar...\nHmmm, I feel like we've met somewhere before...")
   EndEventProcessing()
   0()
  EndIf()
  0()



EVENT   22
 PAGE   1
  If(1,1063,0,12,2)
   ShowMessageFace("",0,0,2,1)
   ShowMessage("\\n<中年男性>屋内に入ると、少しはマシになるんだけど……")
   ShowMessage("ああ、王妃様……")
   EndEventProcessing()
   0()
  EndIf()
  If(1,1063,0,13,1)
   ShowMessageFace("",0,0,2,2)
   ShowMessage("\\n<中年男性>この町には、魔女伝説があるんだ。")
   ShowMessage("……と言っても、おどろおどろしいものじゃない。")
   ShowMessageFace("",0,0,2,3)
   ShowMessage("\\n<中年男性>不思議な力が選ばれし少女に宿り、魔法少女になるらしい。")
   ShowMessage("今も一人、この町には魔法少女がいるよ。")
   EndEventProcessing()
   0()
  EndIf()
  0()



EVENT   23
 PAGE   1
  If(1,1063,0,12,2)
   ShowMessageFace("",0,0,2,1)
   ShowMessage("\\n<中年女性>王妃様のおっしゃる通り……")
   ShowMessage("毎日、食事を作って……食べて、寝て……")
   If(0,4,0)
    ShowMessageFace("alice_fc5",0,0,2,2)
    ShowMessage("\\n<Alice>強力な洗脳を受けながらも……")
    ShowMessage("いつも通りの日常生活を送るよう、指示を受けているようだな。")
    0()
   EndIf()
   If(0,5,0)
    ShowMessageFace("iriasu_fc4",2,0,2,3)
    ShowMessage("\\n<Ilias>強力な洗脳を受けながらも……")
    ShowMessage("いつも通りの日常生活を送るよう、指示を受けているようですね。")
    0()
   EndIf()
   EndEventProcessing()
   0()
  EndIf()
  If(1,1063,0,13,1)
   ShowMessageFace("",0,0,2,4)
   ShowMessage("\\n<中年女性>この町で育った娘は、みんな魔法少女に憧れるものだよ……")
   ShowMessage("あたしだって、そうだったさ。")
   EndEventProcessing()
   0()
  EndIf()
  0()



EVENT   24
 PAGE   1
  If(1,1063,0,12,2)
   ShowMessageFace("",0,0,2,1)
   ShowMessage("\\n<旅の戦士>王妃様……王妃様のために……")
   EndEventProcessing()
   0()
  EndIf()
  If(1,1063,0,13,1)
   ShowMessageFace("",0,0,2,2)
   ShowMessage("\\n<旅の戦士>洗脳の一件でショックを受けたのか、鍛冶屋が仕事をしてくれなくなった。")
   ShowMessage("グランゴルドまで出向くしかないか、やれやれ……")
   EndEventProcessing()
   0()
  EndIf()
  0()



EVENT   25
 PAGE   1
  If(1,1063,0,12,2)
   ShowMessageFace("",0,0,2,1)
   ShowMessage("\\n<Youth>ああ、王妃様ぁぁぁ……")
   EndEventProcessing()
   0()
  EndIf()
  If(1,1063,0,13,1)
   ShowMessageFace("",0,0,2,2)
   ShowMessage("\\n<Youth>もしもの時のために、財産の半分を貴金属に変えておこう。")
   ShowMessage("大戦争に魔王の宣戦布告、世の中荒れ放題だからね……")
   EndEventProcessing()
   0()
  EndIf()
  0()



EVENT   26
 PAGE   1
  If(1,1063,0,12,2)
   ShowMessageFace("",0,0,2,1)
   ShowMessage("\\n<Man>どんな美酒も、王妃様の魅力にはかなわない……")
   EndEventProcessing()
   0()
  EndIf()
  If(1,1063,0,13,1)
   ShowMessageFace("",0,0,2,2)
   ShowMessage("\\n<Man>理性を失った俺、ずっとこの酒場に通ってたらしい……")
   ShowMessage("意識がほとんどなくても、普段通りの行動を取るって本当なんだな。")
   EndEventProcessing()
   0()
  EndIf()
  0()



EVENT   27
 PAGE   1
  If(1,1063,0,12,2)
   ShowMessageFace("",0,0,2,1)
   ShowMessage("\\n<あらくれ>王妃様のために死にてぇ……")
   ShowMessage("王妃様に殺されてもいい……")
   EndEventProcessing()
   0()
  EndIf()
  If(1,1063,0,13,1)
   ShowMessageFace("",0,0,2,2)
   ShowMessage("\\n<あらくれ>噂じゃ、ここのマスターはドン・ファーザーの腹心って話だぜ。")
   ShowMessageFace("",0,0,2,3)
   ShowMessage("\\n<Soldier>いや、流石にそれはないな……")
   EndEventProcessing()
   0()
  EndIf()
  0()



EVENT   28
 PAGE   1
  If(1,1063,0,12,2)
   ShowMessageFace("",0,0,2,1)
   ShowMessage("\\n<Soldier>はぅぅ……あ、あ、王妃さまぁぁぁ……")
   EndEventProcessing()
   0()
  EndIf()
  If(1,1063,0,13,1)
   ShowMessageFace("",0,0,2,2)
   ShowMessage("\\n<Soldier>王妃の正体は、狐の妖魔だったそうな。")
   ShowMessage("グランゴルドを丸ごと我が物にするなんて、とんでもないヤツだな……")
   355("actor_label_jump")
   EndEventProcessing()
   DefineLabel("102")
   ShowMessageFace("youko_fc1",2,0,2,3)
   ShowMessage("\\n<Kitsu>こんこん……あたしはいいキツネだよっ。")
   EndEventProcessing()
   DefineLabel("103")
   ShowMessageFace("kamuro_fc1",2,0,2,4)
   ShowMessage("\\n<Kamuro>狐族の評判が落ちてしまったかもしれませんね……")
   EndEventProcessing()
   0()
  EndIf()
  0()



EVENT   29
 PAGE   1
  If(1,1063,0,12,2)
   ShowMessageFace("",0,0,2,1)
   ShowMessage("\\n<Middle-age Man>おーひぃっぃ……")
   ShowMessage("うぉひ、お……おぉぉ……")
   EndEventProcessing()
   0()
  EndIf()
  If(1,1063,0,13,1)
   ShowMessageFace("",0,0,2,2)
   ShowMessage("\\n<Middle-age Man>勇者ルカ……いったい、どんな男なんだろうな。")
   ShowMessage("噂によれば、今年の女王杯で優勝した選手と同一人物らしいぞ。")
   EndEventProcessing()
   0()
  EndIf()
  0()



EVENT   30
 PAGE   1
  If(1,1063,0,12,2)
   ShowMessageFace("",0,0,2,1)
   ShowMessage("\\n<おじさん>北東の岬に、広い海岸があってぇ……")
   ShowMessage("伝説じゃ、海底神殿に繋がる道がぁぁぁ……")
   ShowMessageFace("",0,0,2,2)
   ShowMessage("\\n<おじさん>あぁぁぁぁるぅぅぅぅんんんだぁぁぁっってぇぇぇぇぇさぁぁぁぁぁ")
   EndEventProcessing()
   0()
  EndIf()
  If(1,1063,0,13,1)
   ShowMessageFace("",0,0,2,3)
   ShowMessage("\\n<おじさん>東の大毒沼から、さらに東に進めばゴルド海岸がある。")
   ShowMessage("そこの波打ち際、ひときわ光を放つ場所で「導きの玉」を掲げれば――")
   ShowMessageFace("",0,0,2,4)
   ShowMessage("\\n<おじさん>なんと、海底神殿に招待されるという話だ。")
   ShowMessage("海底神殿は南と北の二つがあるって話だが、北の海底神殿の方だな。")
   ShowMessageFace("",0,0,2,5)
   ShowMessage("\\n<おじさん>まあもっとも、「導きの玉」ってのが結構な貴重品なんだけどな")
   ShowMessage("格の高い人魚なら、持ってるって話だが……")
   If(1,1068,0,2,2)
    If(8,514)
     ShowMessageFace("ruka_fc1",0,0,2,6)
     ShowMessage("\\n<Luka>導きの玉……")
     ShowMessage("確かナタリアポートで、マーメイドからもらったよね。")
     If(0,4,0)
      ShowMessageFace("alice_fc5",0,0,2,7)
      ShowMessage("\\n<Alice>それがあれば、ゴルド海岸から海底神殿に行けるな。")
      ShowMessage("余裕があるなら、行ってみてはどうだ？")
      0()
     EndIf()
     If(0,5,0)
      ShowMessageFace("iriasu_fc4",0,0,2,8)
      ShowMessage("\\n<Ilias>それがあれば、ゴルド海岸から海底神殿に行けますよ。")
      ShowMessage("余裕があるなら、襲撃してみてはどうですか？")
      0()
     EndIf()
     0()
    EndIf()
    0()
   EndIf()
   EndEventProcessing()
   0()
  EndIf()
  0()



EVENT   31
 PAGE   1
  If(1,1063,0,12,2)
   ShowMessageFace("",0,0,2,1)
   ShowMessage("\\n<若い女性>王妃様、なんて素敵……")
   EndEventProcessing()
   0()
  EndIf()
  If(1,1063,0,13,1)
   ShowMessageFace("",0,0,2,2)
   ShowMessage("\\n<若い女性>勇者ルカ……可愛い名前だけど、どうせ筋肉ムキムキのオッサンなんでしょ？")
   ShowMessage("キミみたいな可愛い少年勇者だったら、ファンになっちゃうけどね。")
   If(0,6,0)
    ShowMessageFace("sonia_fc1",5,0,2,3)
    ShowMessage("\\n<Sonya>ここは、遠ざけておく！")
    0()
   EndIf()
   EndEventProcessing()
   0()
  EndIf()
  0()



EVENT   32
 PAGE   1
  If(1,1063,0,12,2)
   ShowMessageFace("",0,0,2,1)
   ShowMessage("\\n<Soldier>おぉぉ……王妃様ぁ……")
   ShowMessage("常に、あなた様のお側に……")
   EndEventProcessing()
   0()
  EndIf()
  If(1,1063,0,13,1)
   ShowMessageFace("",0,0,2,2)
   ShowMessage("\\n<Soldier>狐の王妃の次は、大魔王か……")
   ShowMessage("なんかもう、世界の終わりも近いんじゃないか？")
   EndEventProcessing()
   0()
  EndIf()
  0()



EVENT   33
 PAGE   1
  If(1,1063,0,12,2)
   ShowMessageFace("",0,0,2,1)
   ShowMessage("\\n<旅の戦士>あぁぁ……王妃様の声がぁ……")
   EndEventProcessing()
   0()
  EndIf()
  If(1,1063,0,13,1)
   ShowMessageFace("",0,0,2,2)
   ShowMessage("\\n<旅の戦士>最上級職ともなると、転職アイテムも非常にレアだ。")
   ShowMessage("各国の王が所持しているという噂だが、簡単に授けてもらえるはずもなし……")
   EndEventProcessing()
   0()
  EndIf()
  0()



EVENT   34
 PAGE   1
  If(1,1063,0,12,2)
   ShowMessageFace("",0,0,2,1)
   ShowMessage("\\n<剣士>王妃様……ううっ、心が……")
   ShowMessage("この場から離れないと……ああ、王妃様……")
   EndEventProcessing()
   0()
  EndIf()
  If(1,1063,0,13,1)
   ShowMessageFace("",0,0,2,2)
   ShowMessage("\\n<剣士>ああ、英雄になりそこねたわ。")
   ShowMessage("邪悪な王妃を、ズバッと退治するつもりだったのに……")
   EndEventProcessing()
   0()
  EndIf()
  0()



EVENT   35
 PAGE   1
  If(1,1063,0,12,2)
   ShowMessageFace("",0,0,2,1)
   ShowMessage("\\n<旅の商人>王妃様に……")
   ShowMessage("王妃様に会いにぃ……")
   EndEventProcessing()
   0()
  EndIf()
  If(1,1063,0,13,1)
   ShowMessageFace("",0,0,2,2)
   ShowMessage("\\n<旅の商人>ゴルド中央部へ、行商に向かう予定だったのですが……")
   ShowMessage("サキュバスの村も貴婦人の村も、なにやら不穏な噂を聞きますね。")
   EndEventProcessing()
   0()
  EndIf()
  0()



EVENT   36
 PAGE   1
  If(1,1063,0,12,2)
   ShowMessageFace("",0,0,2,1)
   ShowMessage("\\n<Mage>これほどの淫気、外だと正気が保てないわ……")
   ShowMessage("屋内でも、魔力でガードして精一杯よ……")
   ShowMessageFace("",0,0,2,2)
   ShowMessage("\\n<Mage>ここは、いったい……")
   ShowMessage("ああ、気を抜けば心が侵食される……")
   EndEventProcessing()
   0()
  EndIf()
  If(1,1063,0,13,1)
   ShowMessageFace("",0,0,2,3)
   ShowMessage("\\n<Mage>本当、散々な目に遭ったわ……")
   ShowMessage("早くこの町を出たいのだけど、相棒がまだ半分正気じゃないの。")
   ShowMessageFace("",0,0,2,4)
   ShowMessage("\\n<Mage>頭がカラッポな分、精神耐性がそこらへんの子供以下だったみたいね。")
   ShowMessage("組む相手を誤ったかしら……？")
   EndEventProcessing()
   0()
  EndIf()
  0()



EVENT   37
 PAGE   1
  If(1,1063,0,12,2)
   ShowMessageFace("",0,0,2,1)
   ShowMessage("\\n<Soldier>あはぁ……王妃様、王妃様、王妃様ぁ……")
   EndEventProcessing()
   0()
  EndIf()
  If(1,1063,0,13,1)
   ShowMessageFace("",0,0,2,2)
   ShowMessage("\\n<Soldier>王妃様　ああ王妃様　王妃様")
   EndEventProcessing()
   0()
  EndIf()
  0()



EVENT   38
 PAGE   1
  If(1,1063,0,12,2)
   ShowMessageFace("usagi_fc1",2,0,2,1)
   ShowMessage("\\n<ウサギ娘>この町の人間達、ひどい事になっているようね……")
   ShowMessage("魔物の私でさえ、この淫気では長居したくないわ。")
   EndEventProcessing()
   0()
  EndIf()
  If(1,1063,0,13,1)
   ShowMessageFace("usagi_fc1",0,0,2,2)
   ShowMessage("\\n<ウサギ娘>淫気が晴れて、良かったわね。")
   ShowMessage("もしかして、あなた達のおかげかしら……？")
   355("actor_label_jump")
   EndEventProcessing()
   DefineLabel("202")
   ShowMessageFace("bonny_fc1",1,0,2,3)
   ShowMessage("\\n<Bonnie>もちろん、我々のおかげだぞ！")
   ShowMessage("おさかな海賊団の名、覚えておくがいい！")
   EndEventProcessing()
   DefineLabel("203")
   ShowMessageFace("tatunoko_k_fc1",1,0,2,4)
   ShowMessage("\\n<Tatsuko>勇者ルカwith海軍の活躍なのです！")
   EndEventProcessing()
   0()
  EndIf()
  0()



EVENT   39
 PAGE   1
  If(1,1063,0,12,2)
   ShowMessageFace("",0,0,2,1)
   ShowMessage("\\n<Young Boy>ふにゃぁぁぁぁ……")
   EndEventProcessing()
   0()
  EndIf()
  If(1,1063,0,13,1)
   If(1,1078,0,4,2)
    ShowMessageFace("",0,0,2,2)
    ShowMessage("\\n<Young Boy>マジカル☆まりんちゃんから聞いたよ。")
    ShowMessage("東の大毒沼で、もうすぐ魔女っ子バトルロイヤルが始まるんだって。")
    ShowMessageFace("",0,0,2,3)
    ShowMessage("\\n<Young Boy>でも、僕は男の子だから参加できないの……")
    ShowMessage("女の子に生まれたら良かったのに。")
    EndEventProcessing()
    0()
   EndIf()
   If(1,1078,0,5,1)
    ShowMessageFace("",0,0,2,4)
    ShowMessage("\\n<Young Boy>マジカル☆まりんちゃんから聞いたよ。")
    ShowMessage("新しい魔法少女が決まったんだって。")
    ShowMessageFace("",0,0,2,5)
    ShowMessage("\\n<Young Boy>でも、どんな人かは教えてくれなかったの。")
    ShowMessage("きっと、とっても可愛い女の子だよね？")
    EndEventProcessing()
    0()
   EndIf()
   0()
  EndIf()
  0()



EVENT   40
 PAGE   1
  // condition: switch 31 is ON
  0()



EVENT   41
 PAGE   1
  250(bytes(0x04,0x08,0x6f,0x3a,0x0c,0x52,0x50,0x47,0x3a,0x3a,0x53,0x45,0x08,0x3a,0x0a,0x40,0x6e,0x61,0x6d,0x65,0x49,0x22,0x0a,0x49,0x74,0x65,0x6d,0x31,0x06,0x3a,0x06,0x45,0x54,0x3a,0x0b,0x40,0x70,0x69,0x74,0x63,0x68,0x69,0x69,0x3a,0x0c,0x40,0x76,0x6f,0x6c,0x75,0x6d,0x65,0x69,0x55))
  ChangeSelfSwitch("A",0)
  ChangeInventory_Item(32,0,0,1)
  0()
 PAGE   2
  // condition: self-switch A is ON
  0()



EVENT   42
 PAGE   1
  250(bytes(0x04,0x08,0x6f,0x3a,0x0c,0x52,0x50,0x47,0x3a,0x3a,0x53,0x45,0x08,0x3a,0x0a,0x40,0x6e,0x61,0x6d,0x65,0x49,0x22,0x0a,0x49,0x74,0x65,0x6d,0x31,0x06,0x3a,0x06,0x45,0x54,0x3a,0x0b,0x40,0x70,0x69,0x74,0x63,0x68,0x69,0x69,0x3a,0x0c,0x40,0x76,0x6f,0x6c,0x75,0x6d,0x65,0x69,0x55))
  ChangeSelfSwitch("A",0)
  ChangeInventory_Item(27,0,0,1)
  0()
 PAGE   2
  // condition: self-switch A is ON
  0()



EVENT   43
 PAGE   1
  250(bytes(0x04,0x08,0x6f,0x3a,0x0c,0x52,0x50,0x47,0x3a,0x3a,0x53,0x45,0x08,0x3a,0x0a,0x40,0x6e,0x61,0x6d,0x65,0x49,0x22,0x0a,0x49,0x74,0x65,0x6d,0x31,0x06,0x3a,0x06,0x45,0x54,0x3a,0x0b,0x40,0x70,0x69,0x74,0x63,0x68,0x69,0x69,0x3a,0x0c,0x40,0x76,0x6f,0x6c,0x75,0x6d,0x65,0x69,0x55))
  ChangeSelfSwitch("A",0)
  ChangeInventory_Item(430,0,0,1)
  0()
 PAGE   2
  // condition: self-switch A is ON
  0()



EVENT   44
 PAGE   1
  250(bytes(0x04,0x08,0x6f,0x3a,0x0c,0x52,0x50,0x47,0x3a,0x3a,0x53,0x45,0x08,0x3a,0x0a,0x40,0x6e,0x61,0x6d,0x65,0x49,0x22,0x0a,0x49,0x74,0x65,0x6d,0x31,0x06,0x3a,0x06,0x45,0x54,0x3a,0x0b,0x40,0x70,0x69,0x74,0x63,0x68,0x69,0x69,0x3a,0x0c,0x40,0x76,0x6f,0x6c,0x75,0x6d,0x65,0x69,0x55))
  ChangeSelfSwitch("A",0)
  ChangeInventory_Item(23,0,0,1)
  0()
 PAGE   2
  // condition: self-switch A is ON
  0()



EVENT   45
 PAGE   1
  250(bytes(0x04,0x08,0x6f,0x3a,0x0c,0x52,0x50,0x47,0x3a,0x3a,0x53,0x45,0x08,0x3a,0x0a,0x40,0x6e,0x61,0x6d,0x65,0x49,0x22,0x0a,0x49,0x74,0x65,0x6d,0x31,0x06,0x3a,0x06,0x45,0x54,0x3a,0x0b,0x40,0x70,0x69,0x74,0x63,0x68,0x69,0x69,0x3a,0x0c,0x40,0x76,0x6f,0x6c,0x75,0x6d,0x65,0x69,0x55))
  ChangeSelfSwitch("A",0)
  ChangeInventory_Item(2,0,0,1)
  0()
 PAGE   2
  // condition: self-switch A is ON
  0()



EVENT   46
 PAGE   1
  250(bytes(0x04,0x08,0x6f,0x3a,0x0c,0x52,0x50,0x47,0x3a,0x3a,0x53,0x45,0x08,0x3a,0x0a,0x40,0x6e,0x61,0x6d,0x65,0x49,0x22,0x0a,0x49,0x74,0x65,0x6d,0x31,0x06,0x3a,0x06,0x45,0x54,0x3a,0x0b,0x40,0x70,0x69,0x74,0x63,0x68,0x69,0x69,0x3a,0x0c,0x40,0x76,0x6f,0x6c,0x75,0x6d,0x65,0x69,0x55))
  ChangeSelfSwitch("A",0)
  ChangeInventory_Item(208,0,0,1)
  0()
 PAGE   2
  // condition: self-switch A is ON
  0()



EVENT   47
 PAGE   1
  250(bytes(0x04,0x08,0x6f,0x3a,0x0c,0x52,0x50,0x47,0x3a,0x3a,0x53,0x45,0x08,0x3a,0x0a,0x40,0x6e,0x61,0x6d,0x65,0x49,0x22,0x0a,0x49,0x74,0x65,0x6d,0x31,0x06,0x3a,0x06,0x45,0x54,0x3a,0x0b,0x40,0x70,0x69,0x74,0x63,0x68,0x69,0x69,0x3a,0x0c,0x40,0x76,0x6f,0x6c,0x75,0x6d,0x65,0x69,0x55))
  ChangeSelfSwitch("A",0)
  ChangeInventory_Item(15,0,0,1)
  0()
 PAGE   2
  // condition: self-switch A is ON
  0()



EVENT   48
 PAGE   1
  250(bytes(0x04,0x08,0x6f,0x3a,0x0c,0x52,0x50,0x47,0x3a,0x3a,0x53,0x45,0x08,0x3a,0x0a,0x40,0x6e,0x61,0x6d,0x65,0x49,0x22,0x0a,0x49,0x74,0x65,0x6d,0x31,0x06,0x3a,0x06,0x45,0x54,0x3a,0x0b,0x40,0x70,0x69,0x74,0x63,0x68,0x69,0x69,0x3a,0x0c,0x40,0x76,0x6f,0x6c,0x75,0x6d,0x65,0x69,0x55))
  ChangeSelfSwitch("A",0)
  ChangeInventory_Item(25,0,0,1)
  0()
 PAGE   2
  // condition: self-switch A is ON
  0()



EVENT   49
 PAGE   1
  241(bytes(0x04,0x08,0x6f,0x3a,0x0d,0x52,0x50,0x47,0x3a,0x3a,0x42,0x47,0x4d,0x08,0x3a,0x0a,0x40,0x6e,0x61,0x6d,0x65,0x49,0x22,0x0a,0x6d,0x75,0x72,0x61,0x33,0x06,0x3a,0x06,0x45,0x54,0x3a,0x0c,0x40,0x76,0x6f,0x6c,0x75,0x6d,0x65,0x69,0x69,0x3a,0x0b,0x40,0x70,0x69,0x74,0x63,0x68,0x69,0x69))
  TemporaryRemoveEvent()
  0()
 PAGE   2
  // condition: variable 1063 >= 13
  0()
