﻿
DisplayName "風光明媚の山"



EVENT   1
 PAGE   1
  250(bytes(0x04,0x08,0x6f,0x3a,0x0c,0x52,0x50,0x47,0x3a,0x3a,0x53,0x45,0x08,0x3a,0x0a,0x40,0x6e,0x61,0x6d,0x65,0x49,0x22,0x09,0x4d,0x6f,0x76,0x65,0x06,0x3a,0x06,0x45,0x54,0x3a,0x0b,0x40,0x70,0x69,0x74,0x63,0x68,0x69,0x69,0x3a,0x0c,0x40,0x76,0x6f,0x6c,0x75,0x6d,0x65,0x69,0x55))
  TeleportPlayer(0,2,161,120,0,0)
  0()



EVENT   2
 PAGE   1
  250(bytes(0x04,0x08,0x6f,0x3a,0x0c,0x52,0x50,0x47,0x3a,0x3a,0x53,0x45,0x08,0x3a,0x0a,0x40,0x6e,0x61,0x6d,0x65,0x49,0x22,0x09,0x4d,0x6f,0x76,0x65,0x06,0x3a,0x06,0x45,0x54,0x3a,0x0b,0x40,0x70,0x69,0x74,0x63,0x68,0x69,0x69,0x3a,0x0c,0x40,0x76,0x6f,0x6c,0x75,0x6d,0x65,0x69,0x55))
  TeleportPlayer(0,2,161,120,0,0)
  0()



EVENT   3
 PAGE   1
  250(bytes(0x04,0x08,0x6f,0x3a,0x0c,0x52,0x50,0x47,0x3a,0x3a,0x53,0x45,0x08,0x3a,0x0a,0x40,0x6e,0x61,0x6d,0x65,0x49,0x22,0x09,0x4d,0x6f,0x76,0x65,0x06,0x3a,0x06,0x45,0x54,0x3a,0x0b,0x40,0x70,0x69,0x74,0x63,0x68,0x69,0x69,0x3a,0x0c,0x40,0x76,0x6f,0x6c,0x75,0x6d,0x65,0x69,0x55))
  TeleportPlayer(0,2,161,120,0,0)
  0()



EVENT   4
 PAGE   1
  250(bytes(0x04,0x08,0x6f,0x3a,0x0c,0x52,0x50,0x47,0x3a,0x3a,0x53,0x45,0x08,0x3a,0x0a,0x40,0x6e,0x61,0x6d,0x65,0x49,0x22,0x09,0x4d,0x6f,0x76,0x65,0x06,0x3a,0x06,0x45,0x54,0x3a,0x0b,0x40,0x70,0x69,0x74,0x63,0x68,0x69,0x69,0x3a,0x0c,0x40,0x76,0x6f,0x6c,0x75,0x6d,0x65,0x69,0x55))
  TeleportPlayer(0,2,161,120,0,0)
  0()



EVENT   5
 PAGE   1
  250(bytes(0x04,0x08,0x6f,0x3a,0x0c,0x52,0x50,0x47,0x3a,0x3a,0x53,0x45,0x08,0x3a,0x0a,0x40,0x6e,0x61,0x6d,0x65,0x49,0x22,0x0a,0x43,0x68,0x65,0x73,0x74,0x06,0x3a,0x06,0x45,0x54,0x3a,0x0b,0x40,0x70,0x69,0x74,0x63,0x68,0x69,0x69,0x3a,0x0c,0x40,0x76,0x6f,0x6c,0x75,0x6d,0x65,0x69,0x55))
  205(0,bytes(0x04,0x08,0x6f,0x3a,0x13,0x52,0x50,0x47,0x3a,0x3a,0x4d,0x6f,0x76,0x65,0x52,0x6f,0x75,0x74,0x65,0x09,0x3a,0x0c,0x40,0x72,0x65,0x70,0x65,0x61,0x74,0x46,0x3a,0x0f,0x40,0x73,0x6b,0x69,0x70,0x70,0x61,0x62,0x6c,0x65,0x46,0x3a,0x0a,0x40,0x77,0x61,0x69,0x74,0x54,0x3a,0x0a,0x40,0x6c,0x69,0x73,0x74,0x5b,0x0b,0x6f,0x3a,0x15,0x52,0x50,0x47,0x3a,0x3a,0x4d,0x6f,0x76,0x65,0x43,0x6f,0x6d,0x6d,0x61,0x6e,0x64,0x07,0x3a,0x0a,0x40,0x63,0x6f,0x64,0x65,0x69,0x29,0x3a,0x10,0x40,0x70,0x61,0x72,0x61,0x6d,0x65,0x74,0x65,0x72,0x73,0x5b,0x00,0x6f,0x3b,0x0a,0x07,0x3b,0x0b,0x69,0x16,0x3b,0x0c,0x5b,0x00,0x6f,0x3b,0x0a,0x07,0x3b,0x0b,0x69,0x14,0x3b,0x0c,0x5b,0x06,0x69,0x08,0x6f,0x3b,0x0a,0x07,0x3b,0x0b,0x69,0x17,0x3b,0x0c,0x5b,0x00,0x6f,0x3b,0x0a,0x07,0x3b,0x0b,0x69,0x14,0x3b,0x0c,0x5b,0x06,0x69,0x08,0x6f,0x3b,0x0a,0x07,0x3b,0x0b,0x69,0x00,0x3b,0x0c,0x5b,0x00))
  ChangeSelfSwitch("A",0)
  ChangeInventory_Item(6,0,0,1)
  0()
 PAGE   2
  // condition: self-switch A is ON
  0()



EVENT   6
 PAGE   1
  250(bytes(0x04,0x08,0x6f,0x3a,0x0c,0x52,0x50,0x47,0x3a,0x3a,0x53,0x45,0x08,0x3a,0x0a,0x40,0x6e,0x61,0x6d,0x65,0x49,0x22,0x0a,0x43,0x68,0x65,0x73,0x74,0x06,0x3a,0x06,0x45,0x54,0x3a,0x0b,0x40,0x70,0x69,0x74,0x63,0x68,0x69,0x69,0x3a,0x0c,0x40,0x76,0x6f,0x6c,0x75,0x6d,0x65,0x69,0x55))
  205(0,bytes(0x04,0x08,0x6f,0x3a,0x13,0x52,0x50,0x47,0x3a,0x3a,0x4d,0x6f,0x76,0x65,0x52,0x6f,0x75,0x74,0x65,0x09,0x3a,0x0c,0x40,0x72,0x65,0x70,0x65,0x61,0x74,0x46,0x3a,0x0f,0x40,0x73,0x6b,0x69,0x70,0x70,0x61,0x62,0x6c,0x65,0x46,0x3a,0x0a,0x40,0x77,0x61,0x69,0x74,0x54,0x3a,0x0a,0x40,0x6c,0x69,0x73,0x74,0x5b,0x0b,0x6f,0x3a,0x15,0x52,0x50,0x47,0x3a,0x3a,0x4d,0x6f,0x76,0x65,0x43,0x6f,0x6d,0x6d,0x61,0x6e,0x64,0x07,0x3a,0x0a,0x40,0x63,0x6f,0x64,0x65,0x69,0x29,0x3a,0x10,0x40,0x70,0x61,0x72,0x61,0x6d,0x65,0x74,0x65,0x72,0x73,0x5b,0x00,0x6f,0x3b,0x0a,0x07,0x3b,0x0b,0x69,0x16,0x3b,0x0c,0x5b,0x00,0x6f,0x3b,0x0a,0x07,0x3b,0x0b,0x69,0x14,0x3b,0x0c,0x5b,0x06,0x69,0x08,0x6f,0x3b,0x0a,0x07,0x3b,0x0b,0x69,0x17,0x3b,0x0c,0x5b,0x00,0x6f,0x3b,0x0a,0x07,0x3b,0x0b,0x69,0x14,0x3b,0x0c,0x5b,0x06,0x69,0x08,0x6f,0x3b,0x0a,0x07,0x3b,0x0b,0x69,0x00,0x3b,0x0c,0x5b,0x00))
  ChangeSelfSwitch("A",0)
  ChangeInventoryArmor(1446,0,0,1)
  0()
 PAGE   2
  // condition: self-switch A is ON
  0()



EVENT   7
 PAGE   1
  250(bytes(0x04,0x08,0x6f,0x3a,0x0c,0x52,0x50,0x47,0x3a,0x3a,0x53,0x45,0x08,0x3a,0x0a,0x40,0x6e,0x61,0x6d,0x65,0x49,0x22,0x0a,0x43,0x68,0x65,0x73,0x74,0x06,0x3a,0x06,0x45,0x54,0x3a,0x0b,0x40,0x70,0x69,0x74,0x63,0x68,0x69,0x69,0x3a,0x0c,0x40,0x76,0x6f,0x6c,0x75,0x6d,0x65,0x69,0x55))
  205(0,bytes(0x04,0x08,0x6f,0x3a,0x13,0x52,0x50,0x47,0x3a,0x3a,0x4d,0x6f,0x76,0x65,0x52,0x6f,0x75,0x74,0x65,0x09,0x3a,0x0c,0x40,0x72,0x65,0x70,0x65,0x61,0x74,0x46,0x3a,0x0f,0x40,0x73,0x6b,0x69,0x70,0x70,0x61,0x62,0x6c,0x65,0x46,0x3a,0x0a,0x40,0x77,0x61,0x69,0x74,0x54,0x3a,0x0a,0x40,0x6c,0x69,0x73,0x74,0x5b,0x0b,0x6f,0x3a,0x15,0x52,0x50,0x47,0x3a,0x3a,0x4d,0x6f,0x76,0x65,0x43,0x6f,0x6d,0x6d,0x61,0x6e,0x64,0x07,0x3a,0x0a,0x40,0x63,0x6f,0x64,0x65,0x69,0x29,0x3a,0x10,0x40,0x70,0x61,0x72,0x61,0x6d,0x65,0x74,0x65,0x72,0x73,0x5b,0x00,0x6f,0x3b,0x0a,0x07,0x3b,0x0b,0x69,0x16,0x3b,0x0c,0x5b,0x00,0x6f,0x3b,0x0a,0x07,0x3b,0x0b,0x69,0x14,0x3b,0x0c,0x5b,0x06,0x69,0x08,0x6f,0x3b,0x0a,0x07,0x3b,0x0b,0x69,0x17,0x3b,0x0c,0x5b,0x00,0x6f,0x3b,0x0a,0x07,0x3b,0x0b,0x69,0x14,0x3b,0x0c,0x5b,0x06,0x69,0x08,0x6f,0x3b,0x0a,0x07,0x3b,0x0b,0x69,0x00,0x3b,0x0c,0x5b,0x00))
  ChangeSelfSwitch("A",0)
  ChangeInventory_Item(80,0,0,1)
  0()
 PAGE   2
  // condition: self-switch A is ON
  0()



EVENT   8
 PAGE   1
  250(bytes(0x04,0x08,0x6f,0x3a,0x0c,0x52,0x50,0x47,0x3a,0x3a,0x53,0x45,0x08,0x3a,0x0a,0x40,0x6e,0x61,0x6d,0x65,0x49,0x22,0x0a,0x43,0x68,0x65,0x73,0x74,0x06,0x3a,0x06,0x45,0x54,0x3a,0x0b,0x40,0x70,0x69,0x74,0x63,0x68,0x69,0x69,0x3a,0x0c,0x40,0x76,0x6f,0x6c,0x75,0x6d,0x65,0x69,0x55))
  205(0,bytes(0x04,0x08,0x6f,0x3a,0x13,0x52,0x50,0x47,0x3a,0x3a,0x4d,0x6f,0x76,0x65,0x52,0x6f,0x75,0x74,0x65,0x09,0x3a,0x0c,0x40,0x72,0x65,0x70,0x65,0x61,0x74,0x46,0x3a,0x0f,0x40,0x73,0x6b,0x69,0x70,0x70,0x61,0x62,0x6c,0x65,0x46,0x3a,0x0a,0x40,0x77,0x61,0x69,0x74,0x54,0x3a,0x0a,0x40,0x6c,0x69,0x73,0x74,0x5b,0x0b,0x6f,0x3a,0x15,0x52,0x50,0x47,0x3a,0x3a,0x4d,0x6f,0x76,0x65,0x43,0x6f,0x6d,0x6d,0x61,0x6e,0x64,0x07,0x3a,0x0a,0x40,0x63,0x6f,0x64,0x65,0x69,0x29,0x3a,0x10,0x40,0x70,0x61,0x72,0x61,0x6d,0x65,0x74,0x65,0x72,0x73,0x5b,0x00,0x6f,0x3b,0x0a,0x07,0x3b,0x0b,0x69,0x16,0x3b,0x0c,0x5b,0x00,0x6f,0x3b,0x0a,0x07,0x3b,0x0b,0x69,0x14,0x3b,0x0c,0x5b,0x06,0x69,0x08,0x6f,0x3b,0x0a,0x07,0x3b,0x0b,0x69,0x17,0x3b,0x0c,0x5b,0x00,0x6f,0x3b,0x0a,0x07,0x3b,0x0b,0x69,0x14,0x3b,0x0c,0x5b,0x06,0x69,0x08,0x6f,0x3b,0x0a,0x07,0x3b,0x0b,0x69,0x00,0x3b,0x0c,0x5b,0x00))
  ChangeSelfSwitch("A",0)
  ChangeInventory_Item(25,0,0,1)
  0()
 PAGE   2
  // condition: self-switch A is ON
  0()



EVENT   9
 PAGE   1
  250(bytes(0x04,0x08,0x6f,0x3a,0x0c,0x52,0x50,0x47,0x3a,0x3a,0x53,0x45,0x08,0x3a,0x0a,0x40,0x6e,0x61,0x6d,0x65,0x49,0x22,0x0a,0x43,0x68,0x65,0x73,0x74,0x06,0x3a,0x06,0x45,0x54,0x3a,0x0b,0x40,0x70,0x69,0x74,0x63,0x68,0x69,0x69,0x3a,0x0c,0x40,0x76,0x6f,0x6c,0x75,0x6d,0x65,0x69,0x55))
  205(0,bytes(0x04,0x08,0x6f,0x3a,0x13,0x52,0x50,0x47,0x3a,0x3a,0x4d,0x6f,0x76,0x65,0x52,0x6f,0x75,0x74,0x65,0x09,0x3a,0x0c,0x40,0x72,0x65,0x70,0x65,0x61,0x74,0x46,0x3a,0x0f,0x40,0x73,0x6b,0x69,0x70,0x70,0x61,0x62,0x6c,0x65,0x46,0x3a,0x0a,0x40,0x77,0x61,0x69,0x74,0x54,0x3a,0x0a,0x40,0x6c,0x69,0x73,0x74,0x5b,0x0b,0x6f,0x3a,0x15,0x52,0x50,0x47,0x3a,0x3a,0x4d,0x6f,0x76,0x65,0x43,0x6f,0x6d,0x6d,0x61,0x6e,0x64,0x07,0x3a,0x0a,0x40,0x63,0x6f,0x64,0x65,0x69,0x29,0x3a,0x10,0x40,0x70,0x61,0x72,0x61,0x6d,0x65,0x74,0x65,0x72,0x73,0x5b,0x00,0x6f,0x3b,0x0a,0x07,0x3b,0x0b,0x69,0x16,0x3b,0x0c,0x5b,0x00,0x6f,0x3b,0x0a,0x07,0x3b,0x0b,0x69,0x14,0x3b,0x0c,0x5b,0x06,0x69,0x08,0x6f,0x3b,0x0a,0x07,0x3b,0x0b,0x69,0x17,0x3b,0x0c,0x5b,0x00,0x6f,0x3b,0x0a,0x07,0x3b,0x0b,0x69,0x14,0x3b,0x0c,0x5b,0x06,0x69,0x08,0x6f,0x3b,0x0a,0x07,0x3b,0x0b,0x69,0x00,0x3b,0x0c,0x5b,0x00))
  ChangeSelfSwitch("A",0)
  ChangeInventory_Item(32,0,0,1)
  0()
 PAGE   2
  // condition: self-switch A is ON
  0()



EVENT   10
 PAGE   1
  250(bytes(0x04,0x08,0x6f,0x3a,0x0c,0x52,0x50,0x47,0x3a,0x3a,0x53,0x45,0x08,0x3a,0x0a,0x40,0x6e,0x61,0x6d,0x65,0x49,0x22,0x0a,0x43,0x68,0x65,0x73,0x74,0x06,0x3a,0x06,0x45,0x54,0x3a,0x0b,0x40,0x70,0x69,0x74,0x63,0x68,0x69,0x69,0x3a,0x0c,0x40,0x76,0x6f,0x6c,0x75,0x6d,0x65,0x69,0x55))
  205(0,bytes(0x04,0x08,0x6f,0x3a,0x13,0x52,0x50,0x47,0x3a,0x3a,0x4d,0x6f,0x76,0x65,0x52,0x6f,0x75,0x74,0x65,0x09,0x3a,0x0c,0x40,0x72,0x65,0x70,0x65,0x61,0x74,0x46,0x3a,0x0f,0x40,0x73,0x6b,0x69,0x70,0x70,0x61,0x62,0x6c,0x65,0x46,0x3a,0x0a,0x40,0x77,0x61,0x69,0x74,0x54,0x3a,0x0a,0x40,0x6c,0x69,0x73,0x74,0x5b,0x0b,0x6f,0x3a,0x15,0x52,0x50,0x47,0x3a,0x3a,0x4d,0x6f,0x76,0x65,0x43,0x6f,0x6d,0x6d,0x61,0x6e,0x64,0x07,0x3a,0x0a,0x40,0x63,0x6f,0x64,0x65,0x69,0x29,0x3a,0x10,0x40,0x70,0x61,0x72,0x61,0x6d,0x65,0x74,0x65,0x72,0x73,0x5b,0x00,0x6f,0x3b,0x0a,0x07,0x3b,0x0b,0x69,0x16,0x3b,0x0c,0x5b,0x00,0x6f,0x3b,0x0a,0x07,0x3b,0x0b,0x69,0x14,0x3b,0x0c,0x5b,0x06,0x69,0x08,0x6f,0x3b,0x0a,0x07,0x3b,0x0b,0x69,0x17,0x3b,0x0c,0x5b,0x00,0x6f,0x3b,0x0a,0x07,0x3b,0x0b,0x69,0x14,0x3b,0x0c,0x5b,0x06,0x69,0x08,0x6f,0x3b,0x0a,0x07,0x3b,0x0b,0x69,0x00,0x3b,0x0c,0x5b,0x00))
  ChangeSelfSwitch("A",0)
  125(0,0,8800)
  ShowMessageFace("",0,0,2,1)
  ShowMessage("8800\\G acquired!")
  0()
 PAGE   2
  // condition: self-switch A is ON
  0()



EVENT   11
 PAGE   1
  ChangeSelfSwitch("A",0)
  If(0,6,0)
   ShowMessageFace("sonia_fc1",1,0,2,1)
   ShowMessage("\\n<Sonya>わぁっ、綺麗な山よね……♪")
   0()
  Else()
   ShowMessageFace("ruka_fc1",0,0,2,2)
   ShowMessage("\\n<Luka>綺麗な風景だね……")
   0()
  EndIf()
  If(0,4,0)
   ShowMessageFace("alice_fc5",0,0,2,3)
   ShowMessage("\\n<Alice>悪くはないが、風景を楽しんでいる暇があるのか……？")
   ShowMessage("今はなすべき事を優先するぞ。")
   0()
  EndIf()
  If(0,5,0)
   ShowMessageFace("iriasu_fc4",2,0,2,4)
   ShowMessage("\\n<Ilias>景色を楽しんでいる場合ではありませんよ……")
   ShowMessage("さあ、なすべき使命を果たすのです。")
   0()
  EndIf()
  0()
 PAGE   2
  // condition: self-switch A is ON
  0()
 PAGE   3
  // condition: variable 1066 >= 3
  ChangeSelfSwitch("B",0)
  If(0,4,0)
   ShowMessageFace("alice_fc5",0,0,2,1)
   ShowMessage("\\n<Alice>この山に、キャンディがいる事は間違いないようだ")
   ShowMessage("頂上付近に、嫌な妖気が漂っているからな……")
   0()
  EndIf()
  If(0,5,0)
   ShowMessageFace("iriasu_fc4",2,0,2,2)
   ShowMessage("\\n<Ilias>キャンディは、おおかた山の頂上にいるのでしょう。")
   ShowMessage("この手の展開で、ボスが麓をうろついている事など皆無ですから。")
   0()
  EndIf()
  ShowMessageFace("ruka_fc1",0,0,2,3)
  ShowMessage("\\n<Luka>貴婦人の村にいた妖魔も、周囲をうろついてるみたいだね……")
  ShowMessage("気合いを入れて、頂上を目指そう！")
  If(4,79,0)
   ShowMessageFace("nuruko_fc1",0,0,2,4)
   ShowMessage("\\n<Nuruko>きゅきゅきゅー！")
   0()
  EndIf()
  0()
 PAGE   4
  // condition: self-switch B is ON
  0()



EVENT   12
 PAGE   1
  // condition: variable 1066 >= 3
  If(1,1066,0,3,0)
   241(bytes(0x04,0x08,0x6f,0x3a,0x0d,0x52,0x50,0x47,0x3a,0x3a,0x42,0x47,0x4d,0x08,0x3a,0x0a,0x40,0x6e,0x61,0x6d,0x65,0x49,0x22,0x0a,0x62,0x6f,0x73,0x73,0x30,0x06,0x3a,0x06,0x45,0x54,0x3a,0x0c,0x40,0x76,0x6f,0x6c,0x75,0x6d,0x65,0x69,0x69,0x3a,0x0b,0x40,0x70,0x69,0x74,0x63,0x68,0x69,0x69))
   PictureDisplay(5,"80_candy_st01",0,0,0,0,100,100,0,0)
   PictureMove(5,null,0,0,0,0,100,100,255,0,60,true)
   ShowMessageFace("candy_fc1",0,0,2,1)
   ShowMessage("\\n<キャンディ>あれれ……？")
   ShowMessage("あなた達は、誰ですか……？")
   If(0,4,0)
    ShowMessageFace("alice_fc5",2,0,2,2)
    ShowMessage("\\n<Alice>カサンドラとエミリの力、お菓子に封じ込めたという話だな……")
    ShowMessage("奴等の力、返してもらうぞ！")
    0()
   EndIf()
   If(0,5,0)
    ShowMessageFace("iriasu_fc4",7,0,2,3)
    ShowMessage("\\n<Ilias>カサンドラとエミリの力、お菓子に封じ込めましたね？")
    ShowMessage("その力、返してもらいましょう。")
    0()
   EndIf()
   If(4,289,0)
    ShowMessageFace("maidscyulla_fc1",1,0,2,4)
    ShowMessage("\\n<ラン>観念するのですね……")
    ShowMessage("主への狼藉、この私が報いましょう！")
    0()
   EndIf()
   ShowMessageFace("candy_fc1",0,0,2,5)
   ShowMessage("\\n<キャンディ>私のお菓子、奪いにきたんですか？")
   ShowMessage("そんなの、絶対にダメですから～！")
   PictureDisplay(5,"80_candy_st02",0,0,0,0,100,100,255,0)
   ShowMessageFace("candy_fc1",1,0,2,6)
   ShowMessage("\\n<キャンディ>二人の力を、食べちゃってから……")
   ShowMessage("人間の町に下りて、いっぱい食べちゃうんです……♪")
   ShowMessageFace("ruka_fc1",0,0,2,7)
   ShowMessage("\\n<Luka>そんな事、させはしない！")
   ShowMessage("戦ってでもお前を止める！")
   ShowMessageFace("candy_fc1",1,0,2,8)
   ShowMessage("\\n<キャンディ>あなたも、とってもおいしそう……")
   ShowMessage("えへへっ、いただきま～す♪")
   If(4,293,0)
    ShowMessageFace("candy_fc1",1,0,2,9)
    ShowMessage("\\n<キャンディ’>えへへ、おいしそう……")
    ShowMessageFace("candy_fc1",1,0,2,10)
    ShowMessage("\\n<キャンディ>そっちも、おいしそう……えへえへ、えへっ……")
    ShowMessageFace("candy_fc1",1,0,2,11)
    ShowMessage("\\n<キャンディ’>えへへっ、たべちゃえ……")
    ShowMessageFace("candy_fc1",1,0,2,12)
    ShowMessage("\\n<キャンディ>たべちゃえ……えへへ、えへへっ……")
    0()
   EndIf()
   If(4,129,0)
    ShowMessageFace("brunhild_fc1",0,0,2,13)
    ShowMessage("\\n<Hild>攻撃対象、おおきなケーキ……")
    ShowMessage("……ヒルデ、おなかがすいたな……")
    0()
   EndIf()
   If(4,79,0)
    ShowMessageFace("nuruko_fc1",0,0,2,14)
    ShowMessage("\\n<Nuruko>きゅきゅきゅ～！")
    0()
   EndIf()
   PictureClear(5)
   SetBattleBGM(bytes(0x04,0x08,0x6f,0x3a,0x0d,0x52,0x50,0x47,0x3a,0x3a,0x42,0x47,0x4d,0x08,0x3a,0x0a,0x40,0x6e,0x61,0x6d,0x65,0x49,0x22,0x0a,0x62,0x6f,0x73,0x73,0x31,0x06,0x3a,0x06,0x45,0x54,0x3a,0x0c,0x40,0x76,0x6f,0x6c,0x75,0x6d,0x65,0x69,0x69,0x3a,0x0b,0x40,0x70,0x69,0x74,0x63,0x68,0x69,0x69))
   ChangeSwitch(22,22,0)
   Battle(0,748,false,false)
   ChangeSwitch(22,22,1)
   SetBattleBGM(bytes(0x04,0x08,0x6f,0x3a,0x0d,0x52,0x50,0x47,0x3a,0x3a,0x42,0x47,0x4d,0x08,0x3a,0x0a,0x40,0x6e,0x61,0x6d,0x65,0x49,0x22,0x0b,0x62,0x61,0x74,0x74,0x6c,0x65,0x06,0x3a,0x06,0x45,0x54,0x3a,0x0c,0x40,0x76,0x6f,0x6c,0x75,0x6d,0x65,0x69,0x69,0x3a,0x0b,0x40,0x70,0x69,0x74,0x63,0x68,0x69,0x69))
   241(bytes(0x04,0x08,0x6f,0x3a,0x0d,0x52,0x50,0x47,0x3a,0x3a,0x42,0x47,0x4d,0x08,0x3a,0x0a,0x40,0x6e,0x61,0x6d,0x65,0x49,0x22,0x13,0x73,0x63,0x65,0x6e,0x65,0x5f,0x6f,0x64,0x61,0x79,0x61,0x6b,0x61,0x31,0x06,0x3a,0x06,0x45,0x54,0x3a,0x0c,0x40,0x76,0x6f,0x6c,0x75,0x6d,0x65,0x69,0x69,0x3a,0x0b,0x40,0x70,0x69,0x74,0x63,0x68,0x69,0x69))
   PictureDisplay(5,"80_candy_st03",0,0,0,0,100,100,0,0)
   PictureMove(5,null,0,0,0,0,100,100,255,0,30,true)
   If(4,289,0)
    ShowMessageFace("maidscyulla_fc1",1,0,2,15)
    ShowMessage("\\n<ラン>やりました、カサンドラ様……")
    0()
   EndIf()
   ShowMessageFace("candy_fc1",2,0,2,16)
   ShowMessage("\\n<キャンディ>ふわぁ……負けちゃいました……")
   ShowMessageFace("ruka_fc1",0,0,2,17)
   ShowMessage("\\n<Luka>もう、悪い事はさせないぞ！")
   ShowMessage("カサンドラとエミリの力も、返してもらう！")
   ShowMessageFace("candy_fc1",2,0,2,18)
   ShowMessage("\\n<キャンディ>分かりました……")
   ShowMessage("お腹が減るので、もう悪い事はしません……")
   If(0,6,0)
    ShowMessageFace("sonia_fc4",0,0,2,19)
    ShowMessage("\\n<Sonya>なんだか、変な妖魔……ペースが狂うなぁ。")
    0()
   EndIf()
   If(0,4,0)
    ShowMessageFace("alice_fc5",2,0,2,20)
    ShowMessage("\\n<Alice>カサンドラ達の力を封じたお菓子は、これだな……")
    ShowMessage("よし、返してもらうぞ。")
    0()
   EndIf()
   If(0,5,0)
    ShowMessageFace("iriasu_fc4",0,0,2,21)
    ShowMessage("\\n<Ilias>カサンドラ達の力を封じたお菓子は、これですね……")
    ShowMessage("確かに、返してもらいますよ。")
    0()
   EndIf()
   250(bytes(0x04,0x08,0x6f,0x3a,0x0c,0x52,0x50,0x47,0x3a,0x3a,0x53,0x45,0x08,0x3a,0x0a,0x40,0x6e,0x61,0x6d,0x65,0x49,0x22,0x0a,0x49,0x74,0x65,0x6d,0x31,0x06,0x3a,0x06,0x45,0x54,0x3a,0x0b,0x40,0x70,0x69,0x74,0x63,0x68,0x69,0x69,0x3a,0x0c,0x40,0x76,0x6f,0x6c,0x75,0x6d,0x65,0x69,0x55))
   ChangeInventory_Item(536,0,0,1)
   If(4,289,0)
    ShowMessageFace("maidscyulla_fc1",1,0,2,22)
    ShowMessage("\\n<ラン>確かに、返して頂きました。")
    0()
   EndIf()
   If(0,4,0)
    ShowMessageFace("alice_fc5",7,0,2,23)
    ShowMessage("\\n<Alice>お菓子………")
    0()
   EndIf()
   If(0,5,0)
    ShowMessageFace("iriasu_fc4",1,0,2,24)
    ShowMessage("\\n<Ilias>お菓子……")
    0()
   EndIf()
   If(0,6,0)
    ShowMessageFace("sonia_fc1",5,0,2,25)
    ShowMessage("\\n<Sonya>……食べちゃダメよ。")
    0()
   Else()
    ShowMessageFace("ruka_fc1",0,0,2,26)
    ShowMessage("\\n<Luka>……食べちゃダメだよ。")
    0()
   EndIf()
   If(0,4,0)
    ShowMessageFace("alice_fc5",3,0,2,27)
    ShowMessage("\\n<Alice>……わ、分かっている。")
    ShowMessage("しかし、カサンドラの分がだいぶ食われてしまっているな……")
    0()
   EndIf()
   If(0,5,0)
    ShowMessageFace("iriasu_fc4",2,0,2,28)
    ShowMessage("\\n<Ilias>……わ、分かっていますよ！")
    ShowMessage("しかし、カサンドラの分がかなり食べられてしまっていますね。")
    0()
   EndIf()
   PictureDisplay(5,"80_candy_st02",0,0,0,0,100,100,255,0)
   ShowMessageFace("candy_fc1",1,0,2,29)
   ShowMessage("\\n<キャンディ>半分以上、たべちゃいました……えへへっ。")
   If(0,4,0)
    ShowMessageFace("alice_fc5",0,0,2,30)
    ShowMessage("\\n<Alice>これでは、カサンドラの力は完全に戻らんかもしれんな……")
    ShowMessage("まあ、余はいっさい構わんが。")
    0()
   EndIf()
   If(0,5,0)
    ShowMessageFace("iriasu_fc4",1,0,2,31)
    ShowMessage("\\n<Ilias>これでは、カサンドラの力は中途半端にしか戻りませんね。")
    ShowMessage("いい気味です、ふふっ……")
    0()
   EndIf()
   If(4,226,0)
    ShowMessageFace("sirohebisama_fc1",0,0,2,32)
    ShowMessage("\\n<Shirohebi>約束は守ったのだ……")
    ShowMessage("我等の知った事ではないな。")
    0()
   EndIf()
   ShowMessageFace("ruka_fc1",0,0,2,33)
   ShowMessage("\\n<Luka>それじゃあ、貴婦人の村に戻ろうか。")
   ShowMessage("あの二人に、このお菓子を届けてあげよう。")
   ShowMessageFace("candy_fc1",1,0,2,34)
   ShowMessage("\\n<キャンディ>えへへ……えへへへへ……")
   If(0,6,0)
    ShowMessageFace("sonia_fc2",2,0,2,35)
    ShowMessage("\\n<Sonya>キャンディは、ここに放置していっていいの？")
    ShowMessage("もう悪い事はしないみたいだけど……")
    0()
   Else()
    ShowMessageFace("ruka_fc1",0,0,2,36)
    ShowMessage("\\n<Luka>キャンディは、ここに放置していっていいのかな……？")
    0()
   EndIf()
   If(12,"exist_party_persona_id?(241)")
    ShowMessageFace("a_emp_fc1",0,0,2,37)
    ShowMessage("\\n<Priestess>どうにかしないと、また問題を起こすのでは……？")
    0()
   EndIf()
   PictureClear(5)
   ChangeVariable(1066,1066,0,0,4)
   241(bytes(0x04,0x08,0x6f,0x3a,0x0d,0x52,0x50,0x47,0x3a,0x3a,0x42,0x47,0x4d,0x08,0x3a,0x0a,0x40,0x6e,0x61,0x6d,0x65,0x49,0x22,0x10,0x64,0x75,0x6e,0x67,0x65,0x6f,0x6e,0x5f,0x6f,0x6b,0x61,0x06,0x3a,0x06,0x45,0x54,0x3a,0x0c,0x40,0x76,0x6f,0x6c,0x75,0x6d,0x65,0x69,0x69,0x3a,0x0b,0x40,0x70,0x69,0x74,0x63,0x68,0x69,0x69))
   EndEventProcessing()
   0()
  EndIf()
  If(1,1066,0,4,1)
   PictureDisplay(5,"80_candy_st02",0,0,0,0,100,100,0,0)
   PictureMove(5,null,0,0,0,0,100,100,255,0,30,true)
   If(2,"D",0)
    JumpToLabel("４")
    0()
   EndIf()
   If(2,"C",0)
    JumpToLabel("３")
    0()
   EndIf()
   If(2,"B",0)
    JumpToLabel("２")
    0()
   EndIf()
   If(2,"A",0)
    JumpToLabel("１")
    0()
   EndIf()
   ShowMessageFace("candy_fc1",1,0,2,38)
   ShowMessage("\\n<キャンディ>えへへ……えへへへへ……")
   ShowMessageFace("candy_fc1",1,0,2,39)
   ShowMessage("\\n<キャンディ>えへへへへへへへへへへへへへへへ……")
   If(0,6,0)
    ShowMessageFace("sonia_fc3",2,0,2,40)
    ShowMessage("\\n<Sonya>なんかキマってるみたいだけど大丈夫！？")
    ShowMessage("変なお菓子でも食べたんじゃない……？")
    0()
   Else()
    ShowMessageFace("ruka_fc1",0,0,2,41)
    ShowMessage("\\n<Luka>だ、大丈夫……！？")
    0()
   EndIf()
   ShowMessageFace("candy_fc1",1,0,2,42)
   ShowMessage("\\n<キャンディ>失礼……おなかがへりすぎて、幻覚が見えていました……")
   ShowMessageFace("candy_fc1",1,0,2,43)
   ShowMessage("\\n<キャンディ>私の欲しいお菓子、持ってきてくれませんか……？")
   ShowChoices(strings("お菓子を持ってくる","お断りだ"),2)
   IfPlayerPicksChoice(0,null)
    ShowMessageFace("candy_fc1",1,0,2,44)
    ShowMessage("\\n<キャンディ>まずは、チョコレートが食べたいです……")
    If(2,"A",1)
     ChangeSelfSwitch("A",0)
     PictureClear(5)
     EndEventProcessing()
     0()
    EndIf()
    DefineLabel("１")
    If(8,414)
     ShowMessageFace("",0,0,2,45)
     ShowMessage("ルカは、キャンディにチョコレートをあげた！")
     ShowMessageFace("candy_fc1",1,0,2,46)
     ShowMessage("\\n<キャンディ>わぁ、チョコレートだぁ……")
     ShowMessage("むしゃむしゃむしゃ……")
     ChangeInventory_Item(414,1,0,1)
     ShowMessageFace("candy_fc1",1,0,2,47)
     ShowMessage("\\n<キャンディ>次は、ケーキが食べたいです……")
     If(2,"B",1)
      ChangeSelfSwitch("B",0)
      PictureClear(5)
      EndEventProcessing()
      0()
     EndIf()
     DefineLabel("２")
     If(8,417)
      ShowMessageFace("",0,0,2,48)
      ShowMessage("ルカは、キャンディにケーキをあげた！")
      ShowMessageFace("candy_fc1",1,0,2,49)
      ShowMessage("\\n<キャンディ>わぁ、ケーキだぁ……")
      ShowMessage("むしゃむしゃむしゃ……")
      ChangeInventory_Item(417,1,0,1)
      ShowMessageFace("candy_fc1",1,0,2,50)
      ShowMessage("\\n<キャンディ>次は、プリンが食べたいです……")
      If(2,"C",1)
       ChangeSelfSwitch("C",0)
       PictureClear(5)
       EndEventProcessing()
       0()
      EndIf()
      DefineLabel("３")
      If(8,423)
       ShowMessageFace("",0,0,2,51)
       ShowMessage("ルカは、キャンディにプリンをあげた！")
       ShowMessageFace("candy_fc1",1,0,2,52)
       ShowMessage("\\n<キャンディ>わぁ、プリンだぁ……")
       ShowMessage("むしゃむしゃむしゃ……")
       ChangeInventory_Item(423,1,0,1)
       ShowMessageFace("candy_fc1",1,0,2,53)
       ShowMessage("\\n<キャンディ>最後に、パフェが食べたいです……")
       If(2,"D",1)
        ChangeSelfSwitch("D",0)
        PictureClear(5)
        EndEventProcessing()
        0()
       EndIf()
       DefineLabel("４")
       If(8,425)
        ShowMessageFace("",0,0,2,54)
        ShowMessage("ルカは、キャンディにパフェをあげた！")
        ShowMessageFace("candy_fc1",1,0,2,55)
        ShowMessage("\\n<キャンディ>わぁ、パフェだぁ……")
        ShowMessage("むしゃむしゃむしゃ……")
        ChangeInventory_Item(425,1,0,1)
        PictureDisplay(5,"80_candy_st04",0,0,0,0,100,100,255,0)
        ShowMessageFace("candy_fc1",3,0,2,56)
        ShowMessage("\\n<キャンディ>おなかがいっぱいになりました……")
        If(0,4,0)
         ShowMessageFace("alice_fc5",0,0,2,57)
         ShowMessage("\\n<Alice>そうか、よかったな。")
         ShowMessage("もう悪い事はするなよ。")
         0()
        EndIf()
        If(0,5,0)
         ShowMessageFace("iriasu_fc4",2,0,2,58)
         ShowMessage("\\n<Ilias>そうですか、よかったですね。")
         0()
        EndIf()
        ShowMessageFace("candy_fc1",3,0,2,59)
        ShowMessage("\\n<キャンディ>……………………")
        PictureDisplay(5,"80_candy_st02",0,0,0,0,100,100,255,0)
        ShowMessageFace("candy_fc1",1,0,2,60)
        ShowMessage("\\n<キャンディ>おなかがへりました……")
        If(0,6,0)
         ShowMessageFace("sonia_fc3",2,0,2,61)
         ShowMessage("\\n<Sonya>はやっ！")
         0()
        Else()
         ShowMessageFace("ruka_fc1",0,0,2,62)
         ShowMessage("\\n<Luka>はやっ！")
         0()
        EndIf()
        If(0,4,0)
         ShowMessageFace("alice_fc5",2,0,2,63)
         ShowMessage("\\n<Alice>やれやれ、厄介な奴だな……")
         ShowMessage("空腹だと人を襲いかねんし、我々で管理した方が良いのではないか？")
         0()
        EndIf()
        If(0,5,0)
         ShowMessageFace("iriasu_fc4",2,0,2,64)
         ShowMessage("\\n<Ilias>まったく、厄介な妖魔ですね……")
         ShowMessage("空腹だと人を襲いかねません、我々の側に置いて管理しませんか？")
         0()
        EndIf()
        ShowMessageFace("ruka_fc1",0,0,2,65)
        ShowMessage("\\n<Luka>それが、一番良いだろうね……")
        ShowMessageFace("candy_fc1",1,0,2,66)
        ShowMessage("\\n<キャンディ>食べ物をくれるんですか？")
        ShowMessage("それなら、どこまでもついていきますよ……")
        PictureClear(5)
        355("add_actor_ex(293)")
        249(bytes(0x04,0x08,0x6f,0x3a,0x0c,0x52,0x50,0x47,0x3a,0x3a,0x4d,0x45,0x08,0x3a,0x0a,0x40,0x6e,0x61,0x6d,0x65,0x49,0x22,0x0c,0x66,0x61,0x6e,0x66,0x61,0x6c,0x65,0x06,0x3a,0x06,0x45,0x54,0x3a,0x0b,0x40,0x70,0x69,0x74,0x63,0x68,0x69,0x69,0x3a,0x0c,0x40,0x76,0x6f,0x6c,0x75,0x6d,0x65,0x69,0x69))
        ShowMessageFace("",0,0,2,67)
        ShowMessage("キャンディが仲間に加わった！")
        ChangeSwitch(2200,2200,0)
        Wait(60)
        If(0,4,0)
         ShowMessageFace("alice_fc5",3,0,2,68)
         ShowMessage("\\n<Alice>やれやれ、また食費がかさみそうな奴が加わったな……")
         0()
        EndIf()
        If(0,5,0)
         ShowMessageFace("iriasu_fc4",2,0,2,69)
         ShowMessage("\\n<Ilias>まったく、意地汚い者が加わりましたね……")
         0()
        EndIf()
        If(0,6,0)
         ShowMessageFace("sonia_fc4",0,0,2,70)
         ShowMessage("\\n<Sonya>（自分を棚に上げて……）")
         If(0,4,0)
          ShowMessageFace("alice_fc6",1,0,2,71)
          ShowMessage("\\n<Alice>おのれ、聞こえたぞ！")
          0()
         EndIf()
         If(0,5,0)
          ShowMessageFace("iriasu_fc5",0,0,2,72)
          ShowMessage("\\n<Ilias>聞こえましたよ、ソニア！")
          0()
         EndIf()
         ShowMessageFace("sonia_fc3",2,0,2,73)
         ShowMessage("\\n<Sonya>なんで！？")
         0()
        EndIf()
        EndEventProcessing()
        0()
       Else()
        ShowMessageFace("candy_fc1",1,0,2,74)
        ShowMessage("\\n<キャンディ>最後に、パフェが食べたいです……")
        PictureClear(5)
        EndEventProcessing()
        0()
       EndIf()
       0()
      Else()
       ShowMessageFace("candy_fc1",1,0,2,75)
       ShowMessage("\\n<キャンディ>次は、プリンが食べたいです……")
       PictureClear(5)
       EndEventProcessing()
       0()
      EndIf()
      0()
     Else()
      ShowMessageFace("candy_fc1",1,0,2,76)
      ShowMessage("\\n<キャンディ>次は、ケーキが食べたいです……")
      PictureClear(5)
      EndEventProcessing()
      0()
     EndIf()
     0()
    Else()
     ShowMessageFace("candy_fc1",1,0,2,77)
     ShowMessage("\\n<キャンディ>まずは、チョコレートが食べたいです……")
     PictureClear(5)
     EndEventProcessing()
     0()
    EndIf()
    0()
   IfPlayerPicksChoice(1,null)
    ShowMessageFace("candy_fc1",1,0,2,78)
    ShowMessage("\\n<キャンディ>お菓子がないなら、人間を食べればいいじゃない……")
    If(0,6,0)
     ShowMessageFace("sonia_fc2",2,0,2,79)
     ShowMessage("\\n<Sonya>これ、放っておくとまずいんじゃない……？")
     0()
    Else()
     ShowMessageFace("ruka_fc1",0,0,2,80)
     ShowMessage("\\n<Luka>放っておくとまずそうだな……")
     0()
    EndIf()
    PictureClear(5)
    EndEventProcessing()
    0()
   404()
   0()
  EndIf()
  0()
 PAGE   2
  // condition: switch 2200 is ON
  0()



EVENT   13
 PAGE   1
  250(bytes(0x04,0x08,0x6f,0x3a,0x0c,0x52,0x50,0x47,0x3a,0x3a,0x53,0x45,0x08,0x3a,0x0a,0x40,0x6e,0x61,0x6d,0x65,0x49,0x22,0x0a,0x48,0x65,0x61,0x6c,0x37,0x06,0x3a,0x06,0x45,0x54,0x3a,0x0b,0x40,0x70,0x69,0x74,0x63,0x68,0x69,0x69,0x3a,0x0c,0x40,0x76,0x6f,0x6c,0x75,0x6d,0x65,0x69,0x55))
  224(bytes(0x04,0x08,0x75,0x3a,0x0a,0x43,0x6f,0x6c,0x6f,0x72,0x25,0x00,0x00,0x00,0x00,0x00,0xe0,0x6f,0x40,0x00,0x00,0x00,0x00,0x00,0xe0,0x6f,0x40,0x00,0x00,0x00,0x00,0x00,0xe0,0x6f,0x40,0x00,0x00,0x00,0x00,0x00,0xe0,0x6f,0x40),30,true)
  314(0,0)
  ShowMessageFace("",0,0,2,1)
  ShowMessage("The party's HP and MP have been fully restored!")
  0()
