
DisplayName "グランゴルド"



EVENT   1
 PAGE   1
  0()



EVENT   2
 PAGE   1
  0()



EVENT   3
 PAGE   1
  0()



EVENT   4
 PAGE   1
  0()



EVENT   5
 PAGE   1
  0()



EVENT   6
 PAGE   1
  ShowMessageFace("",0,0,2,1)
  ShowMessage("扉は固く閉ざされている……")
  0()



EVENT   7
 PAGE   1
  0()



EVENT   8
 PAGE   1
  0()



EVENT   9
 PAGE   1
  ShowMessageFace("",0,0,2,1)
  ShowMessage("扉は固く閉ざされている……")
  0()



EVENT   10
 PAGE   1
  ShowMessageFace("",0,0,2,1)
  ShowMessage("扉は固く閉ざされている……")
  0()



EVENT   11
 PAGE   1
  ShowMessageFace("",0,0,2,1)
  ShowMessage("扉は固く閉ざされている……")
  0()



EVENT   12
 PAGE   1
  ShowMessageFace("",0,0,2,1)
  ShowMessage("扉は固く閉ざされている……")
  0()



EVENT   13
 PAGE   1
  ShowMessageFace("",0,0,2,1)
  ShowMessage("扉は固く閉ざされている……")
  0()



EVENT   14
 PAGE   1
  ShowMessageFace("",0,0,2,1)
  ShowMessage("扉は固く閉ざされている……")
  0()



EVENT   15
 PAGE   1
  ShowMessageFace("",0,0,2,1)
  ShowMessage("扉は固く閉ざされている……")
  0()



EVENT   16
 PAGE   1
  ShowMessageFace("",0,0,2,1)
  ShowMessage("扉は固く閉ざされている……")
  0()



EVENT   17
 PAGE   1
  ShowMessageFace("",0,0,2,1)
  ShowMessage("扉は固く閉ざされている……")
  0()



EVENT   18
 PAGE   1
  ShowMessageFace("",0,0,2,1)
  ShowMessage("扉は固く閉ざされている……")
  0()



EVENT   19
 PAGE   1
  250(bytes(0x04,0x08,0x6f,0x3a,0x0c,0x52,0x50,0x47,0x3a,0x3a,0x53,0x45,0x08,0x3a,0x0a,0x40,0x6e,0x61,0x6d,0x65,0x49,0x22,0x09,0x4d,0x6f,0x76,0x65,0x06,0x3a,0x06,0x45,0x54,0x3a,0x0b,0x40,0x70,0x69,0x74,0x63,0x68,0x69,0x69,0x3a,0x0c,0x40,0x76,0x6f,0x6c,0x75,0x6d,0x65,0x69,0x55))
  TeleportPlayer(0,2,234,153,2,0)
  0()



EVENT   20
 PAGE   1
  250(bytes(0x04,0x08,0x6f,0x3a,0x0c,0x52,0x50,0x47,0x3a,0x3a,0x53,0x45,0x08,0x3a,0x0a,0x40,0x6e,0x61,0x6d,0x65,0x49,0x22,0x09,0x4d,0x6f,0x76,0x65,0x06,0x3a,0x06,0x45,0x54,0x3a,0x0b,0x40,0x70,0x69,0x74,0x63,0x68,0x69,0x69,0x3a,0x0c,0x40,0x76,0x6f,0x6c,0x75,0x6d,0x65,0x69,0x55))
  TeleportPlayer(0,2,234,153,2,0)
  0()



EVENT   21
 PAGE   1
  250(bytes(0x04,0x08,0x6f,0x3a,0x0c,0x52,0x50,0x47,0x3a,0x3a,0x53,0x45,0x08,0x3a,0x0a,0x40,0x6e,0x61,0x6d,0x65,0x49,0x22,0x09,0x4d,0x6f,0x76,0x65,0x06,0x3a,0x06,0x45,0x54,0x3a,0x0b,0x40,0x70,0x69,0x74,0x63,0x68,0x69,0x69,0x3a,0x0c,0x40,0x76,0x6f,0x6c,0x75,0x6d,0x65,0x69,0x55))
  TeleportPlayer(0,2,234,153,2,0)
  0()



EVENT   22
 PAGE   1
  0()



EVENT   23
 PAGE   1
  ShowMessageFace("ant_fc1",0,0,2,1)
  ShowMessage("\\n<Ant Girl>ココカラ先ハ通サナイ！")
  0()



EVENT   24
 PAGE   1
  ShowMessageFace("ant_fc1",0,0,2,1)
  ShowMessage("\\n<Ant Girl>ココカラ先ハ通サナイ！")
  0()



EVENT   25
 PAGE   1
  ShowMessageFace("ant_fc1",0,0,2,1)
  ShowMessage("\\n<Ant Girl>ココカラ先ハ通サナイ！")
  0()



EVENT   26
 PAGE   1
  ShowMessageFace("taran_fc1",0,0,2,1)
  ShowMessage("\\n<タランチュラ娘>……………………")
  0()



EVENT   27
 PAGE   1
  ShowMessageFace("arachnes_fc2",0,0,2,1)
  ShowMessage("\\n<アラクネ>……")
  0()



EVENT   28
 PAGE   1
  ShowMessageFace("kumo_fc1",0,0,2,1)
  ShowMessage("\\n<クモ娘>……………………")
  0()



EVENT   29
 PAGE   1
  ShowMessageFace("arachnes_fc2",0,0,2,1)
  ShowMessage("\\n<アラクネ>……")
  0()



EVENT   30
 PAGE   1
  ShowMessageFace("taran_fc1",0,0,2,1)
  ShowMessage("\\n<タランチュラ娘>……………………")
  0()



EVENT   31
 PAGE   1
  ShowMessageFace("arachnes_fc2",0,0,2,1)
  ShowMessage("\\n<アラクネ>……")
  0()



EVENT   32
 PAGE   1
  ShowMessageFace("",0,0,2,1)
  ShowMessage("扉は固く閉ざされている……")
  0()



EVENT   34
 PAGE   1
  // condition: switch 33 is ON
  0()



EVENT   35
 PAGE   1
  250(bytes(0x04,0x08,0x6f,0x3a,0x0c,0x52,0x50,0x47,0x3a,0x3a,0x53,0x45,0x08,0x3a,0x0a,0x40,0x6e,0x61,0x6d,0x65,0x49,0x22,0x09,0x4d,0x6f,0x76,0x65,0x06,0x3a,0x06,0x45,0x54,0x3a,0x0b,0x40,0x70,0x69,0x74,0x63,0x68,0x69,0x69,0x3a,0x0c,0x40,0x76,0x6f,0x6c,0x75,0x6d,0x65,0x69,0x55))
  TeleportPlayer(0,2,234,153,2,0)
  0()



EVENT   36
 PAGE   1
  250(bytes(0x04,0x08,0x6f,0x3a,0x0c,0x52,0x50,0x47,0x3a,0x3a,0x53,0x45,0x08,0x3a,0x0a,0x40,0x6e,0x61,0x6d,0x65,0x49,0x22,0x09,0x4d,0x6f,0x76,0x65,0x06,0x3a,0x06,0x45,0x54,0x3a,0x0b,0x40,0x70,0x69,0x74,0x63,0x68,0x69,0x69,0x3a,0x0c,0x40,0x76,0x6f,0x6c,0x75,0x6d,0x65,0x69,0x55))
  TeleportPlayer(0,2,234,153,2,0)
  0()



EVENT   37
 PAGE   1
  250(bytes(0x04,0x08,0x6f,0x3a,0x0c,0x52,0x50,0x47,0x3a,0x3a,0x53,0x45,0x08,0x3a,0x0a,0x40,0x6e,0x61,0x6d,0x65,0x49,0x22,0x09,0x4d,0x6f,0x76,0x65,0x06,0x3a,0x06,0x45,0x54,0x3a,0x0b,0x40,0x70,0x69,0x74,0x63,0x68,0x69,0x69,0x3a,0x0c,0x40,0x76,0x6f,0x6c,0x75,0x6d,0x65,0x69,0x55))
  TeleportPlayer(0,2,234,153,2,0)
  0()



EVENT   38
 PAGE   1
  250(bytes(0x04,0x08,0x6f,0x3a,0x0c,0x52,0x50,0x47,0x3a,0x3a,0x53,0x45,0x08,0x3a,0x0a,0x40,0x6e,0x61,0x6d,0x65,0x49,0x22,0x09,0x4d,0x6f,0x76,0x65,0x06,0x3a,0x06,0x45,0x54,0x3a,0x0b,0x40,0x70,0x69,0x74,0x63,0x68,0x69,0x69,0x3a,0x0c,0x40,0x76,0x6f,0x6c,0x75,0x6d,0x65,0x69,0x55))
  TeleportPlayer(0,2,234,153,2,0)
  0()



EVENT   39
 PAGE   1
  250(bytes(0x04,0x08,0x6f,0x3a,0x0c,0x52,0x50,0x47,0x3a,0x3a,0x53,0x45,0x08,0x3a,0x0a,0x40,0x6e,0x61,0x6d,0x65,0x49,0x22,0x09,0x4d,0x6f,0x76,0x65,0x06,0x3a,0x06,0x45,0x54,0x3a,0x0b,0x40,0x70,0x69,0x74,0x63,0x68,0x69,0x69,0x3a,0x0c,0x40,0x76,0x6f,0x6c,0x75,0x6d,0x65,0x69,0x55))
  TeleportPlayer(0,2,234,153,2,0)
  0()



EVENT   40
 PAGE   1
  250(bytes(0x04,0x08,0x6f,0x3a,0x0c,0x52,0x50,0x47,0x3a,0x3a,0x53,0x45,0x08,0x3a,0x0a,0x40,0x6e,0x61,0x6d,0x65,0x49,0x22,0x09,0x4d,0x6f,0x76,0x65,0x06,0x3a,0x06,0x45,0x54,0x3a,0x0b,0x40,0x70,0x69,0x74,0x63,0x68,0x69,0x69,0x3a,0x0c,0x40,0x76,0x6f,0x6c,0x75,0x6d,0x65,0x69,0x55))
  TeleportPlayer(0,2,234,153,2,0)
  0()



EVENT   41
 PAGE   1
  250(bytes(0x04,0x08,0x6f,0x3a,0x0c,0x52,0x50,0x47,0x3a,0x3a,0x53,0x45,0x08,0x3a,0x0a,0x40,0x6e,0x61,0x6d,0x65,0x49,0x22,0x09,0x4d,0x6f,0x76,0x65,0x06,0x3a,0x06,0x45,0x54,0x3a,0x0b,0x40,0x70,0x69,0x74,0x63,0x68,0x69,0x69,0x3a,0x0c,0x40,0x76,0x6f,0x6c,0x75,0x6d,0x65,0x69,0x55))
  TeleportPlayer(0,2,234,153,2,0)
  0()



EVENT   42
 PAGE   1
  250(bytes(0x04,0x08,0x6f,0x3a,0x0c,0x52,0x50,0x47,0x3a,0x3a,0x53,0x45,0x08,0x3a,0x0a,0x40,0x6e,0x61,0x6d,0x65,0x49,0x22,0x09,0x4d,0x6f,0x76,0x65,0x06,0x3a,0x06,0x45,0x54,0x3a,0x0b,0x40,0x70,0x69,0x74,0x63,0x68,0x69,0x69,0x3a,0x0c,0x40,0x76,0x6f,0x6c,0x75,0x6d,0x65,0x69,0x55))
  TeleportPlayer(0,2,234,153,2,0)
  0()



EVENT   43
 PAGE   1
  If(0,2243,1)
   ShowMessageFace("oogumo_fc1",0,0,2,1)
   ShowMessage("\\n<大蜘蛛>へへへっ、早く出て来いよ。")
   ShowMessage("じっくり体液を啜ってやるぜ……")
   ShowMessageFace("",0,0,2,2)
   ShowMessage("\\n<パン売りの女>い……いや……")
   0()
  EndIf()
  If(0,2243,0)
   ShowMessageFace("",0,0,2,3)
   ShowMessage("\\n<パン売りの女>避難しようにも、逃げ場なんて……")
   0()
  EndIf()
  0()



EVENT   44
 PAGE   1
  ShowMessageFace("ruka_fc1",0,0,2,1)
  ShowMessage("\\n<Luka>蜘蛛の魔物が、城下町まで侵入してる！")
  ShowMessage("アリ娘達が踏ん張ってるようだけど、旗色は悪いな……！")
  If(4,268,0)
   ShowMessageFace("queenant_fc1",1,0,2,2)
   ShowMessage("\\n<アンティーヌ・アン>なんという事でしょう……")
   ShowMessage("ただちに、我が娘達を助けなければ！")
   0()
  EndIf()
  If(4,45,0)
   ShowMessageFace("alicetromeria_fc1",4,0,2,3)
   ShowMessage("\\n<Alicetroemeria>この町は、アリ娘が守っているのですね。")
   ShowMessage("それがアラクネと相争うとは……うふふっ。")
   0()
  EndIf()
  If(0,4,0)
   ShowMessageFace("alice_fc5",2,0,2,4)
   ShowMessage("\\n<Alice>アラクネの軍団か、厄介だな。")
   ShowMessage("優れた身体能力に蟲系の中でも高い魔力、何より並外れた残酷性……")
   ShowMessageFace("alice_fc5",2,0,2,5)
   ShowMessage("\\n<Alice>この気配からして、アラクネの女王である蜘蛛之皇女が来ているはず。")
   ShowMessage("そいつを討ち、軍団の頭を落とすぞ！")
   0()
  EndIf()
  If(0,5,0)
   ShowMessageFace("iriasu_fc4",7,0,2,6)
   ShowMessage("\\n<Ilias>アラクネの軍団、実に厄介ですね。")
   ShowMessage("優れた身体能力に蟲系の中でも秀でた魔力、そして残酷な性質……")
   ShowMessageFace("iriasu_fc4",7,0,2,7)
   ShowMessage("\\n<Ilias>気配からして、アラクネの女王である蜘蛛之皇女がいるはず。")
   ShowMessage("かの者を討てば、蜘蛛の軍団など烏合の衆と化すはず！")
   0()
  EndIf()
  If(4,104,0)
   ShowMessageFace("kumo_fc1",2,0,2,8)
   ShowMessage("\\n<ラクネ>蜘蛛之皇女様と戦うのかぁ……")
   ShowMessage("あんまり、気が向かないなぁ。")
   0()
  EndIf()
  If(0,6,0)
   ShowMessageFace("sonia_fc2",2,0,2,9)
   ShowMessage("\\n<Sonya>でも敵軍、グランゴルド城に向かってない？")
   ShowMessage("あそこ、前の戦いで中が完全に崩壊してるのに……")
   0()
  Else()
   ShowMessageFace("ruka_fc1",0,0,2,10)
   ShowMessage("\\n<Luka>でも敵軍、グランゴルド城に向かってないか？")
   ShowMessage("あそこ、前の戦いで中が完全に崩壊してるのに……")
   0()
  EndIf()
  If(0,4,0)
   ShowMessageFace("alice_fc5",0,0,2,11)
   ShowMessage("\\n<Alice>蜘蛛の連中は、城が機能していない事など知らんのだろう。")
   ShowMessage("戦略目標を誤っているのは幸運ではあるが……")
   ShowMessageFace("alice_fc5",2,0,2,12)
   ShowMessage("\\n<Alice>政府機能があの倉庫にある事を知られれば、一気に崩されるぞ。")
   ShowMessage("そうなる前に、蜘蛛之皇女を討つ！")
   0()
  EndIf()
  If(0,5,0)
   ShowMessageFace("iriasu_fc4",2,0,2,13)
   ShowMessage("\\n<Ilias>敵軍は、城が機能していない事など知らないのでしょう。")
   ShowMessage("戦略目標を誤っているのは都合が良いですが……")
   ShowMessageFace("iriasu_fc4",7,0,2,14)
   ShowMessage("\\n<Ilias>政府機能があの倉庫にある事を知られれば、たちまち崩されます。")
   ShowMessage("そうなる前に、急ぎ蜘蛛之皇女を討ちましょう！")
   0()
  EndIf()
  If(4,275,0)
   ShowMessageFace("beelzebub_fc1",0,0,2,15)
   ShowMessage("\\n<バーバレラ>八本足の連中が、ここまで幅を利かせているなんて……")
   ShowMessage("少し教育してあげなきゃいけないわね。")
   0()
  EndIf()
  If(4,268,0)
   ShowMessageFace("queenant_fc1",1,0,2,16)
   ShowMessage("\\n<アンティーヌ・アン>今すぐ、敵の首魁を討ちます。")
   ShowMessage("もう少しの辛抱ですよ、我が娘達……")
   0()
  EndIf()
  ShowMessageFace("ruka_fc1",0,0,2,17)
  ShowMessage("\\n<Luka>よし、行こう！")
  ChangeSelfSwitch("A",0)
  0()
 PAGE   2
  // condition: self-switch A is ON
  0()



EVENT   45
 PAGE   1
  If(0,2245,1)
   ShowMessageFace("",0,0,2,1)
   ShowMessage("\\n<魔導技師>まずいわね、数が多すぎるわ……！")
   0()
  EndIf()
  If(0,2245,0)
   ShowMessageFace("",0,0,2,2)
   ShowMessage("\\n<魔導技師>メンテナンスしようにも、物資は極めて少ないし……")
   ShowMessage("進退窮まったかしら……")
   0()
  EndIf()
  0()



EVENT   46
 PAGE   1
  ShowMessageFace("ant_fc1",0,0,2,1)
  ShowMessage("\\n<Ant Girl>ココカラ先ハ通サナイ！")
  0()



EVENT   47
 PAGE   1
  ShowMessageFace("",0,0,2,1)
  ShowMessage("\\n<Soldier>敵は幸いにして、城が機能していない事を知りません……")
  ShowMessage("ですのであえて城の防備を固め、そちらに敵の注意を向けさせているのです……")
  If(0,4,0)
   ShowMessageFace("alice_fc5",2,0,2,2)
   ShowMessage("\\n<Alice>その陽動は上手くいっているな……")
   ShowMessage("この隙に、蜘蛛之皇女を討つぞ！")
   0()
  EndIf()
  If(0,5,0)
   ShowMessageFace("iriasu_fc4",7,0,2,3)
   ShowMessage("\\n<Ilias>その陽動策、上手くいっています。")
   ShowMessage("この隙に、蜘蛛之皇女を討ちましょう！")
   0()
  EndIf()
  0()



EVENT   48
 PAGE   1
  ShowMessageFace("ant_fc1",1,0,2,1)
  ShowMessage("\\n<Ant Girl>動ケナイ……")
  0()



EVENT   49
 PAGE   1
  ShowMessageFace("ant_fc1",0,0,2,1)
  ShowMessage("\\n<Ant Girl>敵、攻撃スル……")
  ShowMessageFace("arachnes_fc2",2,0,2,2)
  ShowMessage("\\n<アラクネ>なんで、アリ娘が人間の城を守ってるの……？")
  0()



EVENT   50
 PAGE   1
  ShowMessageFace("",0,0,2,1)
  ShowMessage("\\n<Middle-age Man>グランゴルドは、苦難の連続だな……")
  0()



EVENT   51
 PAGE   1
  ShowMessageFace("ant_fc1",1,0,2,1)
  ShowMessage("\\n<Ant Girl>傷ガ……重イ……")
  0()



EVENT   52
 PAGE   1
  ShowMessageFace("",0,0,2,1)
  ShowMessage("\\n<Soldier>はぁはぁ……")
  ShowMessage("ここはしばらく、大丈夫か……")
  0()



EVENT   53
 PAGE   1
  ShowMessageFace("",0,0,2,1)
  ShowMessage("国有倉庫")
  ShowMessage("立ち入り禁止")
  0()



EVENT   54
 PAGE   1
  0()



EVENT   55
 PAGE   1
  ShowMessageFace("kumo_fc1",0,0,2,1)
  ShowMessage("\\n<クモ娘>あんたも粘糸で繭にして、食べちゃうからね！")
  If(4,235,0)
   ShowMessageFace("kaiko_fc1",0,0,2,2)
   ShowMessage("\\n<シルク>そちらこそ、繭にしてあげましょう……")
   0()
  EndIf()
  Battle(0,124,false,false)
  TemporaryRemoveEvent()
  0()



EVENT   56
 PAGE   1
  ShowMessageFace("ant_fc1",0,0,2,1)
  ShowMessage("\\n<Ant Girl>敵、攻撃スル……")
  ShowMessageFace("arachnes_fc2",2,0,2,2)
  ShowMessage("\\n<アラクネ>なんで、アリ娘が人間の城を守ってるの……？")
  0()



EVENT   57
 PAGE   1
  ShowMessageFace("ant_fc1",0,0,2,1)
  ShowMessage("\\n<Ant Girl>コノ道路ハ封鎖スル！")
  0()



EVENT   58
 PAGE   1
  ShowMessageFace("bgolem_fc1",1,0,2,1)
  ShowMessage("\\n<ブラックゴーレム娘>グランゴルドの魔導技術を舐めないで！")
  ShowMessageFace("arachnes_fc2",2,0,2,2)
  ShowMessage("\\n<アラクネ>ゴーレムが地味に多いわね……邪魔よ！")
  0()



EVENT   59
 PAGE   1
  ShowMessageFace("",0,0,2,1)
  ShowMessage("\\n<吟遊詩人>滅びの歌が聞こえます……")
  0()



EVENT   60
 PAGE   1
  ShowMessageFace("atlach_fc1",0,0,2,1)
  ShowMessage("\\n<ナクア>……")
  0()



EVENT   61
 PAGE   1
  ShowMessageFace("",0,0,2,1)
  ShowMessage("\\n<老人>ネバネバじゃ……")
  0()



EVENT   62
 PAGE   1
  If(0,2241,1)
   ShowMessageFace("kumo_fc1",0,0,2,1)
   ShowMessage("\\n<クモ娘>ぐるぐる巻きにして、精液じゅるじゅる搾ってあげる……")
   ShowMessageFace("",0,0,2,2)
   ShowMessage("\\n<Youth>や、やめて……！　あぁぁ、蜘蛛の糸がぁ……！！")
   0()
  EndIf()
  If(0,2241,0)
   ShowMessageFace("",0,0,2,3)
   ShowMessage("\\n<Youth>体が、蜘蛛の糸でネバネバだ……")
   ShowMessage("これ、病み付きになりそうなくらい気持ちいい……")
   0()
  EndIf()
  0()



EVENT   63
 PAGE   1
  ShowMessageFace("",0,0,2,1)
  ShowMessage("\\n<町娘>薬草をどうぞ……！")
  0()



EVENT   64
 PAGE   1
  ShowMessageFace("",0,0,2,1)
  ShowMessage("\\n<Soldier>力にもなれず、足を引っ張り……")
  ShowMessage("ああ、情けない……")
  0()



EVENT   65
 PAGE   1
  ShowMessageFace("",0,0,2,1)
  ShowMessage("\\n<Young Girl>アリさん、大丈夫！？")
  0()



EVENT   66
 PAGE   1
  ShowMessageFace("ant_fc1",0,0,2,1)
  ShowMessage("\\n<Ant Girl>ココカラ先ハ通サナイ！")
  0()



EVENT   67
 PAGE   1
  ShowMessageFace("",0,0,2,1)
  ShowMessage("\\n<Youth>あぅぅぅぅ……")
  0()



EVENT   68
 PAGE   1
  ShowMessageFace("",0,0,2,1)
  ShowMessage("\\n<Soldier>くっ……蜘蛛糸が絡まって、取れない……")
  0()



EVENT   69
 PAGE   1
  If(0,2242,1)
   ShowMessageFace("taran_fc1",1,0,2,1)
   ShowMessage("\\n<タランチュラ娘>気持ちいいでしょ……")
   ShowMessage("まだまだ、いっぱい出るわよねぇ……")
   ShowMessageFace("",0,0,2,2)
   ShowMessage("\\n<Man>ひぁぁ……！　もうやめてぇ……！！")
   0()
  EndIf()
  If(0,2242,0)
   ShowMessageFace("",0,0,2,3)
   ShowMessage("\\n<Man>魔物に犯されるって……")
   ShowMessage("こんなにすごいのか……")
   0()
  EndIf()
  0()



EVENT   70
 PAGE   1
  ShowMessageFace("ant_fc1",0,0,2,1)
  ShowMessage("\\n<Ant Girl>ココカラ先ハ通サナイ！")
  0()



EVENT   71
 PAGE   1
  ShowMessageFace("ant_fc1",0,0,2,1)
  ShowMessage("\\n<Ant Girl>ココカラ先ハ通サナイ！")
  0()



EVENT   72
 PAGE   1
  ShowMessageFace("",0,0,2,1)
  ShowMessage("\\n<Middle-age Man>繭にされるの……き、きもちいい……")
  0()



EVENT   73
 PAGE   1
  ShowMessageFace("ant_fc1",0,0,2,1)
  ShowMessage("\\n<Ant Girl>コノ道路ハ封鎖スル！")
  0()



EVENT   74
 PAGE   1
  ShowMessageFace("ant_fc1",0,0,2,1)
  ShowMessage("\\n<Ant Girl>ココカラ先ハ通サナイ！")
  0()

EVENT   75
 PAGE   1
  ShowMessageFace("arachnes_fc2",0,0,2,1)
  ShowMessage("\\n<アラクネ>……")
  0()



EVENT   76
 PAGE   1
  ShowMessageFace("",0,0,2,1)
  ShowMessage("\\n<旅の戦士>こんな騒ぎに……巻き込まれるなんて……")
  0()



EVENT   77
 PAGE   1
  ShowMessageFace("",0,0,2,1)
  ShowMessage("\\n<ピエロ>ネバネバ糸で……動けない……")
  0()



EVENT   78
 PAGE   1
  ShowMessageFace("",0,0,2,1)
  ShowMessage("\\n<Youth>粘糸の繭、気持ちよすぎて……")
  ShowMessage("あ、あぅぅぅぅ……")
  0()



EVENT   79
 PAGE   1
  ShowMessageFace("",0,0,2,1)
  ShowMessage("\\n<Soldier>あぐぐ……")
  0()



EVENT   80
 PAGE   1
  ShowMessageFace("",0,0,2,1)
  ShowMessage("\\n<Soldier>人間の兵士では、まともに戦えないのか……")
  0()



EVENT   81
 PAGE   1
  ShowMessageFace("ant_fc1",0,0,2,1)
  ShowMessage("\\n<Ant Girl>コノ道路ハ封鎖スル！")
  0()



EVENT   82
 PAGE   1
  // condition: switch 37 is ON
  0()



EVENT   83
 PAGE   1
  ShowMessageFace("taran_fc1",0,0,2,1)
  ShowMessage("\\n<タランチュラ娘>あなたを餌食にしてもいい……？")
  If(4,536,0)
   ShowMessageFace("serene_fc1",3,0,2,2)
   ShowMessage("\\n<Selene>足の数、減らしてあげるわ。")
   0()
  EndIf()
  Battle(0,215,false,false)
  TemporaryRemoveEvent()
  0()



EVENT   84
 PAGE   1
  ShowMessageFace("mikoarachne_fc1",0,0,2,1)
  ShowMessage("\\n<巫女アラクネ>元気そうな勇者、発見です♪")
  ShowMessage("あなたの体、巻き巻きしていいですか……？")
  If(4,226,0)
   ShowMessageFace("sirohebisama_fc1",0,0,2,2)
   ShowMessage("\\n<Shirohebi>ふん、返り討ちにしてくれるわ！")
   0()
  EndIf()
  Battle(0,643,false,false)
  TemporaryRemoveEvent()
  0()



EVENT   85
 PAGE   1
  ShowMessageFace("ant_fc1",0,0,2,1)
  ShowMessage("\\n<Ant Girl>ココカラ先ハ通サナイ！")
  0()



EVENT   86
 PAGE   1
  ShowMessageFace("oogumo_fc1",0,0,2,1)
  ShowMessage("\\n<大蜘蛛>へへへっ、早く出て来いよ。")
  ShowMessage("じっくり体液を啜ってやるぜ……")
  ShowMessageFace("",0,0,2,2)
  ShowMessage("\\n<パン売りの女>い……いや……")
  ShowMessageFace("ruka_fc1",0,0,2,3)
  ShowMessage("\\n<Luka>やめろっ！")
  If(4,266,0)
   ShowMessageFace("kunoitisanbi_fc1",0,0,2,4)
   ShowMessage("\\n<ミナモ>無辜の民を傷つける者……討つ。")
   0()
  EndIf()
  Battle(0,257,false,false)
  ChangeSwitch(2243,2243,0)
  ShowMessageFace("",0,0,2,5)
  ShowMessage("\\n<パン売りの女>ありがとうございます！")
  ShowMessage("売り物のパンですが、受け取って下さい！")
  250(bytes(0x04,0x08,0x6f,0x3a,0x0c,0x52,0x50,0x47,0x3a,0x3a,0x53,0x45,0x08,0x3a,0x0a,0x40,0x6e,0x61,0x6d,0x65,0x49,0x22,0x0a,0x49,0x74,0x65,0x6d,0x31,0x06,0x3a,0x06,0x45,0x54,0x3a,0x0b,0x40,0x70,0x69,0x74,0x63,0x68,0x69,0x69,0x3a,0x0c,0x40,0x76,0x6f,0x6c,0x75,0x6d,0x65,0x69,0x55))
  ChangeInventory_Item(343,0,0,3)
  ChangeInventory_Item(345,0,0,5)
  ChangeInventory_Item(346,0,0,2)
  ChangeInventory_Item(348,0,0,2)
  ChangeInventory_Item(350,0,0,3)
  ChangeInventory_Item(351,0,0,3)
  ChangeInventory_Item(352,0,0,2)
  EndEventProcessing()
  0()
 PAGE   2
  // condition: switch 2243 is ON
  0()



EVENT   87
 PAGE   1
  ShowMessageFace("oogumo_fc1",0,0,2,1)
  ShowMessage("\\n<大蜘蛛>勇者か……？　お前も、餌食にしてやるぜ！")
  If(4,196,0)
   ShowMessageFace("s_mermaid_fc1",0,0,2,2)
   ShowMessage("\\n<ミンク>言いたい事はそれだけか？")
   ShowMessage("ほな、さいなら！")
   0()
  EndIf()
  Battle(0,257,false,false)
  TemporaryRemoveEvent()
  0()



EVENT   88
 PAGE   1
  ShowMessageFace("golem_fc1",0,0,2,1)
  ShowMessage("\\n<Golem Girl>ゴゴゴゴゴ……")
  ShowMessageFace("arachnes_fc2",2,0,2,2)
  ShowMessage("\\n<アラクネＡ>ちょっとぉ、なんで巨人がいるのよ……！")
  ShowMessageFace("arachnes_fc3",0,0,2,3)
  ShowMessage("\\n<アラクネＢ>でも、みんなでかかれば……！")
  ShowMessageFace("",0,0,2,4)
  ShowMessage("\\n<魔導技師>まずいわね、数が多すぎるわ……！")
  ShowMessageFace("ruka_fc1",0,0,2,5)
  ShowMessage("\\n<Luka>僕が相手だ！")
  If(4,262,0)
   ShowMessageFace("golem_fc1",0,0,2,6)
   ShowMessage("\\n<エメス>ゴゴゴゴゴ……")
   0()
  EndIf()
  Battle(0,803,false,false)
  ChangeSwitch(2245,2245,0)
  ShowMessageFace("",0,0,2,7)
  ShowMessage("\\n<魔導技師>助かったわ、これを役立てて……")
  250(bytes(0x04,0x08,0x6f,0x3a,0x0c,0x52,0x50,0x47,0x3a,0x3a,0x53,0x45,0x08,0x3a,0x0a,0x40,0x6e,0x61,0x6d,0x65,0x49,0x22,0x0a,0x49,0x74,0x65,0x6d,0x31,0x06,0x3a,0x06,0x45,0x54,0x3a,0x0b,0x40,0x70,0x69,0x74,0x63,0x68,0x69,0x69,0x3a,0x0c,0x40,0x76,0x6f,0x6c,0x75,0x6d,0x65,0x69,0x55))
  ChangeInventory_Item(9,0,0,1)
  EndEventProcessing()
  0()
 PAGE   2
  // condition: switch 2245 is ON
  0()



EVENT   89
 PAGE   1
  ShowMessageFace("arachnes_fc2",0,0,2,1)
  ShowMessage("\\n<アラクネ>……")
  0()



EVENT   90
 PAGE   1
  ShowMessageFace("arachnes_fc2",0,0,2,1)
  ShowMessage("\\n<アラクネＡ>ねぇ、あたし達の相手をしてよー！")
  ShowMessageFace("arachnes_fc3",0,0,2,2)
  ShowMessage("\\n<アラクネＢ>みんなで、ぐるぐる巻きにしてあげるから……ね？")
  If(4,237,0)
   ShowMessageFace("alplants_fc1",0,0,2,3)
   ShowMessage("\\n<アルプランツ>頭数なら、こっちも負けないから……！")
   0()
  EndIf()
  Battle(0,803,false,false)
  TemporaryRemoveEvent()
  0()



EVENT   91
 PAGE   1
  ShowMessageFace("ant_fc1",0,0,2,1)
  ShowMessage("\\n<Ant Girl>コノ道路ハ封鎖スル！")
  0()



EVENT   92
 PAGE   1
  ShowMessageFace("ant_fc1",0,0,2,1)
  ShowMessage("\\n<Ant Girl>コノ道路ハ封鎖スル！")
  0()



EVENT   93
 PAGE   1
  ShowMessageFace("ant_fc1",0,0,2,1)
  ShowMessage("\\n<Ant Girl>コノ道路ハ封鎖スル！")
  0()



EVENT   94
 PAGE   1
  ShowMessageFace("atlach_fc1",0,0,2,1)
  ShowMessage("\\n<ナクア>……")
  0()



EVENT   95
 PAGE   1
  If(0,2245,1)
   ShowMessageFace("golem_fc1",0,0,2,1)
   ShowMessage("\\n<Golem Girl>ゴゴゴゴゴ……")
   ShowMessageFace("arachnes_fc2",2,0,2,2)
   ShowMessage("\\n<アラクネＡ>ちょっとぉ、なんで巨人がいるのよ……！")
   ShowMessageFace("arachnes_fc3",0,0,2,3)
   ShowMessage("\\n<アラクネＢ>でも、みんなでかかれば……！")
   ShowMessageFace("",0,0,2,4)
   ShowMessage("\\n<魔導技師>まずいわね、数が多すぎるわ……！")
   0()
  EndIf()
  If(0,2245,0)
   ShowMessageFace("golem_fc1",0,0,2,5)
   ShowMessage("\\n<Golem Girl>ゴゴゴゴゴ……")
   ShowMessageFace("",0,0,2,6)
   ShowMessage("\\n<魔導技師>粘糸まみれで、動きが悪いわね……")
   ShowMessage("メンテナンスしないと……")
   0()
  EndIf()
  0()



EVENT   96
 PAGE   1
  ShowMessageFace("kumo_fc1",0,0,2,1)
  ShowMessage("\\n<クモ娘>ぐるぐる巻きにして、精液じゅるじゅる搾ってあげる……")
  ShowMessageFace("",0,0,2,2)
  ShowMessage("\\n<Youth>や、やめて……！　あぁぁ、蜘蛛の糸がぁ……！！")
  ShowMessageFace("ruka_fc1",0,0,2,3)
  ShowMessage("\\n<Luka>やめろっ！")
  If(4,289,0)
   ShowMessageFace("maidscyulla_fc1",1,0,2,4)
   ShowMessage("\\n<ラン>少々、躾をして差し上げましょう……")
   0()
  EndIf()
  Battle(0,124,false,false)
  ChangeSwitch(2241,2241,0)
  ShowMessageFace("",0,0,2,5)
  ShowMessage("\\n<Youth>もうちょっとで、ぐるぐる巻きにされるところだったよ……")
  ShowMessage("これ、お礼に受け取ってくれ。")
  250(bytes(0x04,0x08,0x6f,0x3a,0x0c,0x52,0x50,0x47,0x3a,0x3a,0x53,0x45,0x08,0x3a,0x0a,0x40,0x6e,0x61,0x6d,0x65,0x49,0x22,0x0a,0x49,0x74,0x65,0x6d,0x31,0x06,0x3a,0x06,0x45,0x54,0x3a,0x0b,0x40,0x70,0x69,0x74,0x63,0x68,0x69,0x69,0x3a,0x0c,0x40,0x76,0x6f,0x6c,0x75,0x6d,0x65,0x69,0x55))
  ChangeInventory_Item(27,0,0,1)
  EndEventProcessing()
  0()
 PAGE   2
  // condition: switch 2241 is ON
  0()



EVENT   97
 PAGE   1
  ShowMessageFace("golem_fc1",0,0,2,1)
  ShowMessage("\\n<Golem Girl>ゴゴゴゴゴ……")
  ShowMessageFace("arachnes_fc2",2,0,2,2)
  ShowMessage("\\n<アラクネＡ>ちょっとぉ、なんで巨人がいるのよ……！")
  ShowMessageFace("arachnes_fc3",0,0,2,3)
  ShowMessage("\\n<アラクネＢ>でも、みんなでかかれば……！")
  ShowMessageFace("",0,0,2,4)
  ShowMessage("\\n<魔導技師>まずいわね、数が多すぎるわ……！")
  ShowMessageFace("ruka_fc1",0,0,2,5)
  ShowMessage("\\n<Luka>僕が相手だ！")
  If(4,262,0)
   ShowMessageFace("golem_fc1",0,0,2,6)
   ShowMessage("\\n<エメス>ゴゴゴゴゴ……")
   0()
  EndIf()
  Battle(0,803,false,false)
  ChangeSwitch(2245,2245,0)
  ShowMessageFace("",0,0,2,7)
  ShowMessage("\\n<魔導技師>助かったわ、これを役立てて……")
  250(bytes(0x04,0x08,0x6f,0x3a,0x0c,0x52,0x50,0x47,0x3a,0x3a,0x53,0x45,0x08,0x3a,0x0a,0x40,0x6e,0x61,0x6d,0x65,0x49,0x22,0x0a,0x49,0x74,0x65,0x6d,0x31,0x06,0x3a,0x06,0x45,0x54,0x3a,0x0b,0x40,0x70,0x69,0x74,0x63,0x68,0x69,0x69,0x3a,0x0c,0x40,0x76,0x6f,0x6c,0x75,0x6d,0x65,0x69,0x55))
  ChangeInventory_Item(9,0,0,1)
  EndEventProcessing()
  0()
 PAGE   2
  // condition: switch 2245 is ON
  0()



EVENT   98
 PAGE   1
  ShowMessageFace("ant_fc1",0,0,2,1)
  ShowMessage("\\n<Ant Girl>コノ道路ハ封鎖スル！")
  0()



EVENT   99
 PAGE   1
  ShowMessageFace("taran_fc1",1,0,2,1)
  ShowMessage("\\n<タランチュラ娘>気持ちいいでしょ……")
  ShowMessage("まだまだ、いっぱい出るわよねぇ……")
  ShowMessageFace("",0,0,2,2)
  ShowMessage("\\n<Man>ひぁぁ……！　もうやめてぇ……！！")
  ShowMessageFace("ruka_fc1",0,0,2,3)
  ShowMessage("\\n<Luka>やめろっ！")
  If(4,245,0)
   ShowMessageFace("queenbee_fc1",2,0,2,4)
   ShowMessage("\\n<蜜璃亜>このような蛮行、感心せんな……")
   0()
  EndIf()
  Battle(0,215,false,false)
  ChangeSwitch(2242,2242,0)
  ShowMessageFace("",0,0,2,5)
  ShowMessage("\\n<Man>あ、ありがとう……")
  250(bytes(0x04,0x08,0x6f,0x3a,0x0c,0x52,0x50,0x47,0x3a,0x3a,0x53,0x45,0x08,0x3a,0x0a,0x40,0x6e,0x61,0x6d,0x65,0x49,0x22,0x0a,0x49,0x74,0x65,0x6d,0x31,0x06,0x3a,0x06,0x45,0x54,0x3a,0x0b,0x40,0x70,0x69,0x74,0x63,0x68,0x69,0x69,0x3a,0x0c,0x40,0x76,0x6f,0x6c,0x75,0x6d,0x65,0x69,0x55))
  ChangeInventory_Item(22,0,0,1)
  EndEventProcessing()
  0()
 PAGE   2
  // condition: switch 2242 is ON
  0()



EVENT   100
 PAGE   1
  ShowMessageFace("mikoarachne_fc1",0,0,2,1)
  ShowMessage("\\n<巫女アラクネ>ほらぁ、あたしと交尾しようよ……")
  ShowMessage("たっぷり巻いてあげるから……ね？")
  ShowMessageFace("",0,0,2,2)
  ShowMessage("\\n<Youth>だ、だめぇ……！　だめぇ……！！")
  ShowMessageFace("ruka_fc1",0,0,2,3)
  ShowMessage("\\n<Luka>やめろっ！")
  If(4,301,0)
   ShowMessageFace("tora_fc1",0,0,2,4)
   ShowMessage("\\n<Konan>かような狼藉、許してはおけん！")
   0()
  EndIf()
  Battle(0,643,false,false)
  ChangeSwitch(2244,2244,0)
  ShowMessageFace("",0,0,2,5)
  ShowMessage("\\n<Youth>あ、危ないところだった……")
  ShowMessage("ちょっと残念。")
  250(bytes(0x04,0x08,0x6f,0x3a,0x0c,0x52,0x50,0x47,0x3a,0x3a,0x53,0x45,0x08,0x3a,0x0a,0x40,0x6e,0x61,0x6d,0x65,0x49,0x22,0x0a,0x49,0x74,0x65,0x6d,0x31,0x06,0x3a,0x06,0x45,0x54,0x3a,0x0b,0x40,0x70,0x69,0x74,0x63,0x68,0x69,0x69,0x3a,0x0c,0x40,0x76,0x6f,0x6c,0x75,0x6d,0x65,0x69,0x55))
  ChangeInventory_Item(4,0,0,1)
  EndEventProcessing()
  0()
 PAGE   2
  // condition: switch 2244 is ON
  0()



EVENT   101
 PAGE   1
  If(0,2244,1)
   ShowMessageFace("mikoarachne_fc1",0,0,2,1)
   ShowMessage("\\n<巫女アラクネ>ほらぁ、あたしと交尾しようよ……")
   ShowMessage("たっぷり巻いてあげるから……ね？")
   ShowMessageFace("",0,0,2,2)
   ShowMessage("\\n<Youth>だ、だめぇ……！　だめぇ……！！")
   0()
  EndIf()
  If(0,2244,0)
   ShowMessageFace("",0,0,2,3)
   ShowMessage("\\n<Youth>ちょっと巻かれたかったかも……")
   0()
  EndIf()
  0()



EVENT   102
 PAGE   1
  ShowMessageFace("ant_fc1",0,0,2,1)
  ShowMessage("\\n<Ant Girl>コノ道路ハ封鎖スル！")
  0()



EVENT   103
 PAGE   1
  If(0,4,0)
   ShowMessageFace("alice_fc5",2,0,2,1)
   ShowMessage("\\n<Alice>敵味方で揉み合って、道が封鎖状態だな。")
   ShowMessage("別のところから進むぞ！")
   0()
  EndIf()
  If(0,5,0)
   ShowMessageFace("iriasu_fc4",7,0,2,2)
   ShowMessage("\\n<Ilias>敵味方で揉み合って、道が封鎖状態ですね……")
   ShowMessage("別のところから進みましょう！")
   0()
  EndIf()
  0()



EVENT   104
 PAGE   1
  If(0,4,0)
   ShowMessageFace("alice_fc5",2,0,2,1)
   ShowMessage("\\n<Alice>敵味方で揉み合って、道が封鎖状態だな。")
   ShowMessage("別のところから進むぞ！")
   0()
  EndIf()
  If(0,5,0)
   ShowMessageFace("iriasu_fc4",7,0,2,2)
   ShowMessage("\\n<Ilias>敵味方で揉み合って、道が封鎖状態ですね……")
   ShowMessage("別のところから進みましょう！")
   0()
  EndIf()
  0()



EVENT   105
 PAGE   1
  If(0,4,0)
   ShowMessageFace("alice_fc5",2,0,2,1)
   ShowMessage("\\n<Alice>敵味方で揉み合って、道が封鎖状態だな。")
   ShowMessage("別のところから進むぞ！")
   0()
  EndIf()
  If(0,5,0)
   ShowMessageFace("iriasu_fc4",7,0,2,2)
   ShowMessage("\\n<Ilias>敵味方で揉み合って、道が封鎖状態ですね……")
   ShowMessage("別のところから進みましょう！")
   0()
  EndIf()
  0()



EVENT   106
 PAGE   1
  0()



EVENT   107
 PAGE   1
  ShowMessageFace("golem_fc1",0,0,2,1)
  ShowMessage("\\n<Golem Girl>ゴゴゴゴゴ……")
  ShowMessageFace("arachnes_fc2",2,0,2,2)
  ShowMessage("\\n<アラクネＡ>ちょっとぉ、なんで巨人がいるのよ……！")
  ShowMessageFace("arachnes_fc3",0,0,2,3)
  ShowMessage("\\n<アラクネＢ>でも、みんなでかかれば……！")
  ShowMessageFace("",0,0,2,4)
  ShowMessage("\\n<魔導技師>まずいわね、数が多すぎるわ……！")
  ShowMessageFace("ruka_fc1",0,0,2,5)
  ShowMessage("\\n<Luka>僕が相手だ！")
  If(4,262,0)
   ShowMessageFace("golem_fc1",0,0,2,6)
   ShowMessage("\\n<エメス>ゴゴゴゴゴ……")
   0()
  EndIf()
  Battle(0,803,false,false)
  ChangeSwitch(2245,2245,0)
  ShowMessageFace("",0,0,2,7)
  ShowMessage("\\n<魔導技師>助かったわ、これを役立てて……")
  250(bytes(0x04,0x08,0x6f,0x3a,0x0c,0x52,0x50,0x47,0x3a,0x3a,0x53,0x45,0x08,0x3a,0x0a,0x40,0x6e,0x61,0x6d,0x65,0x49,0x22,0x0a,0x49,0x74,0x65,0x6d,0x31,0x06,0x3a,0x06,0x45,0x54,0x3a,0x0b,0x40,0x70,0x69,0x74,0x63,0x68,0x69,0x69,0x3a,0x0c,0x40,0x76,0x6f,0x6c,0x75,0x6d,0x65,0x69,0x55))
  ChangeInventory_Item(9,0,0,1)
  EndEventProcessing()
  0()
 PAGE   2
  // condition: switch 2245 is ON
  0()



EVENT   108
 PAGE   1
  0()



EVENT   109
 PAGE   1
  0()



EVENT   110
 PAGE   1
  0()



EVENT   111
 PAGE   1
  ShowMessageFace("ant_fc1",0,0,2,1)
  ShowMessage("\\n<Ant Girl>ココカラ先ハ通サナイ！")
  0()



EVENT   113
 PAGE   1
  ShowMessageFace("ant_fc1",0,0,2,1)
  ShowMessage("\\n<Ant Girl>コノ道路ハ封鎖スル！")
  0()



EVENT   114
 PAGE   1
  ShowMessageFace("kumo_fc1",0,0,2,1)
  ShowMessage("\\n<クモ娘>……………………")
  0()



EVENT   115
 PAGE   1
  ShowMessageFace("taran_fc1",0,0,2,1)
  ShowMessage("\\n<タランチュラ娘>……………………")
  0()



EVENT   116
 PAGE   1
  ShowMessageFace("arachnes_fc2",0,0,2,1)
  ShowMessage("\\n<アラクネ>……")
  0()



EVENT   117
 PAGE   1
  ShowMessageFace("arachnes_fc2",0,0,2,1)
  ShowMessage("\\n<アラクネ>……")
  0()



EVENT   118
 PAGE   1
  ShowMessageFace("arachnes_fc2",0,0,2,1)
  ShowMessage("\\n<アラクネ>……")
  0()



EVENT   119
 PAGE   1
  ShowMessageFace("oogumo_fc1",0,0,2,1)
  ShowMessage("\\n<大蜘蛛>……………………")
  0()



EVENT   120
 PAGE   1
  ShowMessageFace("arachnes_fc2",0,0,2,1)
  ShowMessage("\\n<アラクネ>……")
  0()



EVENT   121
 PAGE   1
  ShowMessageFace("arachnes_fc2",0,0,2,1)
  ShowMessage("\\n<アラクネ>……")
  0()



EVENT   122
 PAGE   1
  ShowMessageFace("arachnes_fc2",0,0,2,1)
  ShowMessage("\\n<アラクネ>……")
  0()



EVENT   123
 PAGE   1
  ShowMessageFace("taran_fc1",0,0,2,1)
  ShowMessage("\\n<タランチュラ娘>……………………")
  0()



EVENT   125
 PAGE   1
  ShowMessageFace("oogumo_fc1",0,0,2,1)
  ShowMessage("\\n<大蜘蛛>……………………")
  0()



EVENT   126
 PAGE   1
  ShowMessageFace("arachnes_fc2",0,0,2,1)
  ShowMessage("\\n<アラクネ>……")
  0()



EVENT   127
 PAGE   1
  ShowMessageFace("arachnes_fc2",0,0,2,1)
  ShowMessage("\\n<アラクネ>……")
  0()



EVENT   128
 PAGE   1
  ShowMessageFace("arachnes_fc2",0,0,2,1)
  ShowMessage("\\n<アラクネ>……")
  0()



EVENT   129
 PAGE   1
  ShowMessageFace("kumo_fc1",0,0,2,1)
  ShowMessage("\\n<クモ娘>……………………")
  0()



EVENT   130
 PAGE   1
  ShowMessageFace("arachnes_fc2",0,0,2,1)
  ShowMessage("\\n<アラクネ>……")
  0()



EVENT   131
 PAGE   1
  ShowMessageFace("",0,0,2,1)
  ShowMessage("\\n<Soldier>役に立てなかった……")
  0()



EVENT   132
 PAGE   1
  ShowMessageFace("ant_fc1",1,0,2,1)
  ShowMessage("\\n<Ant Girl>……………………")
  0()



EVENT   133
 PAGE   1
  ShowMessageFace("ant_fc1",1,0,2,1)
  ShowMessage("\\n<Ant Girl>負ケタ……")
  0()



EVENT   134
 PAGE   1
  ShowMessageFace("ant_fc1",1,0,2,1)
  ShowMessage("\\n<Ant Girl>グググ……")
  0()



EVENT   135
 PAGE   1
  ShowMessageFace("",0,0,2,1)
  ShowMessage("\\n<Soldier>粘糸に絡まれると……")
  ShowMessage("気持ち良すぎて、力が入らない……")
  0()



EVENT   136
 PAGE   1
  ShowMessageFace("ant_fc1",1,0,2,1)
  ShowMessage("\\n<Ant Girl>……………………")
  0()



EVENT   137
 PAGE   1
  ShowMessageFace("ant_fc1",1,0,2,1)
  ShowMessage("\\n<Ant Girl>……………………")
  0()



EVENT   138
 PAGE   1
  ShowMessageFace("",0,0,2,1)
  ShowMessage("\\n<Thug>傷付いたアリ娘を、医療所に運び込んで治療だ……！")
  ShowMessage("……ぐっ、重い……")
  0()



EVENT   139
 PAGE   1
  ShowMessageFace("",0,0,2,1)
  ShowMessage("\\n<おばさん>弱音を吐いてないで、今は休むんだよ……！")
  0()



EVENT   140
 PAGE   1
  ShowMessageFace("ant_fc1",1,0,2,1)
  ShowMessage("\\n<Ant Girl>……………………")
  0()



EVENT   141
 PAGE   1
  ShowMessageFace("ant_fc1",1,0,2,1)
  ShowMessage("\\n<Ant Girl>女王サマ……")
  0()



EVENT   142
 PAGE   1
  ShowMessageFace("ant_fc1",1,0,2,1)
  ShowMessage("\\n<Ant Girl>……………………")
  0()



EVENT   143
 PAGE   1
  ShowMessageFace("",0,0,2,1)
  ShowMessage("\\n<シスター>ああ、薬が足りない……")
  0()



EVENT   144
 PAGE   1
  ShowMessageFace("",0,0,2,1)
  ShowMessage("\\n<神官>私の魔力にも限りが……")
  ShowMessage("ああ、回復魔法の効果も薄れています……")
  0()



EVENT   145
 PAGE   1
  ShowMessageFace("ant_fc1",1,0,2,1)
  ShowMessage("\\n<Ant Girl>……………………")
  0()



EVENT   146
 PAGE   1
  ShowMessageFace("",0,0,2,1)
  ShowMessage("\\n<Soldier>う……ぐ……")
  0()



EVENT   147
 PAGE   1
  ShowMessageFace("arachnes_fc2",0,0,2,1)
  ShowMessage("\\n<アラクネ>……")
  0()



EVENT   148
 PAGE   1
  ShowMessageFace("arachnes_fc2",0,0,2,1)
  ShowMessage("\\n<アラクネ>……")
  0()



EVENT   149
 PAGE   1
  ShowMessageFace("arachnes_fc2",0,0,2,1)
  ShowMessage("\\n<アラクネ>……")
  0()



EVENT   150
 PAGE   1
  ShowMessageFace("arachnes_fc2",0,0,2,1)
  ShowMessage("\\n<アラクネ>……")
  0()



EVENT   151
 PAGE   1
  ShowMessageFace("arachnes_fc2",0,0,2,1)
  ShowMessage("\\n<アラクネ>……")
  0()



EVENT   152
 PAGE   1
  ShowMessageFace("arachnes_fc2",0,0,2,1)
  ShowMessage("\\n<アラクネ>……")
  0()



EVENT   153
 PAGE   1
  ShowMessageFace("arachnes_fc2",0,0,2,1)
  ShowMessage("\\n<アラクネ>……")
  0()



EVENT   154
 PAGE   1
  ShowMessageFace("arachnes_fc2",0,0,2,1)
  ShowMessage("\\n<アラクネ>……")
  0()



EVENT   155
 PAGE   1
  ShowMessageFace("arachnes_fc2",0,0,2,1)
  ShowMessage("\\n<アラクネ>……")
  0()



EVENT   156
 PAGE   1
  ShowMessageFace("arachnes_fc2",0,0,2,1)
  ShowMessage("\\n<アラクネ>……")
  0()



EVENT   157
 PAGE   1
  ShowMessageFace("arachnes_fc1",0,0,2,1)
  ShowMessage("\\n<アラクネ達>ちょっと、どうなってるの！？")
  ShowMessage("混雑しすぎじゃない！？")
  If(0,4,0)
   ShowMessageFace("alice_fc5",2,0,2,2)
   ShowMessage("\\n<Alice>蜘蛛之皇女め、戦が下手だな……")
   ShowMessage("城に自軍を殺到させすぎて、身動きが取れなくなっていくぞ。")
   0()
  EndIf()
  If(0,5,0)
   ShowMessageFace("iriasu_fc4",2,0,2,3)
   ShowMessage("\\n<Ilias>蜘蛛之皇女の用兵は稚拙ですね……")
   ShowMessage("城に兵力が集中しすぎて、身動きが取れなくなっています。")
   0()
  EndIf()
  ShowMessageFace("ruka_fc1",0,0,2,4)
  ShowMessage("\\n<Luka>ともかく、脇からは近付けそうにないね……")
  0()



EVENT   158
 PAGE   1
  ShowMessageFace("arachnes_fc2",0,0,2,1)
  ShowMessage("\\n<アラクネ>……")
  0()



EVENT   159
 PAGE   1
  ShowMessageFace("arachnes_fc2",0,0,2,1)
  ShowMessage("\\n<アラクネ>……")
  0()



EVENT   160
 PAGE   1
  ShowMessageFace("arachnes_fc2",0,0,2,1)
  ShowMessage("\\n<アラクネ>……")
  0()



EVENT   161
 PAGE   1
  ShowMessageFace("arachnes_fc2",0,0,2,1)
  ShowMessage("\\n<アラクネ>……")
  0()



EVENT   162
 PAGE   1
  ShowMessageFace("arachnes_fc1",0,0,2,1)
  ShowMessage("\\n<アラクネ達>ちょっと、どうなってるの！？")
  ShowMessage("混雑しすぎじゃない！？")
  If(0,4,0)
   ShowMessageFace("alice_fc5",2,0,2,2)
   ShowMessage("\\n<Alice>蜘蛛之皇女め、戦が下手だな……")
   ShowMessage("城に自軍を殺到させすぎて、身動きが取れなくなっていくぞ。")
   0()
  EndIf()
  If(0,5,0)
   ShowMessageFace("iriasu_fc4",2,0,2,3)
   ShowMessage("\\n<Ilias>蜘蛛之皇女の用兵は稚拙ですね……")
   ShowMessage("城に兵力が集中しすぎて、身動きが取れなくなっています。")
   0()
  EndIf()
  ShowMessageFace("ruka_fc1",0,0,2,4)
  ShowMessage("\\n<Luka>ともかく、脇からは近付けそうにないね……")
  0()



EVENT   163
 PAGE   1
  ShowMessageFace("arachnes_fc2",0,0,2,1)
  ShowMessage("\\n<アラクネ>……")
  0()



EVENT   164
 PAGE   1
  ShowMessageFace("taran_fc1",0,0,2,1)
  ShowMessage("\\n<タランチュラ娘>……………………")
  0()



EVENT   165
 PAGE   1
  ShowMessageFace("taran_fc1",0,0,2,1)
  ShowMessage("\\n<タランチュラ娘>……………………")
  0()



EVENT   166
 PAGE   1
  ShowMessageFace("taran_fc1",0,0,2,1)
  ShowMessage("\\n<タランチュラ娘>……………………")
  0()



EVENT   167
 PAGE   1
  ShowMessageFace("kumo_fc1",0,0,2,1)
  ShowMessage("\\n<クモ娘>……………………")
  0()



EVENT   168
 PAGE   1
  ShowMessageFace("kumo_fc1",0,0,2,1)
  ShowMessage("\\n<クモ娘>……………………")
  0()



EVENT   169
 PAGE   1
  ShowMessageFace("kumo_fc1",0,0,2,1)
  ShowMessage("\\n<クモ娘>……………………")
  0()



EVENT   170
 PAGE   1
  ShowMessageFace("oogumo_fc1",0,0,2,1)
  ShowMessage("\\n<大蜘蛛>……………………")
  0()



EVENT   171
 PAGE   1
  ShowMessageFace("oogumo_fc1",0,0,2,1)
  ShowMessage("\\n<大蜘蛛>……………………")
  0()



EVENT   172
 PAGE   1
  ShowMessageFace("oogumo_fc1",0,0,2,1)
  ShowMessage("\\n<大蜘蛛>……………………")
  0()



EVENT   173
 PAGE   1
  ShowMessageFace("oogumo_fc1",0,0,2,1)
  ShowMessage("\\n<大蜘蛛>……………………")
  0()



EVENT   174
 PAGE   1
  ShowMessageFace("mikoarachne_fc1",0,0,2,1)
  ShowMessage("\\n<巫女アラクネ>……")
  0()



EVENT   175
 PAGE   1
  ShowMessageFace("mikoarachne_fc1",0,0,2,1)
  ShowMessage("\\n<巫女アラクネ>……")
  0()



EVENT   176
 PAGE   1
  ShowMessageFace("mikoarachne_fc1",0,0,2,1)
  ShowMessage("\\n<巫女アラクネ>……")
  0()



EVENT   177
 PAGE   1
  ShowMessageFace("arachnes_fc1",0,0,2,1)
  ShowMessage("\\n<アラクネ達>ちょっと、どうなってるの！？")
  ShowMessage("混雑しすぎじゃない！？")
  If(0,4,0)
   ShowMessageFace("alice_fc5",2,0,2,2)
   ShowMessage("\\n<Alice>蜘蛛之皇女め、戦が下手だな……")
   ShowMessage("城に自軍を殺到させすぎて、身動きが取れなくなっていくぞ。")
   0()
  EndIf()
  If(0,5,0)
   ShowMessageFace("iriasu_fc4",2,0,2,3)
   ShowMessage("\\n<Ilias>蜘蛛之皇女の用兵は稚拙ですね……")
   ShowMessage("城に兵力が集中しすぎて、身動きが取れなくなっています。")
   0()
  EndIf()
  ShowMessageFace("ruka_fc1",0,0,2,4)
  ShowMessage("\\n<Luka>ともかく、脇からは近付けそうにないね……")
  0()



EVENT   178
 PAGE   1
  ShowMessageFace("arachnes_fc1",0,0,2,1)
  ShowMessage("\\n<アラクネ達>ちょっと、どうなってるの！？")
  ShowMessage("混雑しすぎじゃない！？")
  If(0,4,0)
   ShowMessageFace("alice_fc5",2,0,2,2)
   ShowMessage("\\n<Alice>蜘蛛之皇女め、戦が下手だな……")
   ShowMessage("城に自軍を殺到させすぎて、身動きが取れなくなっていくぞ。")
   0()
  EndIf()
  If(0,5,0)
   ShowMessageFace("iriasu_fc4",2,0,2,3)
   ShowMessage("\\n<Ilias>蜘蛛之皇女の用兵は稚拙ですね……")
   ShowMessage("城に兵力が集中しすぎて、身動きが取れなくなっています。")
   0()
  EndIf()
  ShowMessageFace("ruka_fc1",0,0,2,4)
  ShowMessage("\\n<Luka>ともかく、脇からは近付けそうにないね……")
  0()



EVENT   179
 PAGE   1
  ShowMessageFace("arachnes_fc1",0,0,2,1)
  ShowMessage("\\n<アラクネ達>ちょっと、どうなってるの！？")
  ShowMessage("混雑しすぎじゃない！？")
  If(0,4,0)
   ShowMessageFace("alice_fc5",2,0,2,2)
   ShowMessage("\\n<Alice>蜘蛛乃皇女め、戦が下手だな……")
   ShowMessage("城に自軍を殺到させすぎて、身動きが取れなくなっていくぞ。")
   0()
  EndIf()
  If(0,5,0)
   ShowMessageFace("iriasu_fc4",2,0,2,3)
   ShowMessage("\\n<Ilias>蜘蛛乃皇女の用兵は稚拙ですね……")
   ShowMessage("城に兵力が集中しすぎて、身動きが取れなくなっています。")
   0()
  EndIf()
  ShowMessageFace("ruka_fc1",0,0,2,4)
  ShowMessage("\\n<Luka>ともかく、これじゃ近付けそうにないね……")
  0()



EVENT   180
 PAGE   1
  ShowMessageFace("taran_fc1",0,0,2,1)
  ShowMessage("\\n<タランチュラ娘>……………………")
  0()



EVENT   181
 PAGE   1
  ShowMessageFace("artm_fc1",0,0,2,1)
  ShowMessage("\\n<オートマータ娘>侵入者を排除します……")
  ShowMessageFace("arachnes_fc2",2,0,2,2)
  ShowMessage("\\n<アラクネ>からくり人形に、邪魔されるなんて……！")
  0()



EVENT   182
 PAGE   1
  ShowMessageFace("artm_fc1",0,0,2,1)
  ShowMessage("\\n<オートマータ娘>侵入者を排除します……")
  ShowMessageFace("arachnes_fc2",2,0,2,2)
  ShowMessage("\\n<アラクネ>からくり人形に、邪魔されるなんて……！")
  0()



EVENT   183
 PAGE   1
  ShowMessageFace("ant_fc1",1,0,2,1)
  ShowMessage("\\n<Ant Girl>市街ニ……敵、タクサン侵入……")
  0()



EVENT   184
 PAGE   1
  ShowMessageFace("ant_fc1",1,0,2,1)
  ShowMessage("\\n<Ant Girl>戦エナイ……")
  0()



EVENT   185
 PAGE   1
  ShowMessageFace("",0,0,2,1)
  ShowMessage("\\n<Soldier>城に敵の大集団が……")
  0()



EVENT   186
 PAGE   1
  0()



EVENT   187
 PAGE   1
  ShowMessageFace("paizuridoll_fc1",0,0,2,1)
  ShowMessage("\\n<パイズリ人形Ａ>……ぷにゅっ。")
  ShowMessageFace("paizuridoll_fc1",0,0,2,2)
  ShowMessage("\\n<パイズリ人形Ｂ>むにゅっ、むにゅっ……")
  ShowMessageFace("arachnes_fc3",2,0,2,3)
  ShowMessage("\\n<アラクネ>ああ……この子達のおっぱい、やわらかい……")
  0()



EVENT   188
 PAGE   1
  ShowMessageFace("paizuridoll_fc1",0,0,2,1)
  ShowMessage("\\n<パイズリ人形Ａ>……ぷにゅっ。")
  ShowMessageFace("paizuridoll_fc1",0,0,2,2)
  ShowMessage("\\n<パイズリ人形Ｂ>むにゅっ、むにゅっ……")
  ShowMessageFace("arachnes_fc3",2,0,2,3)
  ShowMessage("\\n<アラクネ>ああ……この子達のおっぱい、やわらかい……")
  0()



EVENT   189
 PAGE   1
  ShowMessageFace("paizuridoll_fc1",0,0,2,1)
  ShowMessage("\\n<パイズリ人形Ａ>……ぷにゅっ。")
  ShowMessageFace("paizuridoll_fc1",0,0,2,2)
  ShowMessage("\\n<パイズリ人形Ｂ>むにゅっ、むにゅっ……")
  ShowMessageFace("arachnes_fc3",2,0,2,3)
  ShowMessage("\\n<アラクネ>ああ……この子達のおっぱい、やわらかい……")
  0()



EVENT   190
 PAGE   1
  ShowMessageFace("bgolem_fc1",1,0,2,1)
  ShowMessage("\\n<ブラックゴーレム娘>グランゴルドの魔導技術を舐めないで！")
  ShowMessageFace("arachnes_fc2",2,0,2,2)
  ShowMessage("\\n<アラクネ>ゴーレムが地味に多いわね……邪魔よ！")
  0()



EVENT   191
 PAGE   1
  ShowMessageFace("ant_fc1",1,0,2,1)
  ShowMessage("\\n<Ant Girl>ゴメンナサイ……")
  0()



EVENT   192
 PAGE   1
  ShowMessageFace("",0,0,2,1)
  ShowMessage("\\n<Soldier>これだけの数、どうやって押し止めようというのか……")
  0()



EVENT   193
 PAGE   1
  ShowMessageFace("ant_fc1",1,0,2,1)
  ShowMessage("\\n<Ant Girl>ゴメンナサイ……")
  0()



EVENT   194
 PAGE   1
  0()
 PAGE   2
  // condition: switch 31 is ON
  0()



EVENT   195
 PAGE   1
  // condition: switch 32 is ON
  0()



EVENT   196
 PAGE   1
  0()
 PAGE   2
  // condition: switch 34 is ON
  0()



EVENT   197
 PAGE   1
  0()
 PAGE   2
  // condition: switch 34 is ON
  0()



EVENT   198
 PAGE   1
  0()
 PAGE   2
  // condition: switch 34 is ON
  0()



EVENT   200
 PAGE   1
  0()



EVENT   201
 PAGE   1
  If(0,4,0)
   ShowMessageFace("alice_fc5",2,0,2,1)
   ShowMessage("\\n<Alice>敵味方で揉み合って、道が封鎖状態だな。")
   ShowMessage("別のところから進むぞ！")
   0()
  EndIf()
  If(0,5,0)
   ShowMessageFace("iriasu_fc4",7,0,2,2)
   ShowMessage("\\n<Ilias>敵味方で揉み合って、道が封鎖状態ですね……")
   ShowMessage("別のところから進みましょう！")
   0()
  EndIf()
  0()



EVENT   202
 PAGE   1
  0()
 PAGE   2
  // condition: switch 34 is ON
  0()



EVENT   206
 PAGE   1
  0()
 PAGE   2
  // condition: switch 34 is ON
  0()



EVENT   209
 PAGE   1
  0()
 PAGE   2
  // condition: switch 34 is ON
  0()



EVENT   210
 PAGE   1
  0()
 PAGE   2
  // condition: switch 34 is ON
  0()



EVENT   212
 PAGE   1
  0()



EVENT   213
 PAGE   1
  0()



EVENT   214
 PAGE   1
  // condition: switch 35 is ON
  0()



EVENT   215
 PAGE   1
  // condition: switch 36 is ON
  0()



EVENT   216
 PAGE   1
  RunCommonEvent(350)
  0()



EVENT   217
 PAGE   1
  RunCommonEvent(350)
  0()



EVENT   218
 PAGE   1
  RunCommonEvent(350)
  0()



EVENT   219
 PAGE   1
  RunCommonEvent(350)
  0()



EVENT   220
 PAGE   1
  RunCommonEvent(350)
  0()


