﻿// EVENT 0326
Name "Minotaurosos Labyrinth"

If(1,1054,0,3,2)
 PictureDisplay(5,"80_h_mino_st01",0,0,0,0,100,100,255,0)
 ShowMessageFace("h_mino_fc1",0,0,2,1)
 ShowMessage("\\n<High Minotauros>Welcome! Do you have an invitation?")
 ShowChoices(strings("I have one.","I don't have one."),2)
 IfPlayerPicksChoice(0,"I have one.")
  ShowMessageFace("",0,0,2,2)
  ShowMessage("I lied. We don't actually have one...")
  ShowMessageFace("h_mino_fc1",1,0,2,3)
  ShowMessage("\\n<High Minotauros>Excuse me, but you don't seem to have an invitation...")
  ShowMessage("Please return when you receive one...")
  0()
 IfPlayerPicksChoice(1,"I don't have one.")
  ShowMessageFace("h_mino_fc1",1,0,2,4)
  ShowMessage("\\n<High Minotauros>I'm sorry, but I can only let in those with an invitation.")
  ShowMessage("Please return when you receive one...")
  0()
 404()
 PictureClear(5)
 205(-1,bytes(0x04,0x08,0x6f,0x3a,0x13,0x52,0x50,0x47,0x3a,0x3a,0x4d,0x6f,0x76,0x65,0x52,0x6f,0x75,0x74,0x65,0x09,0x3a,0x0c,0x40,0x72,0x65,0x70,0x65,0x61,0x74,0x46,0x3a,0x0f,0x40,0x73,0x6b,0x69,0x70,0x70,0x61,0x62,0x6c,0x65,0x46,0x3a,0x0a,0x40,0x77,0x61,0x69,0x74,0x54,0x3a,0x0a,0x40,0x6c,0x69,0x73,0x74,0x5b,0x07,0x6f,0x3a,0x15,0x52,0x50,0x47,0x3a,0x3a,0x4d,0x6f,0x76,0x65,0x43,0x6f,0x6d,0x6d,0x61,0x6e,0x64,0x07,0x3a,0x0a,0x40,0x63,0x6f,0x64,0x65,0x69,0x06,0x3a,0x10,0x40,0x70,0x61,0x72,0x61,0x6d,0x65,0x74,0x65,0x72,0x73,0x5b,0x00,0x6f,0x3b,0x0a,0x07,0x3b,0x0b,0x69,0x00,0x3b,0x0c,0x5b,0x00))
 505(bytes(0x04,0x08,0x6f,0x3a,0x15,0x52,0x50,0x47,0x3a,0x3a,0x4d,0x6f,0x76,0x65,0x43,0x6f,0x6d,0x6d,0x61,0x6e,0x64,0x07,0x3a,0x0a,0x40,0x63,0x6f,0x64,0x65,0x69,0x06,0x3a,0x10,0x40,0x70,0x61,0x72,0x61,0x6d,0x65,0x74,0x65,0x72,0x73,0x5b,0x00))
 EndEventProcessing()
 0()
EndIf()
If(1,1054,0,4,0)
 ChangeVariable(1054,1054,0,0,5)
 PictureDisplay(5,"80_h_mino_st01",0,0,0,0,100,100,255,0)
 ShowMessageFace("h_mino_fc1",0,0,2,5)
 ShowMessage("\\n<High Minotauros>Welcome! Do you have an invitation?")
 ShowChoices(strings("I have one.","I don't have one."),2)
 IfPlayerPicksChoice(0,"I have one.")
  ShowMessageFace("h_mino_fc1",3,0,2,6)
  ShowMessage("\\n<High Minotauros>Yes, so you do!")
  ShowMessage("Well then, please come in!")
  0()
 IfPlayerPicksChoice(1,"I don't have one.")
  ShowMessageFace("h_mino_fc1",1,0,2,7)
  ShowMessage("\\n<High Minotauros>I'm sorry, but I can only let in those with an invitation.")
  ShowMessage("Please return when you receive one...")
  ShowMessageFace("kerberos_fc1",2,0,2,8)
  ShowMessage("\\n<Caesar>Why would you say that, Luka?!")
  ShowMessage("We have one right here!")
  ShowMessageFace("h_mino_fc1",3,0,2,9)
  ShowMessage("\\n<High Minotauros>This is a genuine invitation, all right.")
  ShowMessage("Well then, please come in!")
  0()
 404()
 PictureClear(5)
 241(bytes(0x04,0x08,0x6f,0x3a,0x0d,0x52,0x50,0x47,0x3a,0x3a,0x42,0x47,0x4d,0x08,0x3a,0x0a,0x40,0x6e,0x61,0x6d,0x65,0x49,0x22,0x0a,0x6b,0x69,0x6b,0x69,0x32,0x06,0x3a,0x06,0x45,0x54,0x3a,0x0c,0x40,0x76,0x6f,0x6c,0x75,0x6d,0x65,0x69,0x69,0x3a,0x0b,0x40,0x70,0x69,0x74,0x63,0x68,0x69,0x69))
 If(0,4,0)
  ShowMessageFace("alice_fc5",0,0,2,10)
  ShowMessage("\\n<Alice>Now, what could be happening inside?")
  0()
 EndIf()
 If(0,5,0)
  ShowMessageFace("iriasu_fc4",2,0,2,11)
  ShowMessage("\\n<Ilias>Now, what on earth could be going on inside?")
  0()
 EndIf()
 If(0,6,0)
  ShowMessageFace("sonia_fc1",5,0,2,12)
  ShowMessage("\\n<Sonya>Whatever it is, it's definitely not a sukiyaki party.")
  ShowMessage("Here goes nothing!")
  0()
 Else()
  ShowMessageFace("ruka_fc1",0,0,2,13)
  ShowMessage("\\n<Luka>Whatever it is, It's definitely not a sukiyaki party.")
  ShowMessage("Here goes nothing!")
  0()
 EndIf()
 ChangeSwitch(283,283,0)
 ChangeSwitch(100,100,0)
 281(0)
 250(bytes(0x04,0x08,0x6f,0x3a,0x0c,0x52,0x50,0x47,0x3a,0x3a,0x53,0x45,0x08,0x3a,0x0a,0x40,0x6e,0x61,0x6d,0x65,0x49,0x22,0x09,0x4d,0x6f,0x76,0x65,0x06,0x3a,0x06,0x45,0x54,0x3a,0x0b,0x40,0x70,0x69,0x74,0x63,0x68,0x69,0x69,0x3a,0x0c,0x40,0x76,0x6f,0x6c,0x75,0x6d,0x65,0x69,0x55))
 TeleportPlayer(0,283,25,46,8,0)
 241(bytes(0x04,0x08,0x6f,0x3a,0x0d,0x52,0x50,0x47,0x3a,0x3a,0x42,0x47,0x4d,0x08,0x3a,0x0a,0x40,0x6e,0x61,0x6d,0x65,0x49,0x22,0x10,0x73,0x63,0x65,0x6e,0x65,0x5f,0x63,0x6f,0x6d,0x69,0x31,0x06,0x3a,0x06,0x45,0x54,0x3a,0x0c,0x40,0x76,0x6f,0x6c,0x75,0x6d,0x65,0x69,0x69,0x3a,0x0b,0x40,0x70,0x69,0x74,0x63,0x68,0x69,0x69))
 ShowMessageFace("mino_fc1",0,0,2,14)
 ShowMessage("\\n<Minotauros A>The sukiyaki is so good!")
 ShowMessage("The meat is grilled just right, too.")
 ShowMessageFace("mino_fc1",2,0,2,15)
 ShowMessage("\\n<Minotauros B>Hey, don't take my meat!")
 ShowMessageFace("mino_fc1",1,0,2,16)
 ShowMessage("\\n<Minotauros C>Whew, I'm full already...")
 ShowMessage("Hey, I'll take five more helpings!")
 If(0,6,0)
  ShowMessageFace("sonia_fc3",2,0,2,17)
  ShowMessage("\\n<Sonya>It's a sukiyaki party!!")
  0()
 Else()
  ShowMessageFace("ruka_fc1",0,0,2,18)
  ShowMessage("\\n<Luka>......")
  0()
 EndIf()
 241(bytes(0x04,0x08,0x6f,0x3a,0x0d,0x52,0x50,0x47,0x3a,0x3a,0x42,0x47,0x4d,0x08,0x3a,0x0a,0x40,0x6e,0x61,0x6d,0x65,0x49,0x22,0x12,0x64,0x75,0x6e,0x67,0x65,0x6f,0x6e,0x5f,0x74,0x6f,0x77,0x65,0x72,0x06,0x3a,0x06,0x45,0x54,0x3a,0x0c,0x40,0x76,0x6f,0x6c,0x75,0x6d,0x65,0x69,0x69,0x3a,0x0b,0x40,0x70,0x69,0x74,0x63,0x68,0x69,0x69))
 EndEventProcessing()
 0()
EndIf()
0()