﻿// EVENT 0124
Name "Stage 4"

355("ex_choice_add(\"Marathon!\",1,")
655("\"s[1062] and s[1101] and s[1148]\",1)")
655("ex_choice_add(\"Stage Fright\",2,")
655("\"s[1102] and s[1103]\",1)")
655("ex_choice_add(\"Monsters of Ilias\",3,")
655("\"s[1086] and s[1122] and s[1123]\",1)")
655("ex_choice_add(\"Nurse's health checkup\",4,")
655("\"s[1166] and s[1057]\",1)")
655("ex_choice_add(\"Life by the Sword!\",5,")
655("\"s[1095] and s[1132] and s[1156] and ")
655("s[1170]\",1)")
355("ex_choice_add(\"Poor Succubus, Eva...\",6,")
655("\"s[1056] and s[1143]\",1)")
655("ex_choice_add(\"My Harem\",7,")
655("\"s[1118]\",1)")
655("ex_choice_add(\"Suspicious Treasure\",8,")
655("\"s[1105] and s[1162]\",1)")
655("ex_choice_add(\"Torture Show\",9,")
655("\"s[1159] and s[1183]\",1)")
655("ex_choice_add(\"Gourmet Show\",10,")
655("\"s[1089] and s[1092] and s[1105] and ")
655("s[1110] and s[1112]\",1)")
655("ex_choice_add(\"Cancel\",11)")
355("ex_choice_show(0,11,[0,0])")
If(1,9,0,1,0)
 ChangeSwitch(631,631,0)
 221()
 242(1)
 Wait(60)
 211(0)
 TeleportPlayer(0,641,0,1,0,2)
 222()
 EndEventProcessing()
 0()
EndIf()
If(1,9,0,2,0)
 ChangeSwitch(632,632,0)
 221()
 242(1)
 Wait(60)
 211(0)
 TeleportPlayer(0,641,0,1,0,2)
 222()
 EndEventProcessing()
 0()
EndIf()
If(1,9,0,3,0)
 ChangeSwitch(633,633,0)
 221()
 242(1)
 Wait(60)
 211(0)
 TeleportPlayer(0,641,0,1,0,2)
 222()
 EndEventProcessing()
 0()
EndIf()
If(1,9,0,4,0)
 ChangeSwitch(634,634,0)
 221()
 242(1)
 Wait(60)
 211(0)
 TeleportPlayer(0,641,0,1,0,2)
 222()
 EndEventProcessing()
 0()
EndIf()
If(1,9,0,5,0)
 ChangeSwitch(635,635,0)
 221()
 242(1)
 Wait(60)
 211(0)
 TeleportPlayer(0,641,0,1,0,2)
 222()
 EndEventProcessing()
 0()
EndIf()
If(1,9,0,6,0)
 ChangeSwitch(636,636,0)
 221()
 242(1)
 Wait(60)
 211(0)
 TeleportPlayer(0,641,0,1,0,2)
 222()
 EndEventProcessing()
 0()
EndIf()
If(1,9,0,7,0)
 ChangeSwitch(637,637,0)
 221()
 242(1)
 Wait(60)
 211(0)
 TeleportPlayer(0,641,0,1,0,2)
 222()
 EndEventProcessing()
 0()
EndIf()
If(1,9,0,8,0)
 ChangeSwitch(638,638,0)
 221()
 242(1)
 Wait(60)
 211(0)
 TeleportPlayer(0,641,0,1,0,2)
 222()
 EndEventProcessing()
 0()
EndIf()
If(1,9,0,9,0)
 ChangeSwitch(639,639,0)
 221()
 242(1)
 Wait(60)
 211(0)
 TeleportPlayer(0,641,0,1,0,2)
 222()
 EndEventProcessing()
 0()
EndIf()
If(1,9,0,10,0)
 ChangeSwitch(640,640,0)
 221()
 242(1)
 Wait(60)
 211(0)
 TeleportPlayer(0,641,0,1,0,2)
 222()
 EndEventProcessing()
 0()
EndIf()
0()
